Year,TagID,RecoveryDate,RecoveryStatWeek
2020,72209,7/7/2020,28
2020,72218,7/8/2020,28
2020,72203,7/8/2020,28
2020,72196,7/13/2020,29
2020,72204,7/23/2020,30
2020,72251,7/30/2020,31
2020,72254,8/4/2020,32
2020,72259,8/4/2020,32
2020,72279,8/9/2020,33
2020,72297,8/13/2020,33
2020,72287,8/13/2020,33
2020,72302,8/16/2020,34
2020,72286,8/17/2020,34
2020,72292,8/18/2020,34
