"SPAGHETTI_TAG_NO","LENGTH_MILLIMETERS"
93627,435
93630,485
93640,485
93645,470
93647,485
93650,490
93656,450
93652,495
93653,485
93655,480
93657,480
93658,485
93674,455
93692,485
93698,480
93663,445
93664,435
93669,490
93670,495
93671,475
93673,445
93682,470
93684,475
93685,485
93687,485
93690,480
93691,460
93694,465
93695,465
93696,485
93697,485
93705,470
93711,490
93717,495
93703,490
93706,460
93708,485
93709,465
93710,495
93713,485
93719,495
93720,495
93721,480
93725,450
93731,430
93737,460
93743,490
93723,480
93726,495
93727,460
93728,495
93729,480
93730,480
93733,485
93738,355
93739,450
93740,450
93742,480
93744,480
93745,450
93746,420
93747,480
93748,480
93755,465
93761,465
93767,485
93774,475
93780,455
93793,450
93799,465
93805,430
93753,480
93754,490
93756,490
93758,405
93759,470
93763,470
93765,475
93766,480
93769,485
93773,455
93775,480
93778,435
93783,485
93784,495
93785,455
93789,420
93794,495
93796,485
93797,480
93798,475
93800,455
93801,475
93806,450
93808,495
93809,465
93810,455
93812,495
93815,470
93816,485
93818,495
93821,490
93822,480
93823,490
93828,475
93839,475
93853,495
93859,495
93865,490
93877,440
93885,485
93891,450
93897,450
93826,415
93827,490
93832,495
93835,435
93836,425
93837,485
93838,450
93840,480
93841,490
93843,470
93845,440
93847,465
93848,455
93849,490
93850,475
93851,425
93852,470
93855,485
93856,465
93860,460
93861,460
93862,485
93864,490
93866,470
93867,445
93869,480
93872,485
93873,470
93874,495
93876,470
93878,445
93879,450
93880,470
93881,480
93883,480
93887,485
93890,490
93892,410
93893,470
93896,450
93901,490
93904,470
93910,445
93928,480
93940,495
93946,495
93905,435
93907,465
93908,485
93909,475
93911,480
93912,465
93913,495
93914,495
93917,420
93918,480
93919,485
93920,455
93921,495
93923,440
93926,470
93927,480
93930,480
93931,480
93932,490
93933,480
93935,460
93938,470
93939,460
93941,460
93943,450
93947,490
93948,455
93977,465
93983,490
93990,405
93949,480
93950,495
93951,475
93953,495
93954,420
93955,480
93960,445
93962,475
93963,425
93964,485
93966,490
93968,475
93970,445
93972,490
93974,475
93976,475
93980,490
93981,475
93982,495
93985,485
93986,455
93987,480
93988,485
93992,480
93993,420
93994,475
93995,465
93997,480
94000,495
94001,455
94003,490
94005,480
94006,495
94009,485
94011,465
94012,455
94014,440
94038,480
94044,495
94013,435
94015,490
94016,485
94017,445
94018,470
94019,450
94021,445
94022,450
94023,480
94024,470
94027,440
94029,440
94031,465
94033,475
94034,450
94036,460
94039,475
94040,450
94041,480
94042,485
94043,480
94045,465
94046,470
94048,490
94049,470
94052,490
94054,470
94063,490
94069,470
94075,470
94081,475
94087,465
94093,480
94106,440
94058,490
94059,485
94062,490
94064,365
94066,420
94067,485
94071,495
94072,470
94073,485
94074,445
94076,455
94078,460
94082,455
94083,475
94085,495
94086,485
94088,490
94089,465
94094,475
94095,465
94097,475
94101,495
94107,495
94109,455
94110,480
94112,480
94118,465
94124,445
94130,490
94136,485
94142,435
94149,485
94113,465
94114,480
94116,480
94117,455
94119,465
94120,450
94121,490
94122,475
94125,495
94126,450
94127,475
94128,470
94129,465
94133,455
94137,485
94140,435
94141,445
94146,485
94147,495
94150,495
94151,485
94155,465
94152,480
94153,494
94154,480
94168,450
94180,490
94186,460
94159,460
94162,480
94163,440
94164,480
94167,420
94169,490
94171,440
94172,480
94175,465
94177,450
94178,455
94182,480
94183,485
94184,490
94185,475
94187,455
94188,475
94189,485
94193,465
94194,495
94195,385
94196,480
94210,485
94216,445
94222,480
94228,475
94234,485
94240,475
94197,435
94201,485
94202,485
94203,480
94211,465
94212,495
94213,430
94214,440
94215,460
94217,485
94218,470
94219,475
94220,485
94223,430
94224,430
94225,490
94226,480
94227,475
94229,470
94231,465
94232,460
94235,450
94237,490
94238,485
94239,490
94243,465
94244,490
94245,495
94246,490
94264,450
94270,470
94248,430
94249,440
94250,445
94251,485
94254,380
94256,470
94257,455
94259,445
94260,430
94261,480
94263,480
94265,460
94266,470
94267,445
94268,450
94269,485
94271,490
94272,465
94276,470
94282,470
94288,460
94294,455
94300,475
94273,465
94274,480
94275,460
94277,465
94278,490
94279,485
94280,460
94281,445
94283,455
94284,480
94285,485
94286,490
94287,445
94290,460
94292,495
94293,445
94297,475
94298,455
94299,455
94301,425
94302,370
94303,410
94304,450
94306,440
94312,445
94318,485
94325,465
94331,485
94343,450
94349,450
94305,480
94307,470
94308,495
94311,450
94313,485
94314,450
94315,495
94317,460
94319,480
94320,470
94321,475
94324,450
94326,485
94328,470
94330,475
94332,485
94335,480
94336,485
94339,485
94341,470
94342,455
94344,480
94345,445
94346,460
94348,495
94351,460
94352,445
94353,460
94354,435
94356,435
94357,445
94358,470
94367,465
94379,475
94391,465
94403,485
94359,475
94363,495
94364,480
94365,495
94366,475
94368,490
94369,495
94370,490
94371,455
94378,455
94381,480
94384,470
94386,425
94387,495
94388,495
94389,470
94390,480
94392,465
94394,355
94396,455
94398,475
94399,455
94400,495
94402,490
94404,480
94405,475
94406,495
94407,480
94412,485
94413,495
94414,445
94416,430
94417,385
94418,475
94419,460
94421,490
94427,440
94433,485
94457,455
94463,465
94469,455
94422,475
94423,440
94424,495
94425,440
94428,480
94429,425
94430,495
94432,430
94434,490
94435,375
94436,485
94438,485
94440,455
94441,485
94443,465
94444,465
94447,480
94448,465
94449,480
94454,475
94455,485
94456,460
94458,475
94459,480
94461,480
94462,455
94465,460
94468,455
94470,460
94471,485
94472,470
94473,455
94474,480
94475,465
94481,465
94487,445
94493,485
94505,430
94511,490
94517,485
94523,480
94529,425
94536,470
94542,440
94548,460
94477,360
94480,495
94482,475
94484,455
94485,375
94489,475
94491,450
94492,460
94494,465
94495,435
94497,480
94498,450
94501,410
94502,485
94503,425
94504,495
94506,485
94507,470
94509,460
94510,450
94513,470
94514,490
94515,485
94516,465
94518,460
94519,465
94520,480
94521,480
94522,470
94524,435
94525,460
94528,385
94530,475
94531,485
94534,445
94535,450
94537,450
94538,405
94539,460
94540,470
94541,450
94543,445
94544,470
94546,470
94547,450
94550,470
94551,465
94553,485
94556,470
94560,420
94567,450
94603,485
94615,475
94621,485
94557,460
94558,415
94559,460
94561,490
94563,470
94566,485
94568,465
94570,485
94571,480
94572,490
94574,465
94575,450
94576,440
94577,480
94578,485
94580,485
94581,480
94582,465
94584,495
94586,455
94587,445
94588,485
94590,440
94592,490
94593,465
94594,490
94595,435
94598,425
94599,490
94600,480
94602,495
94604,485
94606,430
94608,480
94611,480
94612,450
94613,485
94616,490
94618,445
94619,495
94622,495
94627,445
94633,470
94639,465
94623,475
94624,435
94625,440
94626,415
94628,355
94629,430
94630,470
94631,475
94632,370
94634,445
94635,475
94636,450
94637,460
94638,490
94640,460
94641,450
94642,485
94643,450
94647,480
94652,455
94670,460
94649,470
94651,445
94654,475
94655,490
94656,480
94657,450
94659,435
94660,465
94661,370
94662,460
94663,450
94665,490
94666,410
94667,480
94668,450
94669,475
94671,470
94672,490
94673,440
94674,485
94675,480
94678,435
94679,480
94682,450
94689,470
94694,480
94700,450
94680,450
94681,495
94683,450
94684,460
94685,435
94686,480
94688,470
94690,445
94691,455
94692,475
94695,455
94696,455
94697,470
94698,450
94699,485
94702,495
94703,455
94704,460
94707,440
94708,485
94709,480
94712,450
94718,460
94724,465
94729,470
94735,485
94747,470
94711,440
94713,470
94715,475
94716,450
94717,475
94719,450
94721,450
94722,470
94723,480
94725,455
94726,460
94728,420
94730,465
94731,470
94732,470
94733,435
94734,480
94736,430
94737,455
94738,465
94739,485
94740,450
94742,465
94744,435
94745,480
94764,440
94770,430
94776,440
94782,435
94752,455
94754,480
94755,440
94756,480
94757,485
94759,370
94760,460
94762,485
94763,460
94765,480
94767,475
94768,415
94771,430
94773,470
94775,494
94777,460
94778,475
94780,460
94781,425
94783,420
94784,465
94812,450
94818,495
94785,430
94789,440
94790,470
94791,420
94792,415
94793,435
94795,465
94796,465
94798,485
94799,455
94801,425
94802,440
94804,460
94805,455
94807,435
94808,430
94809,495
94814,450
94816,475
94824,435
94820,420
94821,445
94822,455
94823,475
94826,485
94827,435
94828,450
94830,490
94833,440
94834,430
94835,450
94836,440
94839,440
94840,465
94842,460
94849,470
94855,430
94861,450
94867,455
94873,470
94885,470
94845,450
94846,490
94847,460
94848,470
94850,440
94852,470
94853,445
94854,480
94857,450
94860,440
94862,475
94863,480
94864,430
94866,480
94869,480
94870,440
94875,475
94878,455
94881,485
94882,450
94883,445
94884,450
94886,445
94887,465
94888,455
94891,400
94903,435
94915,445
94921,470
94927,475
94933,450
94951,430
94957,465
94963,460
94975,450
94981,450
94988,440
94889,490
94890,490
94892,415
94893,465
94895,470
94896,480
94898,470
94899,425
94901,425
94902,440
94904,430
94905,445
94906,490
94907,495
94908,460
94910,425
94911,450
94912,450
94916,475
94917,425
94918,440
94920,460
94922,415
94923,480
94924,445
94925,495
94928,455
94929,485
94930,465
94932,440
94935,450
94936,470
94937,490
94940,440
94941,470
94942,485
94943,450
94944,425
94947,445
94948,435
94949,485
94950,450
94953,450
94954,455
94956,445
94958,470
94959,440
94960,445
94961,430
94962,425
94964,450
94965,430
94966,455
94970,475
94971,450
94972,365
94973,440
94976,460
94977,455
94979,475
94980,405
94982,460
94984,420
94985,460
94986,490
94987,410
94990,440
94991,450
94996,455
95002,465
95008,440
95020,440
95025,465
95031,450
94997,440
94998,445
94999,495
95000,460
95001,450
95003,460
95004,415
95005,480
95006,490
95007,485
95009,415
95011,430
95012,425
95015,460
95016,465
95017,465
95019,465
95021,480
95023,490
95024,470
95027,475
95029,420
95030,430
95032,495
95033,455
95034,490
95037,445
95042,495
95048,435
95054,405
95071,475
95077,430
95083,490
95095,425
95101,460
95036,430
95038,415
95040,480
95041,495
95043,485
95044,445
95045,475
95049,445
95050,455
95051,480
95052,450
95053,455
95055,460
95058,465
95060,455
95061,440
95062,475
95063,465
95064,455
95066,435
95067,495
95068,480
95069,475
95070,470
95073,435
95075,445
95079,415
95080,360
95081,475
95082,465
95084,485
95085,455
95091,455
95093,460
95094,455
95096,470
95097,465
95098,475
95099,445
95100,445
95107,440
95118,475
95130,460
95142,400
95148,450
95104,460
95108,470
95109,450
95111,460
95112,475
95114,480
95116,420
95119,470
95120,435
95123,420
95125,450
95128,440
95129,450
95132,405
95134,440
95139,460
95140,485
95143,410
95144,475
95145,420
95146,450
95155,445
95149,435
95152,485
95154,480
95157,455
95158,475
95160,460
95166,460
95184,465
95202,460
95208,390
95214,475
95220,475
95226,485
95238,480
95245,480
95162,445
95164,475
95165,430
95168,485
95169,425
95175,450
95176,465
95178,485
95179,485
95181,475
95182,440
95185,485
95187,440
95188,430
95189,475
95191,445
95192,435
95193,450
95197,480
95198,440
95204,425
95206,445
95207,475
95211,440
95212,425
95213,420
95215,485
95216,425
95217,460
95218,430
95219,445
95221,480
95222,490
95225,485
95227,445
95228,445
95229,455
95230,465
95233,445
95236,430
95237,480
95240,440
95246,465
95247,470
95248,490
95257,445
95270,435
95276,430
95281,490
95287,430
95249,489
95250,400
95252,450
95253,455
95254,490
95255,475
95259,470
95262,450
95263,485
95266,440
95269,475
95272,475
95274,470
95275,435
95277,495
95279,455
95280,460
95282,460
95283,475
95285,435
95286,475
95288,430
95289,465
95290,445
95291,455
95292,420
95304,430
95310,490
95323,475
95329,455
95335,465
95341,485
95347,475
95297,480
95303,490
95305,465
95307,460
95309,425
95312,480
95313,440
95314,350
95316,410
95318,435
95319,495
95320,355
95321,395
95322,470
95324,470
95325,450
95326,465
95327,470
95328,425
95330,450
95331,455
95332,430
95333,415
95336,475
95337,455
95339,375
95340,465
95342,445
95344,445
95345,450
95346,400
95349,420
95371,455
95377,465
95383,445
95395,435
95400,440
95407,460
95412,485
95354,470
95355,360
95358,490
95362,465
95364,495
95366,380
95367,475
95368,450
95369,455
95370,470
95373,350
95374,495
95375,485
95380,430
95381,430
95382,430
95384,455
95385,480
95387,490
95388,465
95392,450
95394,460
95396,460
95398,440
95399,485
95401,430
95402,495
95405,470
95406,460
95408,470
95409,455
95414,440
95418,465
95430,480
95442,455
95449,480
95455,410
95461,415
95467,400
95473,470
95485,465
95491,450
95415,375
95417,490
95422,450
95423,465
95425,460
95428,430
95429,425
95434,435
95435,365
95438,470
95439,430
95440,440
95441,425
95444,435
95445,460
95446,465
95448,430
95454,455
95457,430
95458,485
95459,435
95462,445
95463,495
95466,435
95469,430
95470,495
95471,435
95476,450
95478,495
95480,460
95482,440
95483,425
95489,460
95503,485
95515,475
95521,485
95493,495
95495,430
95498,465
95500,450
95502,480
95504,455
95506,455
95507,460
95508,435
95510,450
95511,420
95514,435
95517,405
95518,475
95519,445
95523,425
95524,495
95525,485
85526,450
95552,480
95532,450
95537,450
95541,480
95542,455
95544,485
95545,420
95551,475
95553,440
95554,450
95557,440
95578,425
95583,470
95562,485
95563,470
95564,455
95570,475
95574,485
95575,470
95576,350
95580,460
95582,420
95589,460
95607,420
95619,425
95591,495
95592,440
95593,465
95595,450
95596,470
95597,485
95599,460
95601,435
95602,485
95603,460
95608,495
95609,430
95610,495
95611,480
95614,445
95615,490
95618,460
95632,430
95649,455
95623,460
95630,440
95631,455
95633,455
95634,450
95635,350
95636,485
95637,490
95640,350
95641,420
95645,465
95646,405
95648,455
95654,445
95660,460
95679,445
95685,380
95651,435
95652,450
95655,430
95657,430
95659,460
95663,430
95664,390
95667,475
95668,440
95669,465
95670,385
95671,480
95673,430
95674,480
95676,470
95678,440
95680,475
95684,440
95697,490
95703,410
95709,400
95720,380
95686,350
95688,470
95690,385
95692,470
95694,440
95696,370
95698,430
95699,450
95701,490
95704,445
95706,490
95708,470
95710,465
95711,435
95713,480
95716,460
95732,475
95745,465
95751,490
95721,495
95722,470
95723,490
95725,450
95728,455
95734,465
95737,475
95738,495
95740,415
95741,450
95746,480
95747,420
95749,485
95750,415
95752,365
95757,440
95754,475
95763,435
95775,490
95760,475
95767,475
95771,420
95776,470
95777,480
95779,395
95781,365
95794,470
95800,445
95807,495
95780,495
95783,460
95788,460
95791,480
95793,455
95795,445
95798,485
95799,440
95801,485
95802,450
95805,485
95806,475
95808,495
95809,460
95811,430
95813,470
95819,470
95826,455
95832,460
95839,460
95844,475
95848,480
95853,480
95812,445
95814,380
95815,455
95816,460
95817,470
95821,465
95823,440
95825,435
95827,435
95828,475
95829,455
95830,455
95831,465
95833,455
95835,420
95836,415
95838,450
95840,420
95841,475
95842,420
95843,440
95845,495
95846,460
95847,440
95851,425
95852,430
95859,485
95865,475
95871,440
95877,445
95883,485
95889,475
95860,360
95866,450
95868,485
95869,435
95874,455
95879,400
95880,410
95881,460
95882,470
95884,485
95885,480
95888,495
95900,445
95890,470
95891,460
95893,440
95896,435
95898,495
95901,415
95902,485
95903,485
95904,490
95908,450
95910,435
95915,495
95921,490
95927,480
95912,495
95913,425
95919,445
95922,430
95924,480
95925,490
95931,400
95932,485
95935,475
95937,495
95941,390
95942,475
95945,405
95947,435
95948,490
95951,415
95957,370
95963,490
95954,435
95958,430
95975,480
95964,420
95965,470
95970,370
95974,440
95980,490
95982,480
95984,430
95985,420
95988,395
95989,435
95990,475
95991,470
95993,450
95994,440
95996,440
95998,470
96000,455
96001,420
96002,430
96007,420
96012,470
96013,490
96014,480
96017,495
96018,485
96019,445
96023,450
96021,400
96022,430
96024,455
96026,475
96035,395
96037,455
96038,465
96046,410
96039,495
96041,485
96042,460
96044,435
96050,490
96051,410
96056,475
96065,475
96064,470
96066,465
96071,495
96068,355
96080,450
