Time Stratified Petersen with Non-Diagonal recaptures, error in smoothed U, non-parametric modelling of travel times, and incorporating mark availability-  Mon Nov 23 09:04:01 2020
Version:  2020-12-01

 Postseason_Small_fallback--2019  TSPND NP Results 

*** Raw data *** (padded to match length of u2) 
    time  n1 m2.1 m2.2 m2.3  u2 sampfrac logitP.cov jump
X1     1   1    0    0    0   0        1          1     
X2     2   7    0    0    0   0        1          1     
X3     3  31    0    0    0   0        1          1     
X4     4  42    0    1    1   0        1          1     
X5     5 109    0    7    1  66        1          1     
X6     6 138    2    5    0 155        1          1     
X7     7  91    4    3    0 277        1          1     
X8     8 163    6    9    1 500        1          1     
X9     9 150   18    6    2 640        1          1     
X10   10  78    1    4    1 248        1          1     
X11   11  58    2    4    0 296        1          1     
X12   12  20    1    0    0 127        1          1     
X13   13  24    1    1    0  52        1          1     
X14   14   5    0    0    0  13        1          1     
X15   15   5    0    1    0   5        1          1     
X16   16   1    0    0    0   0        1          1     
X     17  NA   NA   NA   NA   0        1          1     
X.1   18  NA   NA   NA   NA   0        1          1     


*** Marked Availability prior information *** 
    Set marked available n= 534  with x= 448 


Jump point are after strata: none - A single spline is fit
Maximum travel time (Delta.max):  2
Fixed logitP indices are: 1 2 3 4 17 18
Fixed logitP values  are: -10 -10 -10 -10 -10 -10

*** Pooled Petersen Estimate prior to fixing bad n1, m2, or u2 values  CHECK - CHECK - CHECK - CHECK ***

    *** NOT ADJUSTED FOR MARK AVAILABILITY/Dropout/Fallback ***
Total n1= 923 ;  m2= 82 ;  u2= 2379 

Est U(total) not adjusted for fallback  26,494   (SE  2,805 )
Est N(total) not adjusted for fallback  27,407   (SE  2,805 )




Adjusting for fallback/dropout  
Estimated dropout is 0.1610487 with se of  0.01590656 
Est U(total) adjusting for dropout is  22,228   (SE  2,391 )
Est N(total) adjusting for dropout is  22,993   (SE  2,393 )


*** Test if pooled Petersen is allowable. [Check if fraction captured equal] ***

(Large Sample) Chi-square test statistic  23.06542  has p-value 0.08276066 

   time n1-m2* m2* E[n1-m2] E[m2] X2[n1-m2] X2[m2]
1     1      1   0      0.9   0.1       0.0    0.1
2     2      7   0      6.4   0.6       0.1    0.6
3     3     31   0     28.2   2.8       0.3    2.8
4     4     40   2     38.3   3.7       0.1    0.8
5     5    101   8     99.3   9.7       0.0    0.3
6     6    131   7    125.7  12.3       0.2    2.3
7     7     84   7     82.9   8.1       0.0    0.1
8     8    147  16    148.5  14.5       0.0    0.2
9     9    124  26    136.7  13.3       1.2   12.1
10   10     72   6     71.1   6.9       0.0    0.1
11   11     52   6     52.8   5.2       0.0    0.1
12   12     19   1     18.2   1.8       0.0    0.3
13   13     22   2     21.9   2.1       0.0    0.0
14   14      5   0      4.6   0.4       0.0    0.4
15   15      4   1      4.6   0.4       0.1    0.7
16   16      1   0      0.9   0.1       0.0    0.1

 Be cautious of using this test in cases of small expected values. 



*** Revised data *** 
    time  n1 m2.1 m2.2 m2.3  u2 sampfrac logitP.cov jump.after
X1     1   1    0    0    0   0        1          1           
X2     2   7    0    0    0   0        1          1           
X3     3  31    0    0    0   0        1          1           
X4     4  42    0    1    1   0        1          1           
X5     5 109    0    7    1  66        1          1           
X6     6 138    2    5    0 155        1          1           
X7     7  91    4    3    0 277        1          1           
X8     8 163    6    9    1 500        1          1           
X9     9 150   18    6    2 640        1          1           
X10   10  78    1    4    1 248        1          1           
X11   11  58    2    4    0 296        1          1           
X12   12  20    1    0    0 127        1          1           
X13   13  24    1    1    0  52        1          1           
X14   14   5    0    0    0  13        1          1           
X15   15   5    0    1    0   5        1          1           
X16   16   1    0    0    0   0        1          1           
X     17  NA   NA   NA   NA   0        1          1           
X.1   18  NA   NA   NA   NA   0        1          1           


*** Marked Availability prior information *** 
    Set marked available n= 534  with x= 448 


*** Expanded m2 array with column sum and u2 ***

                        [,1] [,2] [,3] [,4] [,5] [,6] [,7] [,8] [,9] [,10] [,11] [,12] [,13] [,14] [,15] [,16] [,17] [,18] [,19]
1                          0    0    0    0    0    0    0    0    0     0     0     0     0     0     0     0     0     0     1
2                          0    0    0    0    0    0    0    0    0     0     0     0     0     0     0     0     0     0     7
3                          0    0    0    0    0    0    0    0    0     0     0     0     0     0     0     0     0     0    31
4                          0    0    0    0    1    1    0    0    0     0     0     0     0     0     0     0     0     0    40
5                          0    0    0    0    0    7    1    0    0     0     0     0     0     0     0     0     0     0   101
6                          0    0    0    0    0    2    5    0    0     0     0     0     0     0     0     0     0     0   131
7                          0    0    0    0    0    0    4    3    0     0     0     0     0     0     0     0     0     0    84
8                          0    0    0    0    0    0    0    6    9     1     0     0     0     0     0     0     0     0   147
9                          0    0    0    0    0    0    0    0   18     6     2     0     0     0     0     0     0     0   124
10                         0    0    0    0    0    0    0    0    0     1     4     1     0     0     0     0     0     0    72
11                         0    0    0    0    0    0    0    0    0     0     2     4     0     0     0     0     0     0    52
12                         0    0    0    0    0    0    0    0    0     0     0     1     0     0     0     0     0     0    19
13                         0    0    0    0    0    0    0    0    0     0     0     0     1     1     0     0     0     0    22
14                         0    0    0    0    0    0    0    0    0     0     0     0     0     0     0     0     0     0     5
15                         0    0    0    0    0    0    0    0    0     0     0     0     0     0     0     1     0     0     4
16                         0    0    0    0    0    0    0    0    0     0     0     0     0     0     0     0     0     0     1
Column totals              0    0    0    0    1   10   10    9   27     8     8     6     1     1     0     1     0     0   841
Untagged (u2)              0    0    0    0   66  155  277  500  640   248   296   127    52    13     5     0     0     0    NA
Untagged - after fixups    0    0    0    0   66  155  277  500  640   248   296   127    52    13     5     0     0     0    NA
Logit P fixed            -10  -10  -10  -10   NA   NA   NA   NA   NA    NA    NA    NA    NA    NA    NA    NA   -10   -10    NA


*** Information on priors *** 
   P(marked fish available for subsequent recapture) has beta( 448 86 ) which corresponds 
    to a mean of  0.84  and sd of  0.016 
   Parameters for prior on tauU (variance in spline coefficients):  1 0.05  which corresponds to a mean/std dev of 1/var of: 20 20 
   Parameters for prior on taueU (variance of log(U) about spline):  1 0.05  which corresponds to a mean/std dev of 1/var of: 20 20 
   Parameters for prior on beta.logitP[1] (intercept) (mean, sd): 
 -2.328 2 
   Parameters for prior on tauP (residual variance of logit(P) after adjusting for covariates):  0.001 0.001  which corresponds to a mean/std dev of 1/var of: 1 31.62 
   Parameters for prior on tauTT (variance of continuation rations for travel times):  0.1 0.1  which corresponds to a mean/std dev of 1/var of: 1 3.16 


Initial seed for this run is:  2019 


*** Summary of MCMC results *** 

Inference for Bugs model at "C:/Taku_sockeye/Taku_sockeye_public/Postseason_Small_fallback--2019/model.txt", fit using jags,
 3 chains, each with 30000 iterations (first 1000 discarded), n.thin = 58
 n.sims = 1500 iterations saved
                    mean       sd      2.5%       25%       50%       75%     97.5%  Rhat n.eff
Ntot           22742.329 2791.018 18274.668 20853.500 22423.500 24278.000 28761.172 1.001  1500
Theta[1,1]         0.422    0.168     0.106     0.307     0.413     0.530     0.767 1.001  1500
Theta[2,1]         0.410    0.168     0.099     0.294     0.401     0.512     0.764 1.002  1500
Theta[3,1]         0.430    0.175     0.113     0.313     0.418     0.534     0.839 1.002  1000
Theta[4,1]         0.406    0.159     0.099     0.295     0.399     0.511     0.723 1.007   290
Theta[5,1]         0.255    0.121     0.047     0.162     0.248     0.346     0.483 1.002  1500
Theta[6,1]         0.370    0.123     0.143     0.281     0.366     0.447     0.626 1.005   520
Theta[7,1]         0.490    0.128     0.249     0.400     0.484     0.576     0.760 1.002  1200
Theta[8,1]         0.421    0.106     0.225     0.347     0.418     0.493     0.638 1.001  1500
Theta[9,1]         0.562    0.094     0.384     0.493     0.560     0.629     0.742 1.001  1500
Theta[10,1]        0.341    0.127     0.106     0.249     0.342     0.434     0.587 1.001  1500
Theta[11,1]        0.378    0.127     0.147     0.289     0.375     0.458     0.642 1.000  1500
Theta[12,1]        0.469    0.167     0.179     0.352     0.460     0.574     0.829 1.000  1500
Theta[13,1]        0.426    0.150     0.142     0.323     0.421     0.525     0.747 1.003  1500
Theta[14,1]        0.418    0.168     0.120     0.299     0.415     0.527     0.787 1.003  1500
Theta[15,1]        0.374    0.152     0.099     0.265     0.370     0.473     0.685 1.001  1500
Theta[16,1]        0.412    0.167     0.104     0.303     0.406     0.516     0.766 1.004  1100
Theta[1,2]         0.482    0.157     0.147     0.381     0.490     0.585     0.778 1.001  1400
Theta[2,2]         0.489    0.158     0.173     0.386     0.489     0.592     0.798 1.001  1500
Theta[3,2]         0.481    0.163     0.124     0.379     0.484     0.581     0.805 1.002  1000
Theta[4,2]         0.477    0.145     0.196     0.381     0.478     0.576     0.765 1.011   300
Theta[5,2]         0.636    0.121     0.409     0.549     0.634     0.722     0.873 1.002  1300
Theta[6,2]         0.553    0.121     0.318     0.472     0.553     0.632     0.793 1.001  1400
Theta[7,2]         0.443    0.118     0.202     0.367     0.445     0.524     0.678 1.001  1500
Theta[8,2]         0.487    0.101     0.291     0.418     0.487     0.553     0.689 1.003   800
Theta[9,2]         0.361    0.089     0.189     0.297     0.359     0.426     0.534 1.002  1300
Theta[10,2]        0.543    0.122     0.308     0.460     0.542     0.627     0.778 1.002  1200
Theta[11,2]        0.540    0.124     0.293     0.458     0.540     0.624     0.785 1.001  1500
Theta[12,2]        0.442    0.153     0.124     0.347     0.444     0.545     0.719 1.006  1500
Theta[13,2]        0.486    0.141     0.190     0.393     0.487     0.581     0.760 1.002  1500
Theta[14,2]        0.483    0.155     0.143     0.386     0.484     0.588     0.767 1.004  1500
Theta[15,2]        0.527    0.147     0.237     0.427     0.523     0.618     0.828 1.001  1500
Theta[16,2]        0.490    0.157     0.166     0.387     0.491     0.592     0.805 1.003   980
Theta[1,3]         0.096    0.078     0.011     0.045     0.077     0.120     0.303 1.001  1500
Theta[2,3]         0.101    0.083     0.012     0.048     0.081     0.125     0.332 1.001  1500
Theta[3,3]         0.089    0.068     0.011     0.044     0.073     0.116     0.273 1.005   480
Theta[4,3]         0.118    0.084     0.020     0.062     0.097     0.149     0.345 1.006   350
Theta[5,3]         0.110    0.063     0.024     0.066     0.096     0.140     0.274 1.008   290
Theta[6,3]         0.077    0.050     0.009     0.041     0.069     0.101     0.198 1.002  1100
Theta[7,3]         0.067    0.046     0.008     0.034     0.057     0.090     0.187 1.003   680
Theta[8,3]         0.092    0.053     0.019     0.054     0.081     0.119     0.223 1.001  1500
Theta[9,3]         0.077    0.039     0.020     0.049     0.071     0.099     0.167 1.006   440
Theta[10,3]        0.116    0.075     0.025     0.064     0.098     0.147     0.312 1.004   700
Theta[11,3]        0.082    0.052     0.013     0.045     0.073     0.107     0.213 1.002  1000
Theta[12,3]        0.089    0.070     0.010     0.042     0.073     0.112     0.264 1.002  1200
Theta[13,3]        0.088    0.064     0.011     0.045     0.072     0.111     0.259 1.003   750
Theta[14,3]        0.099    0.076     0.012     0.048     0.081     0.128     0.297 1.001  1400
Theta[15,3]        0.099    0.075     0.016     0.050     0.081     0.127     0.306 1.000  1500
Theta[16,3]        0.098    0.078     0.013     0.049     0.078     0.124     0.303 1.001  1500
U[1]             106.800  573.100     0.000     0.000     3.000    25.000   896.750 1.097  1300
U[2]              90.539  256.230     0.000     4.000    18.000    72.250   603.000 1.014  1500
U[3]             157.048  248.475     3.000    35.000    85.000   188.250   701.200 1.011  1500
U[4]             353.367  285.444    60.000   173.000   280.500   440.000  1081.000 1.012   190
U[5]             776.591  284.173   445.422   601.750   712.500   878.000  1456.574 1.003   690
U[6]            1603.607  336.099  1090.000  1361.500  1557.500  1787.250  2390.575 1.001  1400
U[7]            2809.255  527.247  1948.950  2444.750  2748.500  3101.500  4097.525 1.000  1500
U[8]            4462.915  782.943  3206.425  3940.750  4370.000  4886.000  6340.773 1.000  1500
U[9]            4444.928  855.818  2991.323  3802.250  4411.500  5000.500  6269.050 1.001  1500
U[10]           2819.010  586.305  1889.583  2390.000  2762.000  3170.750  4115.059 1.003   730
U[11]           2502.484  452.296  1727.000  2196.750  2442.000  2770.250  3519.722 1.001  1500
U[12]           1156.681  232.428   765.424   994.750  1129.000  1285.000  1700.525 1.004   500
U[13]            493.767  116.476   318.000   413.000   480.000   555.250   764.144 1.002   980
U[14]            144.480   44.114    81.473   115.000   137.000   168.000   252.525 1.004   530
U[15]             38.330   15.547    17.000    27.000    35.000    47.000    75.000 1.000  1500
U[16]              6.817    5.319     1.000     3.000     5.000     9.000    21.000 1.012  1100
U[17]              1.308    2.349     0.000     0.000     1.000     1.000     8.000 1.038   300
U[18]              0.527    3.381     0.000     0.000     0.000     0.000     4.000 1.077   550
Utot           21968.454 2788.974 17526.972 20084.750 21633.500 23496.500 27956.874 1.001  1500
bU[1]             -2.073    6.578   -16.852    -4.840    -1.143     2.020     7.743 1.070   160
bU[2]              2.728    2.075    -2.086     1.561     2.924     4.192     6.212 1.017   200
bU[3]              7.065    0.569     5.951     6.712     7.043     7.398     8.249 1.009  1500
bU[4]              8.977    0.347     8.266     8.751     8.983     9.207     9.635 1.004  1500
bU[5]              6.752    0.414     5.963     6.473     6.749     7.027     7.567 1.006   370
bU[6]              1.788    0.732     0.386     1.310     1.792     2.292     3.172 1.001  1500
bU[7]             -4.319    3.010   -10.897    -6.117    -4.231    -2.230     1.154 1.010  1500
bU[8]            -10.479    7.018   -26.146   -14.412   -10.143    -5.900     1.947 1.011  1500
beta.logitP[1]    -2.121    0.162    -2.434    -2.228    -2.115    -2.014    -1.812 1.001  1500
beta.logitP[2]     0.479   10.083   -19.318    -6.535     0.397     7.328    19.509 1.001  1500
deviance         179.682    7.199   167.097   174.543   179.175   184.116   194.978 1.001  1500
eU[1]              0.002    0.221    -0.416    -0.125     0.001     0.132     0.449 1.004   580
eU[2]              0.013    0.228    -0.470    -0.124     0.010     0.140     0.476 1.000  1500
eU[3]              0.006    0.231    -0.442    -0.137     0.004     0.135     0.494 1.001  1500
eU[4]              0.003    0.225    -0.435    -0.134    -0.003     0.132     0.488 1.000  1500
eU[5]             -0.012    0.215    -0.436    -0.140    -0.015     0.117     0.431 1.006   340
eU[6]             -0.033    0.170    -0.363    -0.139    -0.030     0.073     0.295 1.001  1500
eU[7]             -0.013    0.170    -0.343    -0.122    -0.017     0.094     0.326 1.003  1500
eU[8]              0.143    0.161    -0.154     0.030     0.131     0.243     0.495 1.000  1500
eU[9]              0.069    0.186    -0.292    -0.051     0.065     0.190     0.445 1.004   730
eU[10]            -0.207    0.203    -0.638    -0.339    -0.193    -0.069     0.166 1.000  1500
eU[11]             0.106    0.160    -0.197     0.001     0.094     0.203     0.439 1.002   900
eU[12]            -0.002    0.174    -0.349    -0.114     0.000     0.105     0.361 1.000  1500
eU[13]             0.046    0.179    -0.315    -0.061     0.041     0.156     0.415 1.001  1500
eU[14]            -0.048    0.197    -0.434    -0.164    -0.044     0.073     0.338 1.002   810
eU[15]             0.046    0.214    -0.370    -0.083     0.045     0.159     0.490 1.001  1500
eU[16]            -0.035    0.235    -0.513    -0.164    -0.022     0.101     0.432 1.001  1500
eU[17]             0.003    0.237    -0.481    -0.139    -0.002     0.138     0.480 1.005  1500
eU[18]            -0.001    0.226    -0.451    -0.133    -0.005     0.125     0.471 1.004   520
etaU[1]            0.535    4.077    -8.852    -1.383     1.077     3.201     6.798 1.057   170
etaU[2]            2.647    2.411    -2.866     1.464     2.898     4.284     6.402 1.039   180
etaU[3]            4.308    1.361     1.109     3.557     4.446     5.239     6.553 1.023   180
etaU[4]            5.609    0.733     4.095     5.154     5.637     6.086     6.986 1.016   170
etaU[5]            6.605    0.303     6.098     6.399     6.568     6.778     7.284 1.003   670
etaU[6]            7.360    0.200     6.994     7.216     7.351     7.489     7.779 1.001  1400
etaU[7]            7.924    0.183     7.575     7.802     7.919     8.040     8.318 1.000  1500
etaU[8]            8.389    0.170     8.073     8.279     8.382     8.494     8.755 1.000  1500
etaU[9]            8.381    0.193     8.004     8.243     8.392     8.517     8.743 1.002  1500
etaU[10]           7.923    0.204     7.544     7.779     7.924     8.062     8.322 1.003   700
etaU[11]           7.809    0.178     7.454     7.695     7.801     7.927     8.166 1.001  1500
etaU[12]           7.034    0.197     6.640     6.902     7.029     7.159     7.439 1.004   500
etaU[13]           6.176    0.226     5.762     6.023     6.173     6.320     6.639 1.002   970
etaU[14]           4.931    0.288     4.403     4.744     4.917     5.121     5.532 1.004   540
etaU[15]           3.568    0.398     2.805     3.304     3.566     3.847     4.319 1.000  1500
etaU[16]           1.653    0.755     0.125     1.120     1.688     2.170     3.061 1.002  1500
etaU[17]          -0.592    1.441    -3.555    -1.503    -0.511     0.393     2.128 1.007  1500
etaU[18]          -3.861    2.853   -10.017    -5.620    -3.757    -1.866     1.435 1.010  1500
logUne[1]          0.533    4.075    -8.740    -1.366     1.047     3.189     6.730 1.057   170
logUne[2]          2.634    2.398    -2.912     1.448     2.912     4.274     6.369 1.039   170
logUne[3]          4.302    1.335     1.193     3.549     4.433     5.240     6.469 1.023   180
logUne[4]          5.606    0.696     4.158     5.166     5.623     6.085     6.867 1.016   170
logUne[5]          6.617    0.351     5.986     6.374     6.602     6.843     7.320 1.009   240
logUne[6]          7.392    0.218     6.977     7.244     7.390     7.532     7.838 1.002   850
logUne[7]          7.937    0.182     7.576     7.823     7.938     8.058     8.287 1.001  1500
logUne[8]          8.246    0.172     7.911     8.128     8.244     8.358     8.579 1.001  1500
logUne[9]          8.312    0.177     7.969     8.193     8.314     8.426     8.655 1.001  1500
logUne[10]         8.131    0.172     7.782     8.018     8.132     8.245     8.462 1.003   730
logUne[11]         7.704    0.175     7.349     7.589     7.707     7.818     8.043 1.006   360
logUne[12]         7.035    0.197     6.639     6.902     7.039     7.172     7.415 1.006   320
logUne[13]         6.130    0.219     5.694     5.979     6.139     6.280     6.557 1.004   450
logUne[14]         4.979    0.264     4.475     4.806     4.972     5.148     5.502 1.001  1500
logUne[15]         3.522    0.399     2.736     3.247     3.513     3.790     4.309 1.000  1500
logUne[16]         1.688    0.732     0.232     1.192     1.720     2.218     3.068 1.002  1500
logUne[17]        -0.595    1.423    -3.552    -1.471    -0.498     0.376     2.050 1.007  1500
logUne[18]        -3.860    2.843    -9.997    -5.627    -3.764    -1.874     1.359 1.010  1500
logitP[1]        -10.000    0.000   -10.000   -10.000   -10.000   -10.000   -10.000 1.000     1
logitP[2]        -10.000    0.000   -10.000   -10.000   -10.000   -10.000   -10.000 1.000     1
logitP[3]        -10.000    0.000   -10.000   -10.000   -10.000   -10.000   -10.000 1.000     1
logitP[4]        -10.000    0.000   -10.000   -10.000   -10.000   -10.000   -10.000 1.000     1
logitP[5]         -2.317    0.312    -3.024    -2.498    -2.265    -2.099    -1.820 1.002  1300
logitP[6]         -2.208    0.215    -2.671    -2.348    -2.193    -2.058    -1.829 1.002  1000
logitP[7]         -2.194    0.202    -2.620    -2.320    -2.191    -2.059    -1.807 1.000  1500
logitP[8]         -2.061    0.190    -2.463    -2.179    -2.063    -1.941    -1.700 1.001  1500
logitP[9]         -1.760    0.227    -2.180    -1.919    -1.772    -1.603    -1.321 1.002  1500
logitP[10]        -2.295    0.223    -2.713    -2.448    -2.289    -2.137    -1.895 1.003   990
logitP[11]        -1.998    0.200    -2.403    -2.132    -1.998    -1.872    -1.600 1.001  1500
logitP[12]        -2.068    0.218    -2.506    -2.210    -2.069    -1.927    -1.619 1.004   540
logitP[13]        -2.131    0.239    -2.644    -2.273    -2.121    -1.975    -1.680 1.002  1300
logitP[14]        -2.209    0.283    -2.825    -2.376    -2.187    -2.028    -1.708 1.003  1200
logitP[15]        -2.111    0.298    -2.768    -2.269    -2.095    -1.930    -1.554 1.000  1500
logitP[16]        -2.131    0.312    -2.811    -2.306    -2.111    -1.940    -1.533 1.002   870
logitP[17]       -10.000    0.000   -10.000   -10.000   -10.000   -10.000   -10.000 1.000     1
logitP[18]       -10.000    0.000   -10.000   -10.000   -10.000   -10.000   -10.000 1.000     1
logitP[19]       -10.000    0.000   -10.000   -10.000   -10.000   -10.000   -10.000 1.000     1
ma.p               0.838    0.016     0.806     0.827     0.838     0.849     0.868 1.001  1500
movep[1]           0.404    0.082     0.240     0.349     0.406     0.459     0.562 1.003   760
movep[2]           0.507    0.078     0.361     0.455     0.507     0.559     0.661 1.002  1200
movep[3]           0.089    0.037     0.034     0.062     0.084     0.108     0.179 1.003   700
muTT[1]           -0.403    0.357    -1.150    -0.622    -0.381    -0.164     0.251 1.003   730
muTT[2]            1.818    0.466     0.908     1.510     1.791     2.130     2.749 1.002  1100
sdTT               0.682    0.316     0.244     0.449     0.627     0.848     1.425 1.003   700
sigmaP             0.253    0.145     0.040     0.152     0.237     0.331     0.568 1.002  1500
sigmaU             3.403    1.645     1.561     2.309     2.979     4.037     7.682 1.019   170
sigmaeU            0.214    0.077     0.109     0.157     0.201     0.255     0.401 1.000  1500
tauP              75.633  202.825     3.104     9.102    17.749    43.105   615.308 1.002  1500
tauU               0.139    0.106     0.017     0.061     0.113     0.188     0.410 1.019   170
taueU             30.609   21.138     6.223    15.362    24.845    40.669    83.598 1.000  1500

For each parameter, n.eff is a crude measure of effective sample size,
and Rhat is the potential scale reduction factor (at convergence, Rhat=1).

DIC info (using the rule, pD = var(deviance)/2)
pD = 25.9 and DIC = 205.6
DIC is an estimate of expected predictive error (lower deviance is better).


*** Alternate DIC computation based on p_D = var(deviance)/2 
    D-bar:  179.6824 ;  var(dev):  51.82289 ; p.D:  25.91144 ; DIC:  205.5939



*** Summary of Unmarked Population Size ***
  mean     sd   2.5%    25%    50%    75%  97.5%   Rhat  n.eff 
21,968  2,788 17,526 20,084 21,633 23,496 27,956   1.00  1,500 


*** Summary of Total Population Size *** 
  mean     sd   2.5%    25%    50%    75%  97.5%   Rhat  n.eff 
22,742  2,791 18,274 20,853 22,423 24,277 28,761   1.00  1,500 




*** Summary of Quantiles of Run Timing *** 
    This is based on the sample weeks provided and the U[i] values 
       0%  10%  20%  30%  40%  50%  60%   70%   80%   90% 100%
Mean 1.40 6.44 7.45 8.13 8.65 9.13 9.63 10.20 10.98 11.86   19
Sd   0.66 0.76 0.56 0.41 0.31 0.23 0.19  0.21  0.18  0.13    0


