logitP <-
c(NA, NA, NA, NA, -2.41789593950504, -2.79575578152132, -2.35137525716348, 
-2.15721924272252, -1.52444469960071, -2.33075596996074, -2.00533356952611, 
-2.2512917986065, -1.99243016469021, -1.6094379124341, -0.693147180559946, 
0, NA, NA, NA)
beta.logitP <-
c(-1.84409062635756, 0)
tauP <-
1.58878200727446
bU <-
c(SplineDesign1 = 6.48248348422845, SplineDesign2 = -2.34795939474499, 
SplineDesign3 = 7.26524076565158, SplineDesign4 = 9.38557661508482, 
SplineDesign5 = 7.00074078689228, SplineDesign6 = 1.53318038654834, 
SplineDesign7 = 2.40267969056342, SplineDesign8 = 3.5365725101876
)
tauU <-
0.0111162745278911
taueU <-
3.76365623744184
etaU <-
c(2.4209099872386, 2.4209099872386, 2.4209099872386, 2.4209099872386, 
6.62560260662957, 7.47076599448814, 8.04853110092924, 8.63751608832346, 
8.88393944415927, 7.93836288370331, 8.1146421260413, 7.27294025115822, 
6.39120190079072, 5.05996731685386, 4.21266945646665, 2.4209099872386, 
2.4209099872386, 2.4209099872386)
muTT <-
c(-1.00512639806533, 1.71009122403687)
tauTT <-
0.25538725191082
r <-
structure(c(-0.693147180559945, -0.693147180559945, -0.693147180559945, 
-4.60517018598809, -4.60517018598809, -0.930193637043146, 0.264616799520785, 
-0.510825623765991, 0.810930216216329, -1.6094379124341, -0.708035793053696, 
3.90197266957464, -0.0198026272961798, -0.693147180559945, -4.60517018598809, 
-0.693147180559945, 4.44089209850063e-16, 4.44089209850063e-16, 
4.44089209850063e-16, 0, 1.94591014905531, 4.26869794936688, 
3.75787232560089, 2.19722457733622, 1.09861228866811, 1.38629436111989, 
4.19970507787993, -1.77635683940025e-15, 3.91202300542814, 4.44089209850063e-16, 
4.59511985013459, 4.44089209850063e-16), .Dim = c(16L, 2L))
ma.p <-
0.838951310861423
.RNG.seed <-
303361
.RNG.name <-
"base::Wichmann-Hill"
