"Year","EstType","Data","Mean","SD","CV"
1984,"PPSizeAdj","matrix","88,272","8,689","9.8%"
1985,"PPSizeAdj","matrix","84,479","8,573","10.1%"
1987,"PPSizeAdj","matrix","56,362","5,386","9.6%"
1988,"PPSizeAdj","matrix","55,580","5,466","9.8%"
1989,"PPSizeAdj","matrix","80,997","7,605","9.4%"
1990,"PPSizeAdj","matrix","75,801","6,981","9.2%"
1991,"PPSizeAdj","matrix","104,895","9,899","9.4%"
1992,"PPSizeAdj","matrix","99,643","9,121","9.2%"
1993,"PPSizeAdj","matrix","92,933","8,351","9%"
1994,"PPSizeAdj","matrix","90,128","8,231","9.1%"
1995,"PPSizeAdj","matrix","104,242","9,531","9.1%"
1996,"PPSizeAdj","matrix","97,477","8,788","9%"
1997,"PPSizeAdj","matrix","73,255","6,697","9.1%"
1998,"PPSizeAdj","matrix","64,755","6,069","9.4%"
1999,"PPSizeAdj","matrix","83,588","7,886","9.4%"
2000,"PPSizeAdj","matrix","83,190","7,583","9.1%"
2001,"PPSizeAdj","matrix","132,502","12,049","9.1%"
2002,"PPSizeAdj","matrix","94,605","8,637","9.1%"
2003,"SumSize","master","133,593","12,338","9.2%"
2004,"SumSize","master","85,257","7,828","9.2%"
2005,"SumSize","master","87,496","8,521","9.7%"
2006,"SumSize","master","106,545","10,175","9.6%"
2007,"SumSize","master","60,320","5,352","8.9%"
2008,"SumSize","master","78,031","7,647","9.8%"
2009,"SumSize","master","59,817","6,237","10.4%"
2010,"SumSize","master","80,747","8,034","9.9%"
2011,"SumSize","master","82,116","7,741","9.4%"
2012,"SumSize","master","102,670","9,534","9.3%"
2013,"SumSize","master","88,535","8,506","9.6%"
2014,"SumSize","master","68,532","6,357","9.3%"
2015,"SumSize","master","102,506","10,262","10%"
2016,"SumSize","master","146,294","13,284","9.1%"
2017,"SumSize","master","91,164","5,030","5.5%"
2018,"SumSize","master","84,806","5,206","6.1%"
