logitP <-
c(NA, NA, NA, NA, -2.10006082888257, -2.02228312783989, -1.33500106673234, 
-1.28621090256291, -1.05252118146784, -0.593774706746742, -1.22377543162212, 
-1.45225232891169, -0.762140052046897, -3.04452243772342, -1.38629436111989, 
0, -1.49836309551284, NA, NA, NA, NA)
beta.logitP <-
c(-1.36593842470532, 0)
tauP <-
1.77380433645395
bU <-
c(SplineDesign1 = 7.33778739994832, SplineDesign2 = -5.03967880893257, 
SplineDesign3 = 9.02268594342152, SplineDesign4 = 9.50863976814785, 
SplineDesign5 = 7.15963206496339, SplineDesign6 = 4.02087379711908, 
SplineDesign7 = -0.0173512358598205, SplineDesign8 = 7.23112620750755
)
tauU <-
0.0052298699178731
taueU <-
1.85137929089807
etaU <-
c(1.70007518653903, 1.70007518653903, 1.70007518653903, 1.70007518653903, 
7.68401146722622, 8.65375939740957, 8.78681312104961, 8.43585520078136, 
8.92918906433233, 9.16972935947116, 8.35164706012876, 7.63761139162146, 
6.77524900177286, 5.96275506358035, 5.22643571115519, 4.00266027953308, 
2.39322236709898, 1.70007518653903)
muTT <-
c(-0.679694696188341, 0.924824817881708, -0.491339295514839, 
-0.143911568312129)
tauTT <-
0.637484335166438
r <-
structure(c(-1.38629436111989, -1.38629436111989, -1.38629436111989, 
-4.62497281328427, 0.118408231050302, -0.542324290825362, 1.16825472172386, 
-0.0582689081239758, 0.179126665897435, 0.377673090778506, 1.6011391096194, 
-0.0392207131532813, -0.73716406597672, -1.38629436111989, -1.38629436111989, 
-1.38629436111989, -1.09861228866811, -1.09861228866811, -1.09861228866811, 
3.49650756146648, 2.71810053695571, 0.328504066972036, 1.96611285637283, 
2.81341071676004, 1.63842544930735, 2.56209628847913, 1.56064774826467, 
1.20397280432594, 3.10109278921181, -1.09861228866811, -1.09861228866811, 
-1.09861228866811, -0.693147180559946, -0.693147180559946, -0.693147180559946, 
-0.693147180559945, -0.69314718055995, 2.52572864430825, -0.693147180559945, 
-0.693147180559945, 1.02165124753198, -0.693147180559945, -0.693147180559945, 
-2.39789527279837, -0.693147180559945, -0.693147180559946, -0.693147180559946, 
-0.693147180559946, -1.11022302462516e-16, -1.11022302462516e-16, 
-1.11022302462516e-16, 8.88178419700125e-16, -1.06581410364016e-14, 
-4.32986979603812e-15, 8.88178419700125e-16, 8.88178419700125e-16, 
-4.32986979603812e-15, 8.88178419700125e-16, 8.88178419700125e-16, 
-2.30258509299405, 8.88178419700125e-16, -1.11022302462516e-16, 
-1.11022302462516e-16, -1.11022302462516e-16), .Dim = c(16L, 
4L))
ma.p <-
0.8275
.RNG.seed <-
394226
.RNG.name <-
"base::Wichmann-Hill"
