Time Stratified Petersen with Non-Diagonal recaptures, error in smoothed U, and non-parametric modelling of travel times -  Mon Nov 23 08:58:46 2020
Version:  2020-12-01

 Postseason_Large_-2019  TSPND NP Results 

*** Raw data *** (padded to match length of u2) 
    time  n1 m2.1 m2.2 m2.3 m2.4 m2.5   u2 sampfrac logitP.cov jump
X1     1   5    0    0    0    0    0    0        1          1     
X2     2  38    0    0    0    0    0    0        1          1     
X3     3 113    0    0    3    1    0    0        1          1     
X4     4 105    0    4    1    0    0    0        1          1     
X5     5 193    6   22    4    0    0  505        1          1     
X6     6 234    7   23    0    0    0 1239        1          1     
X7     7 196   19   17    1    0    0 2164        1          1     
X8     8 481   42   52    4    2    0 3855        1          1     
X9     9 413  107   21    3    0    0 4969        1          1     
X10   10 203    9   26    0    0    1 1932        1          1     
X11   11 125   29   14    1    0    0 2281        1          1     
X12   12  85   16    5    0    1    0  994        1          1     
X13   13  55    4    2    0    0    0  398        1          1     
X14   14  28    3    1    0    0    0  105        1          1     
X15   15  15    1    1    0    0    0   37        1          1     
X16   16   1    0    0    0    0    0    3        1          1     
X     17  NA   NA   NA   NA   NA   NA    0        1          1     
X.1   18  NA   NA   NA   NA   NA   NA    0        1          1     


Jump point are after strata: none - A single spline is fit
Maximum travel time (Delta.max):  4
Fixed logitP indices are: 1 2 3 4 17 18
Fixed logitP values  are: -10 -10 -10 -10 -10 -10

*** Pooled Petersen Estimate prior to fixing bad n1, m2, or u2 values

Total n1= 2290 ;  m2= 453 ;  u2= 18482 

Est U(total)  93,269   (SE  3,963 )
Est N(total)  95,555   (SE  3,963 )


*** Test if pooled Petersen is allowable. [Check if fraction captured equal] ***

(Large Sample) Chi-square test statistic  115.363  has p-value 1.495368e-17 

   time n1-m2* m2* E[n1-m2] E[m2] X2[n1-m2] X2[m2]
1     1      5   0      4.0   1.0       0.2    1.0
2     2     38   0     30.5   7.5       1.9    7.5
3     3    109   4     90.6  22.4       3.7   15.1
4     4    100   5     84.2  20.8       3.0   12.0
5     5    161  32    154.8  38.2       0.2    1.0
6     6    204  30    187.7  46.3       1.4    5.7
7     7    159  37    157.2  38.8       0.0    0.1
8     8    381 100    385.9  95.1       0.1    0.2
9     9    282 131    331.3  81.7       7.3   29.8
10   10    167  36    162.8  40.2       0.1    0.4
11   11     81  44    100.3  24.7       3.7   15.0
12   12     63  22     68.2  16.8       0.4    1.6
13   13     49   6     44.1  10.9       0.5    2.2
14   14     24   4     22.5   5.5       0.1    0.4
15   15     13   2     12.0   3.0       0.1    0.3
16   16      1   0      0.8   0.2       0.0    0.2

 Be cautious of using this test in cases of small expected values. 



*** Revised data *** 
    time  n1 m2.1 m2.2 m2.3 m2.4 m2.5   u2 sampfrac logitP.cov jump.after
X1     1   5    0    0    0    0    0    0        1          1           
X2     2  38    0    0    0    0    0    0        1          1           
X3     3 113    0    0    3    1    0    0        1          1           
X4     4 105    0    4    1    0    0    0        1          1           
X5     5 193    6   22    4    0    0  505        1          1           
X6     6 234    7   23    0    0    0 1239        1          1           
X7     7 196   19   17    1    0    0 2164        1          1           
X8     8 481   42   52    4    2    0 3855        1          1           
X9     9 413  107   21    3    0    0 4969        1          1           
X10   10 203    9   26    0    0    1 1932        1          1           
X11   11 125   29   14    1    0    0 2281        1          1           
X12   12  85   16    5    0    1    0  994        1          1           
X13   13  55    4    2    0    0    0  398        1          1           
X14   14  28    3    1    0    0    0  105        1          1           
X15   15  15    1    1    0    0    0   37        1          1           
X16   16   1    0    0    0    0    0    3        1          1           
X     17  NA   NA   NA   NA   NA   NA    0        1          1           
X.1   18  NA   NA   NA   NA   NA   NA    0        1          1           


*** Expanded m2 array with column sum and u2 ***

                        [,1] [,2] [,3] [,4] [,5] [,6] [,7] [,8] [,9] [,10] [,11] [,12] [,13] [,14] [,15] [,16] [,17] [,18] [,19] [,20] [,21] [,22]
1                          0    0    0    0    0    0    0    0    0     0     0     0     0     0     0     0     0     0     0     0     0     5
2                          0    0    0    0    0    0    0    0    0     0     0     0     0     0     0     0     0     0     0     0     0    38
3                          0    0    0    0    3    1    0    0    0     0     0     0     0     0     0     0     0     0     0     0     0   109
4                          0    0    0    0    4    1    0    0    0     0     0     0     0     0     0     0     0     0     0     0     0   100
5                          0    0    0    0    6   22    4    0    0     0     0     0     0     0     0     0     0     0     0     0     0   161
6                          0    0    0    0    0    7   23    0    0     0     0     0     0     0     0     0     0     0     0     0     0   204
7                          0    0    0    0    0    0   19   17    1     0     0     0     0     0     0     0     0     0     0     0     0   159
8                          0    0    0    0    0    0    0   42   52     4     2     0     0     0     0     0     0     0     0     0     0   381
9                          0    0    0    0    0    0    0    0  107    21     3     0     0     0     0     0     0     0     0     0     0   282
10                         0    0    0    0    0    0    0    0    0     9    26     0     0     1     0     0     0     0     0     0     0   167
11                         0    0    0    0    0    0    0    0    0     0    29    14     1     0     0     0     0     0     0     0     0    81
12                         0    0    0    0    0    0    0    0    0     0     0    16     5     0     1     0     0     0     0     0     0    63
13                         0    0    0    0    0    0    0    0    0     0     0     0     4     2     0     0     0     0     0     0     0    49
14                         0    0    0    0    0    0    0    0    0     0     0     0     0     3     1     0     0     0     0     0     0    24
15                         0    0    0    0    0    0    0    0    0     0     0     0     0     0     1     1     0     0     0     0     0    13
16                         0    0    0    0    0    0    0    0    0     0     0     0     0     0     0     0     0     0     0     0     0     1
Column totals              0    0    0    0   13   31   46   59  160    34    60    30    10     6     3     1     0     0     0     0     0  1837
Untagged (u2)              0    0    0    0  505 1239 2164 3855 4969  1932  2281   994   398   105    37     3     0     0    NA    NA    NA    NA
Untagged - after fixups    0    0    0    0  505 1239 2164 3855 4969  1932  2281   994   398   105    37     3     0     0    NA    NA    NA    NA
Logit P fixed            -10  -10  -10  -10   NA   NA   NA   NA   NA    NA    NA    NA    NA    NA    NA    NA   -10   -10    NA    NA    NA    NA


*** Information on priors *** 
   Parameters for prior on tauU (variance in spline coefficients):  1 0.05  which corresponds to a mean/std dev of 1/var of: 20 20 
   Parameters for prior on taueU (variance of log(U) about spline):  1 0.05  which corresponds to a mean/std dev of 1/var of: 20 20 
   Parameters for prior on beta.logitP[1] (intercept) (mean, sd): 
 -1.4 2 
   Parameters for prior on tauP (residual variance of logit(P) after adjusting for covariates):  0.001 0.001  which corresponds to a mean/std dev of 1/var of: 1 31.62 
   Parameters for prior on tauTT (variance of continuation ratios for travel times):  0.1 0.1  which corresponds to a mean/std dev of 1/var of: 1 3.16 
   Parameters for prior on muTT (movement rates).
       Input values 
       which corresponds to 
        mean.muTT:  0 0 0 0 
          sd.muTT:  1.225358 1.225358 1.225358 1.225358 
    Use the visualize.muTT.prior function for more details on prior on movements



Initial seed for this run is:  2019 


*** Summary of MCMC results *** 

Inference for Bugs model at "C:/Taku_sockeye/Taku_sockeye_public/Postseason_Large_-2019/model.txt", fit using jags,
 3 chains, each with 20000 iterations (first 1000 discarded), n.thin = 38
 n.sims = 1500 iterations saved
                    mean       sd      2.5%       25%       50%       75%      97.5%  Rhat n.eff
Ntot           94656.840 5555.184 85866.746 90889.000 94234.500 97774.250 106562.623 1.002  1500
Theta[1,1]         0.514    0.178     0.153     0.395     0.517     0.635      0.847 1.005   690
Theta[2,1]         0.525    0.178     0.169     0.405     0.530     0.653      0.859 1.006   830
Theta[3,1]         0.417    0.153     0.129     0.304     0.418     0.525      0.714 1.005  1500
Theta[4,1]         0.589    0.138     0.285     0.499     0.600     0.687      0.827 1.000  1500
Theta[5,1]         0.278    0.085     0.129     0.217     0.273     0.334      0.455 1.003  1200
Theta[6,1]         0.312    0.090     0.150     0.247     0.309     0.371      0.509 1.004   450
Theta[7,1]         0.535    0.080     0.374     0.481     0.535     0.592      0.690 1.005   730
Theta[8,1]         0.567    0.062     0.441     0.526     0.570     0.610      0.679 1.002  1300
Theta[9,1]         0.701    0.055     0.581     0.668     0.706     0.738      0.799 1.002   850
Theta[10,1]        0.450    0.097     0.263     0.382     0.451     0.515      0.626 1.001  1500
Theta[11,1]        0.612    0.072     0.469     0.565     0.615     0.659      0.751 1.001  1500
Theta[12,1]        0.632    0.094     0.426     0.569     0.637     0.696      0.803 1.000  1500
Theta[13,1]        0.552    0.140     0.275     0.456     0.554     0.650      0.819 1.003   770
Theta[14,1]        0.602    0.141     0.320     0.503     0.605     0.703      0.864 1.003   780
Theta[15,1]        0.485    0.159     0.178     0.376     0.485     0.592      0.807 1.002  1000
Theta[16,1]        0.510    0.179     0.157     0.386     0.515     0.646      0.840 1.002   900
Theta[1,2]         0.420    0.161     0.115     0.309     0.414     0.526      0.757 1.006   670
Theta[2,2]         0.413    0.163     0.123     0.295     0.406     0.514      0.749 1.004   640
Theta[3,2]         0.449    0.143     0.178     0.352     0.444     0.554      0.731 1.003  1500
Theta[4,2]         0.356    0.127     0.141     0.263     0.347     0.436      0.640 1.000  1500
Theta[5,2]         0.627    0.084     0.458     0.572     0.629     0.687      0.790 1.002  1100
Theta[6,2]         0.649    0.092     0.457     0.588     0.651     0.713      0.814 1.003   630
Theta[7,2]         0.430    0.078     0.276     0.376     0.431     0.484      0.593 1.004   690
Theta[8,2]         0.361    0.056     0.254     0.323     0.360     0.398      0.481 1.002   900
Theta[9,2]         0.271    0.053     0.175     0.234     0.267     0.304      0.390 1.003   650
Theta[10,2]        0.505    0.093     0.330     0.438     0.501     0.570      0.695 1.001  1500
Theta[11,2]        0.346    0.068     0.220     0.301     0.344     0.392      0.481 1.001  1400
Theta[12,2]        0.317    0.087     0.167     0.254     0.310     0.374      0.504 1.000  1500
Theta[13,2]        0.397    0.130     0.158     0.309     0.393     0.482      0.670 1.001  1500
Theta[14,2]        0.343    0.129     0.110     0.248     0.342     0.431      0.599 1.002  1200
Theta[15,2]        0.445    0.142     0.167     0.347     0.444     0.547      0.713 1.002   920
Theta[16,2]        0.424    0.164     0.127     0.305     0.415     0.539      0.755 1.002  1100
Theta[1,3]         0.048    0.045     0.005     0.020     0.036     0.062      0.164 1.001  1500
Theta[2,3]         0.046    0.042     0.004     0.018     0.033     0.059      0.158 1.001  1500
Theta[3,3]         0.101    0.056     0.029     0.059     0.088     0.129      0.232 1.003   950
Theta[4,3]         0.042    0.030     0.007     0.021     0.035     0.054      0.114 1.001  1500
Theta[5,3]         0.079    0.036     0.025     0.053     0.073     0.097      0.164 1.002  1200
Theta[6,3]         0.029    0.019     0.005     0.015     0.025     0.038      0.082 1.003   610
Theta[7,3]         0.026    0.015     0.006     0.015     0.023     0.034      0.062 1.001  1500
Theta[8,3]         0.055    0.025     0.019     0.037     0.051     0.068      0.115 1.000  1500
Theta[9,3]         0.022    0.010     0.007     0.015     0.020     0.028      0.046 1.001  1500
Theta[10,3]        0.030    0.018     0.005     0.017     0.026     0.038      0.077 1.000  1500
Theta[11,3]        0.032    0.019     0.006     0.018     0.029     0.042      0.079 1.002  1500
Theta[12,3]        0.034    0.024     0.005     0.018     0.029     0.043      0.093 1.005   770
Theta[13,3]        0.037    0.030     0.005     0.017     0.029     0.049      0.115 1.000  1500
Theta[14,3]        0.040    0.036     0.003     0.017     0.031     0.052      0.135 1.004  1100
Theta[15,3]        0.052    0.046     0.006     0.023     0.039     0.066      0.168 1.001  1500
Theta[16,3]        0.049    0.047     0.005     0.020     0.036     0.062      0.174 1.002  1400
Theta[1,4]         0.012    0.018     0.000     0.003     0.007     0.014      0.055 1.002  1100
Theta[2,4]         0.010    0.013     0.000     0.003     0.006     0.013      0.045 1.000  1500
Theta[3,4]         0.023    0.021     0.003     0.010     0.017     0.031      0.078 1.001  1500
Theta[4,4]         0.009    0.009     0.001     0.003     0.006     0.011      0.034 1.002  1500
Theta[5,4]         0.011    0.010     0.001     0.005     0.008     0.014      0.035 1.006   370
Theta[6,4]         0.006    0.005     0.000     0.002     0.004     0.008      0.021 1.001  1500
Theta[7,4]         0.006    0.006     0.000     0.002     0.004     0.007      0.021 1.001  1500
Theta[8,4]         0.012    0.008     0.003     0.006     0.010     0.015      0.031 1.001  1500
Theta[9,4]         0.004    0.003     0.000     0.002     0.003     0.005      0.012 1.001  1500
Theta[10,4]        0.009    0.008     0.001     0.004     0.007     0.012      0.031 1.001  1500
Theta[11,4]        0.006    0.006     0.000     0.002     0.004     0.008      0.023 1.001  1500
Theta[12,4]        0.012    0.012     0.001     0.004     0.008     0.015      0.042 1.002  1500
Theta[13,4]        0.009    0.009     0.000     0.003     0.006     0.011      0.037 1.003   620
Theta[14,4]        0.010    0.012     0.000     0.003     0.006     0.012      0.042 1.005   480
Theta[15,4]        0.012    0.019     0.000     0.003     0.007     0.015      0.056 1.001  1500
Theta[16,4]        0.011    0.018     0.001     0.003     0.006     0.013      0.052 1.000  1500
Theta[1,5]         0.006    0.013     0.000     0.001     0.003     0.007      0.031 1.002  1300
Theta[2,5]         0.005    0.008     0.000     0.001     0.003     0.006      0.027 1.001  1500
Theta[3,5]         0.010    0.011     0.001     0.003     0.006     0.013      0.039 1.000  1500
Theta[4,5]         0.005    0.006     0.000     0.001     0.003     0.006      0.022 1.001  1500
Theta[5,5]         0.005    0.005     0.000     0.002     0.004     0.007      0.018 1.001  1500
Theta[6,5]         0.004    0.005     0.000     0.001     0.002     0.004      0.015 1.000  1500
Theta[7,5]         0.003    0.003     0.000     0.001     0.002     0.004      0.012 1.000  1500
Theta[8,5]         0.005    0.004     0.000     0.002     0.003     0.006      0.015 1.001  1500
Theta[9,5]         0.002    0.002     0.000     0.001     0.001     0.003      0.008 1.001  1500
Theta[10,5]        0.006    0.008     0.000     0.002     0.004     0.008      0.026 1.000  1500
Theta[11,5]        0.003    0.004     0.000     0.001     0.002     0.004      0.013 1.003  1500
Theta[12,5]        0.005    0.007     0.000     0.001     0.003     0.007      0.025 1.002  1200
Theta[13,5]        0.005    0.008     0.000     0.001     0.003     0.006      0.024 1.000  1500
Theta[14,5]        0.005    0.008     0.000     0.001     0.003     0.006      0.025 1.003  1100
Theta[15,5]        0.006    0.009     0.000     0.001     0.003     0.007      0.028 1.000  1500
Theta[16,5]        0.006    0.011     0.000     0.001     0.003     0.007      0.027 1.000  1500
U[1]             200.811 1381.527     0.000     1.000    10.000    66.000   1533.575 1.228   860
U[2]             262.577  615.257     0.000    20.000    79.500   244.250   1689.625 1.042  1500
U[3]             625.795  768.999    23.470   172.000   392.497   791.250   2594.922 1.032   120
U[4]            1642.238 1105.560   353.837   884.750  1406.500  2052.750   4481.674 1.015   240
U[5]            3723.504  954.213  2282.586  3038.750  3581.999  4264.000   5947.302 1.002   820
U[6]            7957.250 1240.541  5842.475  7037.750  7844.493  8729.250  10643.739 1.000  1500
U[7]           13006.863 1726.872  9680.647 11883.500 12885.000 14119.000  16883.398 1.001  1500
U[8]           21799.857 2856.090 17171.224 19675.500 21520.999 23605.750  28002.150 1.003   770
U[9]           15213.007 1588.423 12161.900 14125.750 15206.500 16278.250  18295.050 1.003   810
U[10]          12975.478 2036.347  9457.173 11578.000 12860.000 14152.244  17713.805 1.001  1500
U[11]           8016.922 1066.744  6040.273  7316.750  7970.000  8684.000  10175.117 1.002  1000
U[12]           3998.444  601.187  2953.694  3595.750  3952.000  4365.250   5314.198 1.002  1200
U[13]           2066.131  398.327  1422.373  1773.750  2011.000  2312.000   2955.575 1.002  1100
U[14]            657.299  146.222   431.000   554.000   637.500   741.000    991.000 1.005   380
U[15]            183.578   49.978   110.000   148.000   176.000   209.000    307.000 1.004   520
U[16]             30.951   17.174    10.000    20.000    28.000    38.000     72.000 1.006   350
U[17]              5.363    7.139     0.000     2.000     3.000     6.000     23.525 1.060   180
U[18]              0.773    2.602     0.000     0.000     0.000     0.000      7.000 1.043   360
Utot           92366.840 5555.184 83576.746 88599.000 91944.500 95484.250 104272.623 1.002  1500
bU[1]             -0.751    5.317   -14.581    -3.346    -0.075     2.679      7.802 1.046   110
bU[2]              4.199    1.829     0.051     3.061     4.372     5.470      7.302 1.026   160
bU[3]              8.840    0.478     7.942     8.544     8.819     9.119      9.861 1.018   340
bU[4]             10.343    0.280     9.796    10.166    10.349    10.530     10.881 1.003  1100
bU[5]              7.985    0.360     7.322     7.748     7.974     8.221      8.703 1.003  1500
bU[6]              3.666    0.587     2.536     3.265     3.651     4.057      4.869 1.003   720
bU[7]             -2.723    2.443    -8.248    -4.187    -2.553    -1.072      1.576 1.004   640
bU[8]             -9.066    6.226   -23.296   -12.471    -8.566    -5.012      1.642 1.003   880
beta.logitP[1]    -1.436    0.163    -1.772    -1.533    -1.432    -1.336     -1.121 1.001  1300
beta.logitP[2]     0.134   10.025   -20.025    -6.438     0.243     6.652     20.268 1.000  1500
deviance         287.761    9.873   269.693   280.918   287.368   293.952    308.343 1.004   500
eU[1]             -0.005    0.221    -0.440    -0.133    -0.003     0.129      0.437 1.001  1300
eU[2]             -0.001    0.229    -0.450    -0.138    -0.006     0.133      0.462 1.002  1500
eU[3]             -0.008    0.221    -0.446    -0.135    -0.018     0.120      0.462 1.003   770
eU[4]             -0.012    0.222    -0.464    -0.141    -0.011     0.124      0.431 1.001  1500
eU[5]             -0.053    0.211    -0.491    -0.169    -0.046     0.073      0.341 1.002  1400
eU[6]             -0.023    0.189    -0.391    -0.135    -0.018     0.094      0.349 1.000  1500
eU[7]             -0.018    0.163    -0.336    -0.120    -0.020     0.088      0.298 1.001  1500
eU[8]              0.260    0.169    -0.039     0.142     0.245     0.362      0.634 1.001  1500
eU[9]             -0.094    0.152    -0.409    -0.188    -0.093     0.008      0.190 1.001  1500
eU[10]            -0.024    0.183    -0.384    -0.139    -0.029     0.086      0.368 1.004   560
eU[11]            -0.047    0.160    -0.384    -0.138    -0.039     0.051      0.263 1.003  1500
eU[12]            -0.083    0.176    -0.451    -0.190    -0.077     0.038      0.235 1.000  1500
eU[13]             0.102    0.181    -0.234    -0.016     0.096     0.211      0.468 1.002  1200
eU[14]             0.000    0.192    -0.394    -0.125     0.005     0.121      0.364 1.001  1500
eU[15]             0.055    0.190    -0.306    -0.069     0.040     0.171      0.447 1.002  1200
eU[16]            -0.070    0.223    -0.528    -0.189    -0.064     0.063      0.351 1.000  1500
eU[17]             0.001    0.218    -0.448    -0.129     0.003     0.135      0.429 1.000  1500
eU[18]            -0.002    0.234    -0.455    -0.138    -0.001     0.145      0.442 1.001  1500
etaU[1]            1.939    3.340    -6.783     0.241     2.279     4.184      7.335 1.047   110
etaU[2]            4.130    2.016    -0.706     3.008     4.376     5.497      7.432 1.042   120
etaU[3]            5.862    1.170     3.157     5.149     5.972     6.674      7.861 1.061    93
etaU[4]            7.209    0.636     5.868     6.786     7.249     7.627      8.408 1.020   210
etaU[5]            8.191    0.248     7.733     8.019     8.184     8.358      8.691 1.002   810
etaU[6]            8.970    0.155     8.673     8.859     8.968     9.074      9.273 1.000  1500
etaU[7]            9.464    0.133     9.178     9.383     9.464     9.555      9.734 1.001  1500
etaU[8]            9.981    0.129     9.751     9.887     9.977    10.069     10.240 1.003   760
etaU[9]            9.624    0.106     9.406     9.556     9.629     9.698      9.814 1.003   800
etaU[10]           9.459    0.155     9.155     9.357     9.462     9.558      9.782 1.001  1500
etaU[11]           8.980    0.135     8.706     8.898     8.983     9.069      9.228 1.002  1000
etaU[12]           8.283    0.149     7.991     8.188     8.282     8.381      8.578 1.002  1200
etaU[13]           7.616    0.188     7.260     7.481     7.606     7.746      7.991 1.002  1100
etaU[14]           6.465    0.216     6.066     6.318     6.458     6.608      6.899 1.005   380
etaU[15]           5.178    0.259     4.704     4.997     5.170     5.343      5.726 1.004   530
etaU[16]           3.308    0.494     2.296     2.977     3.317     3.626      4.274 1.005   400
etaU[17]           1.116    1.099    -1.294     0.448     1.171     1.843      3.171 1.007   500
etaU[18]          -2.240    2.333    -7.571    -3.617    -2.091    -0.700      1.903 1.004   640
logUne[1]          1.944    3.336    -6.959     0.275     2.295     4.176      7.265 1.047   110
logUne[2]          4.131    2.004    -0.603     3.025     4.385     5.505      7.403 1.042   120
logUne[3]          5.870    1.144     3.207     5.166     5.986     6.662      7.803 1.060   100
logUne[4]          7.220    0.603     5.930     6.835     7.244     7.635      8.305 1.023   170
logUne[5]          8.244    0.294     7.682     8.044     8.246     8.435      8.832 1.005   410
logUne[6]          8.992    0.173     8.654     8.878     8.996     9.102      9.346 1.001  1500
logUne[7]          9.482    0.142     9.200     9.392     9.484     9.572      9.749 1.005  1200
logUne[8]          9.721    0.130     9.451     9.641     9.724     9.809      9.963 1.002  1500
logUne[9]          9.718    0.129     9.452     9.641     9.723     9.802      9.960 1.001  1500
logUne[10]         9.482    0.124     9.227     9.410     9.483     9.557      9.724 1.003   740
logUne[11]         9.027    0.132     8.764     8.943     9.027     9.108      9.301 1.003   790
logUne[12]         8.366    0.156     8.063     8.266     8.362     8.463      8.689 1.001  1500
logUne[13]         7.514    0.171     7.196     7.403     7.501     7.620      7.881 1.000  1500
logUne[14]         6.464    0.193     6.106     6.334     6.453     6.589      6.852 1.002   940
logUne[15]         5.124    0.270     4.609     4.932     5.123     5.302      5.656 1.005   410
logUne[16]         3.379    0.498     2.422     3.064     3.389     3.689      4.377 1.005   480
logUne[17]         1.114    1.064    -1.190     0.465     1.133     1.835      3.146 1.006   510
logUne[18]        -2.238    2.320    -7.506    -3.606    -2.082    -0.668      1.836 1.004   620
logitP[1]        -10.000    0.000   -10.000   -10.000   -10.000   -10.000    -10.000 1.000     1
logitP[2]        -10.000    0.000   -10.000   -10.000   -10.000   -10.000    -10.000 1.000     1
logitP[3]        -10.000    0.000   -10.000   -10.000   -10.000   -10.000    -10.000 1.000     1
logitP[4]        -10.000    0.000   -10.000   -10.000   -10.000   -10.000    -10.000 1.000     1
logitP[5]         -1.810    0.290    -2.366    -2.008    -1.807    -1.612     -1.275 1.002   970
logitP[6]         -1.673    0.184    -2.017    -1.806    -1.673    -1.542     -1.313 1.000  1500
logitP[7]         -1.600    0.160    -1.904    -1.714    -1.601    -1.502     -1.253 1.002  1100
logitP[8]         -1.528    0.156    -1.833    -1.631    -1.524    -1.417     -1.236 1.003   710
logitP[9]         -0.711    0.158    -0.987    -0.821    -0.723    -0.610     -0.367 1.004   630
logitP[10]        -1.725    0.183    -2.094    -1.838    -1.727    -1.607     -1.364 1.001  1500
logitP[11]        -0.903    0.194    -1.244    -1.032    -0.912    -0.787     -0.504 1.002  1100
logitP[12]        -1.085    0.200    -1.463    -1.221    -1.087    -0.961     -0.670 1.002   910
logitP[13]        -1.412    0.231    -1.858    -1.574    -1.409    -1.252     -0.971 1.001  1400
logitP[14]        -1.638    0.252    -2.140    -1.801    -1.638    -1.463     -1.168 1.005   440
logitP[15]        -1.385    0.312    -2.021    -1.596    -1.375    -1.185     -0.787 1.001  1500
logitP[16]        -1.761    0.437    -2.740    -2.014    -1.726    -1.470     -0.984 1.003   630
logitP[17]       -10.000    0.000   -10.000   -10.000   -10.000   -10.000    -10.000 1.000     1
logitP[18]       -10.000    0.000   -10.000   -10.000   -10.000   -10.000    -10.000 1.000     1
logitP[19]       -10.000    0.000   -10.000   -10.000   -10.000   -10.000    -10.000 1.000     1
logitP[20]       -10.000    0.000   -10.000   -10.000   -10.000   -10.000    -10.000 1.000     1
logitP[21]       -10.000    0.000   -10.000   -10.000   -10.000   -10.000    -10.000 1.000     1
movep[1]           0.518    0.064     0.389     0.478     0.519     0.557      0.650 1.001  1500
movep[2]           0.427    0.059     0.308     0.388     0.426     0.466      0.546 1.000  1500
movep[3]           0.041    0.015     0.019     0.031     0.040     0.050      0.074 1.000  1500
movep[4]           0.009    0.005     0.002     0.005     0.008     0.011      0.021 1.001  1500
movep[5]           0.004    0.003     0.001     0.002     0.004     0.006      0.013 1.001  1500
muTT[1]            0.074    0.262    -0.453    -0.088     0.075     0.231      0.619 1.001  1500
muTT[2]            2.097    0.335     1.484     1.866     2.092     2.325      2.774 1.001  1500
muTT[3]            1.207    0.530     0.166     0.849     1.200     1.549      2.269 1.001  1500
muTT[4]            0.803    0.813    -0.798     0.245     0.797     1.371      2.451 1.001  1500
sdTT               0.756    0.212     0.426     0.605     0.725     0.877      1.238 1.000  1500
sigmaP             0.454    0.150     0.233     0.350     0.428     0.529      0.817 1.001  1500
sigmaU             3.215    1.568     1.433     2.205     2.829     3.722      7.622 1.010   230
sigmaeU            0.212    0.074     0.112     0.161     0.199     0.251      0.381 1.001  1500
tauP               6.622    4.977     1.497     3.580     5.458     8.162     18.480 1.001  1500
tauU               0.156    0.122     0.017     0.072     0.125     0.206      0.487 1.010   230
taueU             30.100   20.035     6.899    15.931    25.330    38.574     79.401 1.001  1500

For each parameter, n.eff is a crude measure of effective sample size,
and Rhat is the potential scale reduction factor (at convergence, Rhat=1).

DIC info (using the rule, pD = var(deviance)/2)
pD = 48.6 and DIC = 336.4
DIC is an estimate of expected predictive error (lower deviance is better).


*** Alternate DIC computation based on p_D = var(deviance)/2 
    D-bar:  287.7609 ;  var(dev):  97.47528 ; p.D:  48.73764 ; DIC:  336.4985



*** Summary of Unmarked Population Size ***
   mean      sd    2.5%     25%     50%     75%   97.5%    Rhat   n.eff 
 92,366   5,555  83,576  88,598  91,944  95,484 104,272    1.00   1,500 


*** Summary of Total Population Size *** 
   mean      sd    2.5%     25%     50%     75%   97.5%    Rhat   n.eff 
 94,656   5,555  85,866  90,888  94,234  97,774 106,562    1.00   1,500 




*** Summary of Quantiles of Run Timing *** 
    This is based on the sample weeks provided and the U[i] values 
       0%  10%  20%  30%  40%  50%  60%   70%   80%   90% 100%
Mean 1.21 6.33 7.30 7.98 8.44 8.87 9.40 10.02 10.73 11.71   19
Sd   0.46 0.50 0.31 0.24 0.17 0.14 0.16  0.15  0.12  0.12    0


