"Date","Year","StatWeek","WeekDay","HalfWeek","Opening","CdnCommCt_All","PropLarge","CdnCommCt_Large","CdnCommCt_Small"
"2000-05-07",2000,20,"Sunday","20_1",NA,0,0,0,0
"2000-05-08",2000,20,"Monday","20_1",NA,0,0,0,0
"2000-05-09",2000,20,"Tuesday","20_1",NA,0,0,0,0
"2000-05-10",2000,20,"Wednesday","20_1",NA,0,0,0,0
"2000-05-11",2000,20,"Thursday","20_2",NA,0,0,0,0
"2000-05-12",2000,20,"Friday","20_2",NA,0,0,0,0
"2000-05-13",2000,20,"Saturday","20_2",NA,0,0,0,0
"2000-05-14",2000,21,"Sunday","21_1",NA,0,0,0,0
"2000-05-15",2000,21,"Monday","21_1",NA,0,0,0,0
"2000-05-16",2000,21,"Tuesday","21_1",NA,0,0,0,0
"2000-05-17",2000,21,"Wednesday","21_1",NA,0,0,0,0
"2000-05-18",2000,21,"Thursday","21_2",NA,0,0,0,0
"2000-05-19",2000,21,"Friday","21_2",NA,0,0,0,0
"2000-05-20",2000,21,"Saturday","21_2",NA,0,0,0,0
"2000-05-21",2000,22,"Sunday","22_1",NA,0,0,0,0
"2000-05-22",2000,22,"Monday","22_1",NA,0,0,0,0
"2000-05-23",2000,22,"Tuesday","22_1",NA,0,0,0,0
"2000-05-24",2000,22,"Wednesday","22_1",NA,0,0,0,0
"2000-05-25",2000,22,"Thursday","22_2",NA,0,0,0,0
"2000-05-26",2000,22,"Friday","22_2",NA,0,0,0,0
"2000-05-27",2000,22,"Saturday","22_2",NA,0,0,0,0
"2000-05-28",2000,23,"Sunday","23_1",NA,0,0,0,0
"2000-05-29",2000,23,"Monday","23_1",NA,0,0,0,0
"2000-05-30",2000,23,"Tuesday","23_1",NA,0,0,0,0
"2000-05-31",2000,23,"Wednesday","23_1",NA,0,0,0,0
"2000-06-01",2000,23,"Thursday","23_2",NA,0,0,0,0
"2000-06-02",2000,23,"Friday","23_2",NA,0,0,0,0
"2000-06-03",2000,23,"Saturday","23_2",NA,0,0,0,0
"2000-06-04",2000,24,"Sunday","24_1",NA,0,0,0,0
"2000-06-05",2000,24,"Monday","24_1",NA,6,0,0,6
"2000-06-06",2000,24,"Tuesday","24_1",NA,4,0,0,4
"2000-06-07",2000,24,"Wednesday","24_1",NA,5,0,0,5
"2000-06-08",2000,24,"Thursday","24_2",NA,12,0,0,12
"2000-06-09",2000,24,"Friday","24_2",NA,17,0,0,17
"2000-06-10",2000,24,"Saturday","24_2",NA,0,0,0,0
"2000-06-11",2000,25,"Sunday","25_1",NA,16,0,0,16
"2000-06-12",2000,25,"Monday","25_1",NA,31,0,0,31
"2000-06-13",2000,25,"Tuesday","25_1",NA,49,0,0,49
"2000-06-14",2000,25,"Wednesday","25_1",NA,51,0,0,51
"2000-06-15",2000,25,"Thursday","25_2",NA,26,0,0,26
"2000-06-16",2000,25,"Friday","25_2",NA,37,0,0,37
"2000-06-17",2000,25,"Saturday","25_2",NA,55,0,0,55
"2000-06-18",2000,26,"Sunday","26_1",NA,409,0,0,409
"2000-06-19",2000,26,"Monday","26_1",NA,571,0,0,571
"2000-06-20",2000,26,"Tuesday","26_1",NA,0,0,0,0
"2000-06-21",2000,26,"Wednesday","26_1",NA,0,0,0,0
"2000-06-22",2000,26,"Thursday","26_2",NA,0,0,0,0
"2000-06-23",2000,26,"Friday","26_2",NA,0,0,0,0
"2000-06-24",2000,26,"Saturday","26_2",NA,0,0,0,0
"2000-06-25",2000,27,"Sunday","27_1",NA,1331,0,0,1331
"2000-06-26",2000,27,"Monday","27_1",NA,1293,0,0,1293
"2000-06-27",2000,27,"Tuesday","27_1",NA,894,0,0,894
"2000-06-28",2000,27,"Wednesday","27_1",NA,0,0,0,0
"2000-06-29",2000,27,"Thursday","27_2",NA,0,0,0,0
"2000-06-30",2000,27,"Friday","27_2",NA,0,0,0,0
"2000-07-01",2000,27,"Saturday","27_2",NA,0,0,0,0
"2000-07-02",2000,28,"Sunday","28_1",NA,637,0,0,637
"2000-07-03",2000,28,"Monday","28_1",NA,719,0,0,719
"2000-07-04",2000,28,"Tuesday","28_1",NA,922,0,0,922
"2000-07-05",2000,28,"Wednesday","28_1",NA,0,0,0,0
"2000-07-06",2000,28,"Thursday","28_2",NA,0,0,0,0
"2000-07-07",2000,28,"Friday","28_2",NA,0,0,0,0
"2000-07-08",2000,28,"Saturday","28_2",NA,0,0,0,0
"2000-07-09",2000,29,"Sunday","29_1",NA,715,0,0,715
"2000-07-10",2000,29,"Monday","29_1",NA,855,0,0,855
"2000-07-11",2000,29,"Tuesday","29_1",NA,994,0,0,994
"2000-07-12",2000,29,"Wednesday","29_1",NA,685,0,0,685
"2000-07-13",2000,29,"Thursday","29_2",NA,0,0,0,0
"2000-07-14",2000,29,"Friday","29_2",NA,0,0,0,0
"2000-07-15",2000,29,"Saturday","29_2",NA,0,0,0,0
"2000-07-16",2000,30,"Sunday","30_1",NA,1233,0,0,1233
"2000-07-17",2000,30,"Monday","30_1",NA,1498,0,0,1498
"2000-07-18",2000,30,"Tuesday","30_1",NA,1528,0,0,1528
"2000-07-19",2000,30,"Wednesday","30_1",NA,835,0,0,835
"2000-07-20",2000,30,"Thursday","30_2",NA,0,0,0,0
"2000-07-21",2000,30,"Friday","30_2",NA,0,0,0,0
"2000-07-22",2000,30,"Saturday","30_2",NA,0,0,0,0
"2000-07-23",2000,31,"Sunday","31_1",NA,461,0,0,461
"2000-07-24",2000,31,"Monday","31_1",NA,133,0,0,133
"2000-07-25",2000,31,"Tuesday","31_1",NA,0,0,0,0
"2000-07-26",2000,31,"Wednesday","31_1",NA,137,0,0,137
"2000-07-27",2000,31,"Thursday","31_2",NA,0,0,0,0
"2000-07-28",2000,31,"Friday","31_2",NA,0,0,0,0
"2000-07-29",2000,31,"Saturday","31_2",NA,0,0,0,0
"2000-07-30",2000,32,"Sunday","32_1",NA,828,0,0,828
"2000-07-31",2000,32,"Monday","32_1",NA,1630,0,0,1630
"2000-08-01",2000,32,"Tuesday","32_1",NA,0,0,0,0
"2000-08-02",2000,32,"Wednesday","32_1",NA,3046,0,0,3046
"2000-08-03",2000,32,"Thursday","32_2",NA,0,0,0,0
"2000-08-04",2000,32,"Friday","32_2",NA,0,0,0,0
"2000-08-05",2000,32,"Saturday","32_2",NA,0,0,0,0
"2000-08-06",2000,33,"Sunday","33_1",NA,1042,0,0,1042
"2000-08-07",2000,33,"Monday","33_1",NA,1722,0,0,1722
"2000-08-08",2000,33,"Tuesday","33_1",NA,0,0,0,0
"2000-08-09",2000,33,"Wednesday","33_1",NA,1926,0,0,1926
"2000-08-10",2000,33,"Thursday","33_2",NA,0,0,0,0
"2000-08-11",2000,33,"Friday","33_2",NA,0,0,0,0
"2000-08-12",2000,33,"Saturday","33_2",NA,0,0,0,0
"2000-08-13",2000,34,"Sunday","34_1",NA,518,0,0,518
"2000-08-14",2000,34,"Monday","34_1",NA,377,0,0,377
"2000-08-15",2000,34,"Tuesday","34_1",NA,247,0,0,247
"2000-08-16",2000,34,"Wednesday","34_1",NA,0,0,0,0
"2000-08-17",2000,34,"Thursday","34_2",NA,0,0,0,0
"2000-08-18",2000,34,"Friday","34_2",NA,0,0,0,0
"2000-08-19",2000,34,"Saturday","34_2",NA,0,0,0,0
"2000-08-20",2000,35,"Sunday","35_1",NA,170,0,0,170
"2000-08-21",2000,35,"Monday","35_1",NA,157,0,0,157
"2000-08-22",2000,35,"Tuesday","35_1",NA,95,0,0,95
"2000-08-23",2000,35,"Wednesday","35_1",NA,78,0,0,78
"2000-08-24",2000,35,"Thursday","35_2",NA,0,0,0,0
"2000-08-25",2000,35,"Friday","35_2",NA,0,0,0,0
"2000-08-26",2000,35,"Saturday","35_2",NA,0,0,0,0
"2000-08-27",2000,36,"Sunday","36_1",NA,86,0,0,86
"2000-08-28",2000,36,"Monday","36_1",NA,74,0,0,74
"2000-08-29",2000,36,"Tuesday","36_1",NA,71,0,0,71
"2000-08-30",2000,36,"Wednesday","36_1",NA,0,0,0,0
"2000-08-31",2000,36,"Thursday","36_2",NA,0,0,0,0
"2000-09-01",2000,36,"Friday","36_2",NA,0,0,0,0
"2000-09-02",2000,36,"Saturday","36_2",NA,0,0,0,0
"2000-09-03",2000,37,"Sunday","37_1",NA,37,0,0,37
"2000-09-04",2000,37,"Monday","37_1",NA,29,0,0,29
"2000-09-05",2000,37,"Tuesday","37_1",NA,11,0,0,11
"2000-09-06",2000,37,"Wednesday","37_1",NA,15,0,0,15
"2000-09-07",2000,37,"Thursday","37_2",NA,0,0,0,0
"2000-09-08",2000,37,"Friday","37_2",NA,0,0,0,0
"2000-09-09",2000,37,"Saturday","37_2",NA,0,0,0,0
"2000-09-10",2000,38,"Sunday","38_1",NA,0,0,0,0
"2000-09-11",2000,38,"Monday","38_1",NA,0,0,0,0
"2000-09-12",2000,38,"Tuesday","38_1",NA,0,0,0,0
"2000-09-13",2000,38,"Wednesday","38_1",NA,0,0,0,0
"2000-09-14",2000,38,"Thursday","38_2",NA,6,0,0,6
"2000-09-15",2000,38,"Friday","38_2",NA,0,0,0,0
"2000-09-16",2000,38,"Saturday","38_2",NA,0,0,0,0
"2000-09-17",2000,39,"Sunday","39_1",NA,0,0,0,0
"2000-09-18",2000,39,"Monday","39_1",NA,0,0,0,0
"2000-09-19",2000,39,"Tuesday","39_1",NA,0,0,0,0
"2000-09-20",2000,39,"Wednesday","39_1",NA,1,0,0,1
"2000-09-21",2000,39,"Thursday","39_2",NA,2,0,0,2
"2000-09-22",2000,39,"Friday","39_2",NA,0,0,0,0
"2000-09-23",2000,39,"Saturday","39_2",NA,0,0,0,0
"2000-09-24",2000,40,"Sunday","40_1",NA,0,0,0,0
"2000-09-25",2000,40,"Monday","40_1",NA,0,0,0,0
"2000-09-26",2000,40,"Tuesday","40_1",NA,0,0,0,0
"2000-09-27",2000,40,"Wednesday","40_1",NA,0,0,0,0
"2000-09-28",2000,40,"Thursday","40_2",NA,1,0,0,1
"2000-09-29",2000,40,"Friday","40_2",NA,0,0,0,0
"2000-09-30",2000,40,"Saturday","40_2",NA,0,0,0,0
