"Date","Year","StatWeek","WeekDay","HalfWeek","Opening","CdnCommCt_All","PropLarge","CdnCommCt_Large","CdnCommCt_Small"
"2001-05-13",2001,20,"Sunday","20_1",NA,0,0,0,0
"2001-05-14",2001,20,"Monday","20_1",NA,0,0,0,0
"2001-05-15",2001,20,"Tuesday","20_1",NA,0,0,0,0
"2001-05-16",2001,20,"Wednesday","20_1",NA,0,0,0,0
"2001-05-17",2001,20,"Thursday","20_2",NA,0,0,0,0
"2001-05-18",2001,20,"Friday","20_2",NA,0,0,0,0
"2001-05-19",2001,20,"Saturday","20_2",NA,0,0,0,0
"2001-05-20",2001,21,"Sunday","21_1",NA,0,0,0,0
"2001-05-21",2001,21,"Monday","21_1",NA,0,0,0,0
"2001-05-22",2001,21,"Tuesday","21_1",NA,1,0,0,1
"2001-05-23",2001,21,"Wednesday","21_1",NA,0,0,0,0
"2001-05-24",2001,21,"Thursday","21_2",NA,0,0,0,0
"2001-05-25",2001,21,"Friday","21_2",NA,0,0,0,0
"2001-05-26",2001,21,"Saturday","21_2",NA,0,0,0,0
"2001-05-27",2001,22,"Sunday","22_1",NA,0,0,0,0
"2001-05-28",2001,22,"Monday","22_1",NA,0,0,0,0
"2001-05-29",2001,22,"Tuesday","22_1",NA,0,0,0,0
"2001-05-30",2001,22,"Wednesday","22_1",NA,0,0,0,0
"2001-05-31",2001,22,"Thursday","22_2",NA,1,0,0,1
"2001-06-01",2001,22,"Friday","22_2",NA,0,0,0,0
"2001-06-02",2001,22,"Saturday","22_2",NA,0,0,0,0
"2001-06-03",2001,23,"Sunday","23_1",NA,2,0,0,2
"2001-06-04",2001,23,"Monday","23_1",NA,5,0,0,5
"2001-06-05",2001,23,"Tuesday","23_1",NA,11,0,0,11
"2001-06-06",2001,23,"Wednesday","23_1",NA,11,0,0,11
"2001-06-07",2001,23,"Thursday","23_2",NA,14,0,0,14
"2001-06-08",2001,23,"Friday","23_2",NA,0,0,0,0
"2001-06-09",2001,23,"Saturday","23_2",NA,0,0,0,0
"2001-06-10",2001,24,"Sunday","24_1",NA,20,0,0,20
"2001-06-11",2001,24,"Monday","24_1",NA,11,0,0,11
"2001-06-12",2001,24,"Tuesday","24_1",NA,22,0,0,22
"2001-06-13",2001,24,"Wednesday","24_1",NA,40,0,0,40
"2001-06-14",2001,24,"Thursday","24_2",NA,53,0,0,53
"2001-06-15",2001,24,"Friday","24_2",NA,54,0,0,54
"2001-06-16",2001,24,"Saturday","24_2",NA,0,0,0,0
"2001-06-17",2001,25,"Sunday","25_1",NA,629,0,0,629
"2001-06-18",2001,25,"Monday","25_1",NA,0,0,0,0
"2001-06-19",2001,25,"Tuesday","25_1",NA,682,0,0,682
"2001-06-20",2001,25,"Wednesday","25_1",NA,807,0,0,807
"2001-06-21",2001,25,"Thursday","25_2",NA,0,0,0,0
"2001-06-22",2001,25,"Friday","25_2",NA,0,0,0,0
"2001-06-23",2001,25,"Saturday","25_2",NA,0,0,0,0
"2001-06-24",2001,26,"Sunday","26_1",NA,705,0,0,705
"2001-06-25",2001,26,"Monday","26_1",NA,1082,0,0,1082
"2001-06-26",2001,26,"Tuesday","26_1",NA,2443,0,0,2443
"2001-06-27",2001,26,"Wednesday","26_1",NA,0,0,0,0
"2001-06-28",2001,26,"Thursday","26_2",NA,0,0,0,0
"2001-06-29",2001,26,"Friday","26_2",NA,0,0,0,0
"2001-06-30",2001,26,"Saturday","26_2",NA,0,0,0,0
"2001-07-01",2001,27,"Sunday","27_1",NA,811,0,0,811
"2001-07-02",2001,27,"Monday","27_1",NA,879,0,0,879
"2001-07-03",2001,27,"Tuesday","27_1",NA,1465,0,0,1465
"2001-07-04",2001,27,"Wednesday","27_1",NA,773,0,0,773
"2001-07-05",2001,27,"Thursday","27_2",NA,0,0,0,0
"2001-07-06",2001,27,"Friday","27_2",NA,0,0,0,0
"2001-07-07",2001,27,"Saturday","27_2",NA,0,0,0,0
"2001-07-08",2001,28,"Sunday","28_1",NA,777,0,0,777
"2001-07-09",2001,28,"Monday","28_1",NA,1295,0,0,1295
"2001-07-10",2001,28,"Tuesday","28_1",NA,1039,0,0,1039
"2001-07-11",2001,28,"Wednesday","28_1",NA,0,0,0,0
"2001-07-12",2001,28,"Thursday","28_2",NA,0,0,0,0
"2001-07-13",2001,28,"Friday","28_2",NA,0,0,0,0
"2001-07-14",2001,28,"Saturday","28_2",NA,0,0,0,0
"2001-07-15",2001,29,"Sunday","29_1",NA,3089,0,0,3089
"2001-07-16",2001,29,"Monday","29_1",NA,4190,0,0,4190
"2001-07-17",2001,29,"Tuesday","29_1",NA,1454,0,0,1454
"2001-07-18",2001,29,"Wednesday","29_1",NA,908,0,0,908
"2001-07-19",2001,29,"Thursday","29_2",NA,0,0,0,0
"2001-07-20",2001,29,"Friday","29_2",NA,0,0,0,0
"2001-07-21",2001,29,"Saturday","29_2",NA,0,0,0,0
"2001-07-22",2001,30,"Sunday","30_1",NA,619,0,0,619
"2001-07-23",2001,30,"Monday","30_1",NA,1373,0,0,1373
"2001-07-24",2001,30,"Tuesday","30_1",NA,2337,0,0,2337
"2001-07-25",2001,30,"Wednesday","30_1",NA,2805,0,0,2805
"2001-07-26",2001,30,"Thursday","30_2",NA,267,0,0,267
"2001-07-27",2001,30,"Friday","30_2",NA,0,0,0,0
"2001-07-28",2001,30,"Saturday","30_2",NA,0,0,0,0
"2001-07-29",2001,31,"Sunday","31_1",NA,1718,0,0,1718
"2001-07-30",2001,31,"Monday","31_1",NA,2737,0,0,2737
"2001-07-31",2001,31,"Tuesday","31_1",NA,2719,0,0,2719
"2001-08-01",2001,31,"Wednesday","31_1",NA,1148,0,0,1148
"2001-08-02",2001,31,"Thursday","31_2",NA,25,0,0,25
"2001-08-03",2001,31,"Friday","31_2",NA,0,0,0,0
"2001-08-04",2001,31,"Saturday","31_2",NA,0,0,0,0
"2001-08-05",2001,32,"Sunday","32_1",NA,773,0,0,773
"2001-08-06",2001,32,"Monday","32_1",NA,1688,0,0,1688
"2001-08-07",2001,32,"Tuesday","32_1",NA,1920,0,0,1920
"2001-08-08",2001,32,"Wednesday","32_1",NA,916,0,0,916
"2001-08-09",2001,32,"Thursday","32_2",NA,89,0,0,89
"2001-08-10",2001,32,"Friday","32_2",NA,0,0,0,0
"2001-08-11",2001,32,"Saturday","32_2",NA,0,0,0,0
"2001-08-12",2001,33,"Sunday","33_1",NA,839,0,0,839
"2001-08-13",2001,33,"Monday","33_1",NA,999,0,0,999
"2001-08-14",2001,33,"Tuesday","33_1",NA,547,0,0,547
"2001-08-15",2001,33,"Wednesday","33_1",NA,349,0,0,349
"2001-08-16",2001,33,"Thursday","33_2",NA,0,0,0,0
"2001-08-17",2001,33,"Friday","33_2",NA,0,0,0,0
"2001-08-18",2001,33,"Saturday","33_2",NA,0,0,0,0
"2001-08-19",2001,34,"Sunday","34_1",NA,255,0,0,255
"2001-08-20",2001,34,"Monday","34_1",NA,99,0,0,99
"2001-08-21",2001,34,"Tuesday","34_1",NA,0,0,0,0
"2001-08-22",2001,34,"Wednesday","34_1",NA,181,0,0,181
"2001-08-23",2001,34,"Thursday","34_2",NA,0,0,0,0
"2001-08-24",2001,34,"Friday","34_2",NA,0,0,0,0
"2001-08-25",2001,34,"Saturday","34_2",NA,0,0,0,0
"2001-08-26",2001,35,"Sunday","35_1",NA,0,0,0,0
"2001-08-27",2001,35,"Monday","35_1",NA,0,0,0,0
"2001-08-28",2001,35,"Tuesday","35_1",NA,0,0,0,0
"2001-08-29",2001,35,"Wednesday","35_1",NA,0,0,0,0
"2001-08-30",2001,35,"Thursday","35_2",NA,0,0,0,0
"2001-08-31",2001,35,"Friday","35_2",NA,0,0,0,0
"2001-09-01",2001,35,"Saturday","35_2",NA,0,0,0,0
"2001-09-02",2001,36,"Sunday","36_1",NA,0,0,0,0
"2001-09-03",2001,36,"Monday","36_1",NA,0,0,0,0
"2001-09-04",2001,36,"Tuesday","36_1",NA,0,0,0,0
"2001-09-05",2001,36,"Wednesday","36_1",NA,0,0,0,0
"2001-09-06",2001,36,"Thursday","36_2",NA,0,0,0,0
"2001-09-07",2001,36,"Friday","36_2",NA,0,0,0,0
"2001-09-08",2001,36,"Saturday","36_2",NA,0,0,0,0
"2001-09-09",2001,37,"Sunday","37_1",NA,0,0,0,0
"2001-09-10",2001,37,"Monday","37_1",NA,0,0,0,0
"2001-09-11",2001,37,"Tuesday","37_1",NA,0,0,0,0
"2001-09-12",2001,37,"Wednesday","37_1",NA,0,0,0,0
"2001-09-13",2001,37,"Thursday","37_2",NA,0,0,0,0
"2001-09-14",2001,37,"Friday","37_2",NA,0,0,0,0
"2001-09-15",2001,37,"Saturday","37_2",NA,0,0,0,0
"2001-09-16",2001,38,"Sunday","38_1",NA,0,0,0,0
"2001-09-17",2001,38,"Monday","38_1",NA,0,0,0,0
"2001-09-18",2001,38,"Tuesday","38_1",NA,0,0,0,0
"2001-09-19",2001,38,"Wednesday","38_1",NA,0,0,0,0
"2001-09-20",2001,38,"Thursday","38_2",NA,0,0,0,0
"2001-09-21",2001,38,"Friday","38_2",NA,0,0,0,0
"2001-09-22",2001,38,"Saturday","38_2",NA,0,0,0,0
"2001-09-23",2001,39,"Sunday","39_1",NA,0,0,0,0
"2001-09-24",2001,39,"Monday","39_1",NA,0,0,0,0
"2001-09-25",2001,39,"Tuesday","39_1",NA,0,0,0,0
"2001-09-26",2001,39,"Wednesday","39_1",NA,0,0,0,0
"2001-09-27",2001,39,"Thursday","39_2",NA,0,0,0,0
"2001-09-28",2001,39,"Friday","39_2",NA,0,0,0,0
"2001-09-29",2001,39,"Saturday","39_2",NA,0,0,0,0
"2001-09-30",2001,40,"Sunday","40_1",NA,0,0,0,0
"2001-10-01",2001,40,"Monday","40_1",NA,0,0,0,0
"2001-10-02",2001,40,"Tuesday","40_1",NA,0,0,0,0
"2001-10-03",2001,40,"Wednesday","40_1",NA,0,0,0,0
"2001-10-04",2001,40,"Thursday","40_2",NA,0,0,0,0
"2001-10-05",2001,40,"Friday","40_2",NA,0,0,0,0
"2001-10-06",2001,40,"Saturday","40_2",NA,0,0,0,0
