Nstrata.rel <-
16L
Nstrata.cap <-
18L
Extra.strata.cap <-
3
Delta.max <-
4
n1 <-
c(6, 45, 144, 147, 302, 372, 287, 644, 563, 281, 183, 105, 79, 
33, 20, 2)
m2 <-
structure(c(0, 0, 0, 0, 6, 9, 23, 48, 125, 10, 31, 17, 5, 3, 
1, 0, 0, 0, 0, 5, 29, 28, 20, 61, 27, 30, 18, 5, 3, 1, 2, 0, 
0, 0, 3, 2, 5, 0, 1, 5, 5, 1, 1, 0, 0, 0, 0, 0, 0, 0, 1, 0, 0, 
0, 0, 2, 0, 0, 0, 1, 0, 0, 0, 0, 0, 0, 0, 0, 0, 0, 0, 0, 0, 1, 
0, 0, 0, 0, 0, 0, 6, 45, 140, 140, 262, 335, 243, 528, 406, 239, 
133, 82, 71, 29, 17, 2), .Dim = c(16L, 6L), .Dimnames = list(
    c("1", "2", "3", "4", "5", "6", "7", "8", "9", "10", "11", 
    "12", "13", "14", "15", "16"), c("1", "2", "3", "4", "5", 
    "")))
u2 <-
c(0, 0, 0, 0, 571, 1394, 2441, 4355, 5609, 2180, 2577, 1121, 
450, 118, 42, 2, 0, 0)
u2copy <-
c(0, 0, 0, 0, 571, 1394, 2441, 4355, 5609, 2180, 2577, 1121, 
450, 118, 42, 2, 0, 0)
logitP <-
c(-10, -10, -10, -10, NA, NA, NA, NA, NA, NA, NA, NA, NA, NA, 
NA, NA, -10, -10, -10, -10, -10)
Nfree.logitP <-
12L
free.logitP.index <-
5:16
logitP.cov <-
structure(c(1, 1, 1, 1, 1, 1, 1, 1, 1, 1, 1, 1, 1, 1, 1, 1, 1, 
1), .Dim = c(18L, 1L))
NlogitP.cov <-
1L
SplineDesign <-
structure(c(0.512, 0.216, 0.064, 0.008, 0, 0, 0, 0, 0, 0, 0, 
0, 0, 0, 0, 0, 0, 0, 0.428246913580247, 0.572641975308642, 0.522666666666667, 
0.367802469135803, 0.197530864197531, 0.0833333333333333, 0.0246913580246914, 
0.00308641975308642, 0, 0, 0, 0, 0, 0, 0, 0, 0, 0, 0.0580436847103514, 
0.197682811016144, 0.367179487179487, 0.514795821462488, 0.588793922127255, 
0.553685897435897, 0.438983855650522, 0.290449905033238, 0.153846153846154, 
0.0649038461538462, 0.0192307692307692, 0.00240384615384616, 
0, 0, 0, 0, 0, 0, 0.00170940170940171, 0.0136752136752137, 0.0461538461538461, 
0.109401709401709, 0.213675213675214, 0.360376602564103, 0.515491452991453, 
0.636151175213675, 0.67948717948718, 0.617387820512821, 0.480769230769231, 
0.315304487179487, 0.166666666666667, 0.0703125000000001, 0.0208333333333333, 
0.00260416666666667, 0, 0, 0, 0, 0, 0, 0, 0.00260416666666667, 
0.0208333333333333, 0.0703125, 0.166666666666667, 0.314583333333333, 
0.475, 0.597916666666667, 0.633333333333333, 0.549479166666667, 
0.3875, 0.206770833333333, 0.0666666666666667, 0.00833333333333336, 
0, 0, 0, 0, 0, 0, 0, 0, 0, 0.003125, 0.025, 0.084375, 0.2, 0.373263888888889, 
0.536111111111111, 0.603125, 0.488888888888889, 0.186111111111111, 
0, 0, 0, 0, 0, 0, 0, 0, 0, 0, 0, 0, 0, 0.00694444444444442, 0.0555555555555556, 
0.1875, 0.444444444444444, 0.680555555555556, 0, 0, 0, 0, 0, 
0, 0, 0, 0, 0, 0, 0, 0, 0, 0, 0, 0, 0.125), .Dim = c(18L, 8L), .Dimnames = list(
    NULL, c("1", "2", "3", "4", "5", "6", "7", "8")))
b.flat <-
1:2
n.b.flat <-
2L
b.notflat <-
3:8
n.b.notflat <-
6L
n.bU <-
8L
mean.muTT <-
c(0, 0, 0, 0)
tau.muTT <-
c(0.666, 0.666, 0.666, 0.666)
tauTT.alpha <-
0.1
tauTT.beta <-
0.1
tauU.alpha <-
1
tauU.beta <-
0.05
taueU.alpha <-
1
taueU.beta <-
0.05
prior.beta.logitP.mean <-
-1.61055877935511
prior.beta.logitP.sd <-
2
tauP.alpha <-
0.001
tauP.beta <-
0.001
