beta.logitP[1] 1 500
beta.logitP[2] 501 1000
bU[1] 1001 1500
bU[2] 1501 2000
bU[3] 2001 2500
bU[4] 2501 3000
bU[5] 3001 3500
bU[6] 3501 4000
bU[7] 4001 4500
bU[8] 4501 5000
deviance 5001 5500
etaU[1] 5501 6000
etaU[10] 6001 6500
etaU[11] 6501 7000
etaU[12] 7001 7500
etaU[13] 7501 8000
etaU[14] 8001 8500
etaU[15] 8501 9000
etaU[16] 9001 9500
etaU[17] 9501 10000
etaU[18] 10001 10500
etaU[2] 10501 11000
etaU[3] 11001 11500
etaU[4] 11501 12000
etaU[5] 12001 12500
etaU[6] 12501 13000
etaU[7] 13001 13500
etaU[8] 13501 14000
etaU[9] 14001 14500
eU[1] 14501 15000
eU[10] 15001 15500
eU[11] 15501 16000
eU[12] 16001 16500
eU[13] 16501 17000
eU[14] 17001 17500
eU[15] 17501 18000
eU[16] 18001 18500
eU[17] 18501 19000
eU[18] 19001 19500
eU[2] 19501 20000
eU[3] 20001 20500
eU[4] 20501 21000
eU[5] 21001 21500
eU[6] 21501 22000
eU[7] 22001 22500
eU[8] 22501 23000
eU[9] 23001 23500
logitP[1] 23501 24000
logitP[10] 24001 24500
logitP[11] 24501 25000
logitP[12] 25001 25500
logitP[13] 25501 26000
logitP[14] 26001 26500
logitP[15] 26501 27000
logitP[16] 27001 27500
logitP[17] 27501 28000
logitP[18] 28001 28500
logitP[19] 28501 29000
logitP[2] 29001 29500
logitP[20] 29501 30000
logitP[21] 30001 30500
logitP[3] 30501 31000
logitP[4] 31001 31500
logitP[5] 31501 32000
logitP[6] 32001 32500
logitP[7] 32501 33000
logitP[8] 33001 33500
logitP[9] 33501 34000
logUne[1] 34001 34500
logUne[10] 34501 35000
logUne[11] 35001 35500
logUne[12] 35501 36000
logUne[13] 36001 36500
logUne[14] 36501 37000
logUne[15] 37001 37500
logUne[16] 37501 38000
logUne[17] 38001 38500
logUne[18] 38501 39000
logUne[2] 39001 39500
logUne[3] 39501 40000
logUne[4] 40001 40500
logUne[5] 40501 41000
logUne[6] 41001 41500
logUne[7] 41501 42000
logUne[8] 42001 42500
logUne[9] 42501 43000
movep[1] 43001 43500
movep[2] 43501 44000
movep[3] 44001 44500
movep[4] 44501 45000
movep[5] 45001 45500
muTT[1] 45501 46000
muTT[2] 46001 46500
muTT[3] 46501 47000
muTT[4] 47001 47500
Ntot 47501 48000
sdTT 48001 48500
sigmaeU 48501 49000
sigmaP 49001 49500
sigmaU 49501 50000
taueU 50001 50500
tauP 50501 51000
tauU 51001 51500
Theta[1,1] 51501 52000
Theta[1,2] 52001 52500
Theta[1,3] 52501 53000
Theta[1,4] 53001 53500
Theta[1,5] 53501 54000
Theta[10,1] 54001 54500
Theta[10,2] 54501 55000
Theta[10,3] 55001 55500
Theta[10,4] 55501 56000
Theta[10,5] 56001 56500
Theta[11,1] 56501 57000
Theta[11,2] 57001 57500
Theta[11,3] 57501 58000
Theta[11,4] 58001 58500
Theta[11,5] 58501 59000
Theta[12,1] 59001 59500
Theta[12,2] 59501 60000
Theta[12,3] 60001 60500
Theta[12,4] 60501 61000
Theta[12,5] 61001 61500
Theta[13,1] 61501 62000
Theta[13,2] 62001 62500
Theta[13,3] 62501 63000
Theta[13,4] 63001 63500
Theta[13,5] 63501 64000
Theta[14,1] 64001 64500
Theta[14,2] 64501 65000
Theta[14,3] 65001 65500
Theta[14,4] 65501 66000
Theta[14,5] 66001 66500
Theta[15,1] 66501 67000
Theta[15,2] 67001 67500
Theta[15,3] 67501 68000
Theta[15,4] 68001 68500
Theta[15,5] 68501 69000
Theta[16,1] 69001 69500
Theta[16,2] 69501 70000
Theta[16,3] 70001 70500
Theta[16,4] 70501 71000
Theta[16,5] 71001 71500
Theta[2,1] 71501 72000
Theta[2,2] 72001 72500
Theta[2,3] 72501 73000
Theta[2,4] 73001 73500
Theta[2,5] 73501 74000
Theta[3,1] 74001 74500
Theta[3,2] 74501 75000
Theta[3,3] 75001 75500
Theta[3,4] 75501 76000
Theta[3,5] 76001 76500
Theta[4,1] 76501 77000
Theta[4,2] 77001 77500
Theta[4,3] 77501 78000
Theta[4,4] 78001 78500
Theta[4,5] 78501 79000
Theta[5,1] 79001 79500
Theta[5,2] 79501 80000
Theta[5,3] 80001 80500
Theta[5,4] 80501 81000
Theta[5,5] 81001 81500
Theta[6,1] 81501 82000
Theta[6,2] 82001 82500
Theta[6,3] 82501 83000
Theta[6,4] 83001 83500
Theta[6,5] 83501 84000
Theta[7,1] 84001 84500
Theta[7,2] 84501 85000
Theta[7,3] 85001 85500
Theta[7,4] 85501 86000
Theta[7,5] 86001 86500
Theta[8,1] 86501 87000
Theta[8,2] 87001 87500
Theta[8,3] 87501 88000
Theta[8,4] 88001 88500
Theta[8,5] 88501 89000
Theta[9,1] 89001 89500
Theta[9,2] 89501 90000
Theta[9,3] 90001 90500
Theta[9,4] 90501 91000
Theta[9,5] 91001 91500
U[1] 91501 92000
U[10] 92001 92500
U[11] 92501 93000
U[12] 93001 93500
U[13] 93501 94000
U[14] 94001 94500
U[15] 94501 95000
U[16] 95001 95500
U[17] 95501 96000
U[18] 96001 96500
U[2] 96501 97000
U[3] 97001 97500
U[4] 97501 98000
U[5] 98001 98500
U[6] 98501 99000
U[7] 99001 99500
U[8] 99501 100000
U[9] 100001 100500
Utot 100501 101000
