muTT <-
c(-1.00512639806533, 1.71009122403687)
tauTT <-
0.25538725191082
r <-
structure(c(-1.09861228866811, -1.09861228866811, -1.09861228866811, 
-4.61512051684126, -4.61512051684126, -1.26271329934854, -0.569566118788591, 
-0.980829253011726, -0.367724780125317, -1.79175946922805, -1.10856261952128, 
-0.0200006667066695, -0.703097511413113, -1.09861228866811, -4.61512051684126, 
-1.09861228866811, -0.693147180559945, -0.693147180559945, -0.693147180559945, 
-0.693147180559945, -0.133531392624523, -0.0139029051689914, 
-0.0230652729309961, -0.105360515657826, -0.287682072451781, 
-0.22314355131421, -0.0148886124937506, -0.693147180559946, -0.0198026272961798, 
-0.693147180559945, -0.0100503358535015, -0.693147180559945), .Dim = c(16L, 
2L))
beta.logitP <-
c(-3.76332986302162, 0)
tauP <-
3.52146137590462
bU <-
c(`SplineDesign[tmp1, ]1` = 5.76345658038798, `SplineDesign[tmp1, ]2` = 1.2210210798518, 
`SplineDesign[tmp1, ]3` = 10.5436672664446, `SplineDesign[tmp1, ]4` = 9.96651590378967, 
`SplineDesign[tmp1, ]5` = 9.16527540631298, `SplineDesign[tmp1, ]6` = 1.22385164409616, 
`SplineDesign[tmp1, ]7` = 2.46040818183265, `SplineDesign[tmp1, ]8` = 5.76345658038798
)
tauU <-
0.011918211812146
taueU <-
18.6405205746689
etaU <-
c(4.29045944114839, 4.07753744390572, 4.969813299576, 7.22693601849329, 
8.65347080970879, 9.3689667352586, 9.99579322332015, 10.2339417168318, 
10.1538570901039, 9.13151359143021, 9.62430261033829, 8.87094386383772, 
7.57147364885127, 6.31354804627709, 4.48863636973214, 3.13549421592915, 
2.19722457733622, 2.94443897916644)
epsilon <-
c(NA, NA, NA, NA, 0.0118899652367546, 0.0134439586494857, 0.0128002989709, 
0.0181702600583264, 0.0252778367807469, 0.0274157122584668, 0.0198775087790697, 
0.0182547322535829, 0.0278909440613777, 0.0273533033933262, 0.0744588898927905, 
0.0790208451057941, NA, NA, NA)
.RNG.seed <-
769902
.RNG.name <-
"base::Wichmann-Hill"
