"","year","ir","cv.ir"
"1",1984,"88272.90458",0.0984424841614292
"2",1985,"84479.47588",0.101489865860186
"3",1986,NA,0.9
"4",1987,"56362.02753",0.0955627293772056
"5",1988,"55580.45713",0.0983529142844961
"6",1989,"80997.72384",0.0939025708552553
"7",1990,"75801.24719",0.0920964785645501
"8",1991,"104895.5834",0.0943709486247064
"9",1992,"99643.04424",0.0915461671567252
"10",1993,"92933.48001",0.0898605127140552
"11",1994,"90128.64302",0.091326825825764
"12",1995,"104242.1034",0.0914371873658873
"13",1996,"97477.948",0.0901637861929551
"14",1997,"73255.48522",0.0914320793437507
"15",1998,"64755.73695",0.0937266065813803
"16",1999,"83588.04034",0.0943465078607201
"17",2000,"83190.19772",0.0911628850014951
"18",2001,"132502.7834",0.0909380791920783
"19",2002,"94605.73585",0.0912972846984098
"20",2003,"133593.8431",0.0923558138885519
"21",2004,"85257.84314",0.0918248597157744
"22",2005,"87496.11765",0.0973882203103671
"23",2006,"106545.2941",0.0955007531393167
"24",2007,"60320.90196",0.0887343422110859
"25",2008,"78031.13725",0.0980104114143229
"26",2009,"59817.96078",0.104282287688511
"27",2010,"80747.01961",0.0994969545724884
"28",2011,"82116.5098",0.0942689725592794
"29",2012,"102670.7843",0.0928602184643095
"30",2013,"88535.52941",0.096084219902334
"31",2014,"68532.62745",0.0927695469524859
"32",2015,"102506.1176",0.10011243514309
"33",2016,"146294.0392",0.0908087047336102
"34",2017,"91164.38989",0.0551845608035144
"35",2018,"84806.87555",0.0613926791458125
