StatWeek,StatWeekDay,Y1999,Y2000,Y2001,Y2002,Y2003,Y2004,Y2005,Y2006,Y2007,Y2008,Y2009,Y2010,Y2011,Y2012,Y2013,Y2014,Y2015,Y2016,Y2017,Y2018
18,1,0,0,0,0,0,0,0,0,0,0,0,0,0,0,0,0,0,0,0,0
18,2,0,0,0,0,0,0,0,0,0,0,0,0,0,0,0,0,0,0,0,0
18,3,0,0,0,0,0,0,0,0,0,0,0,0,0,0,0,0,0,0,0,0
18,4,0,0,0,0,0,0,0,0,0,0,0,0,0,0,0,0,0,0,0,0
18,5,0,0,0,0,0,0,0,0,0,0,0,0,0,0,0,0,0,0,0,0
18,6,0,0,0,0,0,0,0,0,0,0,0,0,0,0,0,0,0,0,0,0
18,7,0,0,0,0,0,0,0,0,0,0,0,0,0,0,0,0,0,0,0,0
19,1,0,0,0,0,0,0,0,0,0,0,0,0,0,0,0,0,0,0,0,0
19,2,0,0,0,0,0,0,0,0,0,0,0,0,0,0,0,0,0,0,0,0
19,3,0,0,0,0,0,0,0,0,0,0,0,0,0,0,0,0,0,0,0,0
19,4,0,0,0,0,0,0,0,0,0,0,0,0,0,0,0,0,0,0,0,0
19,5,0,0,0,0,0,0,0,0,0,0,0,0,0,0,0,0,0,0,0,0
19,6,0,0,0,0,0,0,0,0,0,0,0,0,0,0,0,0,0,0,0,0
19,7,0,0,0,0,0,0,0,0,0,0,0,0,0,0,0,0,0,0,0,0
20,1,0,0,0,0,0,0,0,0,0,0,0,0,0,0,0,0,0,0,0,0
20,2,0,0,0,0,0,0,0,0,0,0,0,0,0,0,0,0,0,0,0,0
20,3,0,0,0,0,0,0,0,0,0,0,0,0,0,0,0,0,0,0,0,0
20,4,0,0,0,0,0,0,0,0,0,0,0,0,0,0,0,0,0,0,0,0
20,5,0,0,0,0,0,0,0,0,0,0,0,0,0,0,0,0,0,0,0,0
20,6,0,0,0,0,0,0,0,0,0,0,0,0,0,0,0,0,0,0,0,0
20,7,0,0,0,0,0,0,0,0,0,0,0,0,0,0,0,0,0,0,0,0
21,1,0,0,0,0,0,0,0,0,0,0,0,0,0,0,0,0,0,0,0,0
21,2,0,0,0,0,0,0,0,0,0,0,0,0,0,0,0,0,0,0,0,0
21,3,0,0,0,0,0,0,0,0,0,0,0,0,0,0,0,0,0,0,0,0
21,4,0,0,0,0,0,0,0,0,0,0,0,0,0,0,0,0,0,0,0,0
21,5,0,0,0,0,0,0,0,0,0,0,0,0,0,0,0,0,0,0,0,0
21,6,0,0,0,0,0,0,0,0,0,0,0,0,0,0,0,0,0,0,0,0
21,7,0,0,0,0,0,0,0,0,0,0,0,0,0,0,0,0,0,0,0,0
22,1,0,0,0,0,0,0,0,0,0,0,0,0,0,0,0,0,0,0,0,0
22,2,0,0,0,0,0,0,0,0,0,0,0,0,0,0,0,0,0,0,0,0
22,3,0,0,0,0,0,0,0,0,0,0,0,0,0,0,0,0,0,0,0,0
22,4,0,0,0,0,0,0,0,0,0,0,0,0,0,0,0,0,0,0,0,0
22,5,0,0,0,0,0,0,0,0,0,0,0,0,0,0,0,0,0,0,0,0
22,6,0,0,0,0,0,0,0,0,0,0,0,0,0,0,0,0,0,0,0,0
22,7,0,0,0,0,0,0,0,0,0,0,0,0,0,0,0,0,0,0,0,0
23,1,0,0,0,0,0,0,0,0,0,0,0,0,0,0,0,0,0,0,0,0
23,2,0,0,0,0,0,0,0,0,0,0,0,0,0,3,0,1,0,1,0,0
23,3,0,0,0,0,0,0,1,0,0,0,0,0,0,0,0,2,0,0,0,0
23,4,0,0,0,0,0,0,0,0,0,0,0,0,0,0,0,0,0,0,0,0
23,5,0,0,0,0,0,0,0,0,0,0,0,0,0,0,0,0,0,0,0,0
23,6,0,0,0,0,0,0,0,0,0,0,0,0,0,0,0,0,0,0,0,0
23,7,0,0,0,0,0,0,0,0,0,0,0,0,0,0,0,0,0,0,0,0
24,1,0,0,0,0,0,0,2,0,0,0,0,1,0,0,0,0,0,0,0,0
24,2,0,0,0,0,0,0,21,0,0,5,0,14,0,1,0,0,0,0,0,0
24,3,0,0,0,0,0,0,6,1,0,5,2,0,0,0,0,0,0,0,0,0
24,4,0,0,0,0,0,0,8,3,0,0,3,0,0,2,0,0,0,0,0,0
24,5,0,0,0,0,0,0,0,2,0,0,0,0,0,0,0,0,0,0,0,0
24,6,0,0,0,0,0,0,0,2,0,0,1,0,0,0,0,0,0,0,0,0
24,7,0,0,0,0,0,0,0,17,0,0,1,0,0,0,0,0,0,0,0,0
25,1,0,0,629,467,520,0,56,19,126,570,4,73,17,373,280,621,4,0,0,0
25,2,0,0,0,511,903,0,92,18,183,868,8,0,0,0,151,594,2,0,0,0
25,3,0,0,682,891,0,0,74,10,0,0,0,0,0,0,220,0,0,0,0,0
25,4,0,0,807,0,0,0,0,21,0,0,0,0,0,0,0,0,0,0,0,0
25,5,0,0,0,0,0,0,0,58,0,0,0,0,0,0,0,0,0,0,0,0
25,6,0,0,0,0,0,0,0,1,0,0,0,0,0,0,0,0,0,0,0,0
25,7,0,0,0,0,0,0,0,0,0,0,0,0,0,0,0,0,0,0,0,0
26,1,261,409,705,955,998,323,181,147,221,807,525,577,869,43,305,568,339,0,0,0
26,2,503,571,1082,1705,1345,480,299,260,306,1213,443,926,0,37,231,564,314,450,0,0
26,3,0,0,2443,1522,725,577,532,242,278,1144,544,551,0,53,30,363,0,0,278,252
26,4,0,0,0,1212,164,640,0,162,171,0,0,0,0,134,45,0,0,0,244,0
26,5,0,0,0,0,0,0,0,0,0,0,0,0,0,341,0,0,0,0,0,0
26,6,0,0,0,0,0,0,0,0,0,0,0,0,0,0,0,0,0,0,0,0
26,7,0,0,0,0,0,0,0,0,0,0,0,0,0,0,0,0,0,0,0,0
27,1,1198,1331,811,850,1074,314,703,31,98,393,418,331,418,622,328,525,324,776,267,337
27,2,1657,1293,879,1444,1470,546,841,335,206,425,561,610,419,1050,333,569,216,681,169,282
27,3,1488,894,1465,1375,1695,596,342,424,300,233,781,512,0,0,236,0,211,557,0,0
27,4,0,0,773,1462,509,320,0,140,221,0,0,0,0,0,0,0,0,0,0,0
27,5,0,0,0,0,0,69,0,0,0,0,0,0,0,0,0,0,0,0,0,0
27,6,0,0,0,0,0,0,0,0,0,0,0,0,0,0,0,0,0,0,0,0
27,7,0,0,0,0,0,0,0,0,0,0,0,0,0,0,0,0,0,0,0,0
28,1,1427,637,777,1055,804,270,273,315,347,98,320,439,449,1079,261,530,285,909,551,762
28,2,1935,719,1295,2187,1428,558,279,491,538,103,286,466,1030,1000,190,874,301,1235,188,773
28,3,2200,922,1039,1528,890,777,214,303,0,225,314,570,635,0,315,497,0,0,7,635
28,4,0,0,0,898,271,0,253,0,0,0,111,0,0,0,0,410,0,583,392,0
28,5,0,0,0,0,0,0,0,0,0,0,0,0,0,0,0,0,0,0,0,0
28,6,0,0,0,0,0,0,0,0,0,0,0,0,0,0,0,0,0,0,0,0
28,7,0,0,0,0,0,0,0,0,0,0,0,0,0,0,0,0,0,0,0,0
29,1,206,715,3089,768,1276,844,648,715,78,168,439,687,471,648,1281,250,569,1302,186,765
29,2,456,855,4190,2281,1495,1368,993,646,21,212,438,1174,920,795,1639,147,540,1245,294,695
29,3,0,994,1454,1941,1643,677,0,396,30,138,550,761,0,1128,2299,109,0,915,327,1264
29,4,0,685,908,1147,1413,280,0,0,74,295,436,0,0,0,1641,155,0,0,0,0
29,5,0,0,0,596,84,0,0,0,63,0,231,0,0,0,828,399,0,0,0,0
29,6,0,0,0,0,0,0,0,0,0,0,0,0,0,0,0,794,0,0,0,0
29,7,0,0,0,0,0,0,0,0,0,0,0,0,0,0,0,0,0,0,0,0
30,1,584,1233,619,334,1606,1067,296,443,135,808,439,1369,994,1423,1424,640,460,346,1193,1845
30,2,975,1498,1373,823,2261,1426,358,787,254,807,246,2094,1057,1573,1660,1329,873,449,1424,1476
30,3,982,1528,2337,428,2217,749,1155,689,333,803,250,2323,1658,2031,1464,1194,1295,674,1141,1445
30,4,0,835,2805,195,802,521,0,0,212,0,61,0,959,1985,818,0,689,0,1632,1508
30,5,0,0,267,0,56,0,0,0,162,0,0,0,0,0,0,0,0,0,0,0
30,6,0,0,0,0,0,0,0,0,0,0,45,0,0,0,0,0,0,0,0,0
30,7,0,0,0,0,0,0,0,0,0,0,120,0,0,0,0,0,0,0,0,0
31,1,724,461,1718,452,1289,1347,985,1075,814,1020,557,1167,1480,1572,1289,851,1509,679,1011,637
31,2,954,133,2737,715,2141,1534,1111,1224,547,1211,120,1030,1510,93,1604,844,1456,1109,1657,834
31,3,697,0,2719,661,0,0,1097,1699,285,2463,0,0,1365,764,1450,750,636,1901,1642,951
31,4,0,137,1148,0,0,0,0,1270,440,0,0,0,0,2204,660,0,561,0,1100,0
31,5,0,0,25,0,0,0,0,790,683,0,0,0,0,0,337,0,700,0,0,0
31,6,0,0,0,0,0,0,0,0,1525,0,0,0,0,0,0,0,0,0,0,0
31,7,0,0,0,0,0,0,0,0,0,0,0,0,0,0,0,0,0,0,0,0
32,1,282,828,773,719,1164,896,1129,875,1246,707,325,1724,826,1677,505,873,283,1366,984,399
32,2,343,1630,1688,998,1240,843,1376,1348,1009,955,1223,0,1881,1439,415,903,625,1401,836,294
32,3,565,0,1920,776,0,0,1850,0,784,1167,0,0,1188,1452,454,1023,690,1626,1521,48
32,4,0,3046,916,0,0,0,0,0,0,0,0,0,1005,859,347,0,0,1278,0,0
32,5,0,0,89,0,0,0,0,0,0,0,0,0,0,0,0,0,0,0,0,0
32,6,0,0,0,0,0,0,0,0,0,0,0,0,0,0,0,0,0,0,0,0
32,7,0,0,0,0,0,0,0,0,379,0,0,0,0,0,0,0,0,0,0,0
33,1,155,1042,839,117,119,711,713,460,499,438,241,782,864,874,390,106,705,2019,1215,303
33,2,348,1722,999,32,165,965,730,802,704,659,248,731,1551,866,480,16,530,1941,827,288
33,3,546,0,547,8,806,0,1225,680,726,548,0,0,0,871,0,22,451,1586,1245,0
33,4,0,1926,349,0,0,0,0,558,588,0,0,0,0,808,0,34,0,838,0,0
33,5,0,0,0,0,0,0,0,325,269,0,0,0,0,0,0,0,0,0,0,0
33,6,0,0,0,0,0,0,0,0,0,0,0,0,0,0,0,0,0,0,0,0
33,7,0,0,0,0,0,0,0,0,0,0,0,0,0,0,0,0,0,0,0,0
34,1,197,518,255,0,10,353,129,563,288,230,108,148,377,339,151,132,732,1220,1116,426
34,2,170,377,99,0,61,220,254,766,251,25,15,270,314,467,172,48,658,346,847,461
34,3,247,247,0,0,47,162,424,500,274,31,39,224,310,309,126,159,232,479,620,314
34,4,0,0,181,0,77,45,700,481,129,113,90,0,0,248,86,261,0,1417,0,0
34,5,0,0,0,0,0,0,593,259,45,187,162,0,0,163,0,0,0,1750,0,0
34,6,0,0,0,0,0,0,0,0,0,220,21,0,0,0,0,0,0,0,0,0
34,7,0,0,0,0,0,0,0,0,0,0,0,0,0,0,0,0,0,0,0,0
35,1,301,170,0,0,0,151,332,97,55,0,15,158,24,224,109,71,683,982,836,168
35,2,322,157,0,0,0,139,507,420,73,0,29,72,25,87,111,71,699,956,1675,170
35,3,320,95,0,0,0,109,440,118,73,0,17,109,28,81,92,88,904,925,1588,116
35,4,0,78,0,0,38,108,0,85,41,0,14,104,63,48,77,50,0,675,612,98
35,5,0,0,0,0,51,82,0,26,45,0,9,0,126,50,70,26,0,0,0,0
35,6,0,0,0,0,0,0,0,0,0,0,16,0,236,57,58,24,0,0,0,0
35,7,0,0,0,0,0,0,0,0,0,0,0,0,0,0,0,0,0,0,0,0
36,1,105,86,0,0,0,5,215,0,160,0,2,75,239,39,20,31,336,113,832,119
36,2,181,74,0,0,0,19,242,0,149,0,12,56,191,44,27,27,310,465,488,92
36,3,168,71,0,0,0,29,0,0,96,0,22,39,150,42,39,42,275,565,0,68
36,4,181,0,0,0,0,15,0,0,59,0,18,1,131,27,7,22,240,611,0,38
36,5,0,0,0,0,0,13,0,0,40,0,14,0,117,21,3,26,0,425,0,0
36,6,0,0,0,0,29,0,0,0,38,0,5,0,0,8,12,0,0,0,0,0
36,7,0,0,0,0,24,0,0,0,36,0,7,0,0,6,0,0,0,0,0,0
37,1,0,37,0,0,5,0,11,0,5,0,10,18,8,2,0,0,116,217,287,29
37,2,0,29,0,0,7,0,7,0,1,0,17,7,29,0,8,4,0,118,488,23
37,3,3,11,0,0,11,0,0,0,1,0,18,6,1,0,15,1,0,89,489,14
37,4,0,15,0,0,0,0,0,0,0,0,0,5,7,0,24,3,0,40,0,16
37,5,0,0,0,0,0,0,0,0,0,0,0,3,9,0,8,0,0,33,0,0
37,6,0,0,0,0,0,0,0,0,0,0,0,0,2,0,0,5,0,0,0,0
37,7,0,0,0,0,0,0,0,0,0,0,0,0,0,0,0,0,0,0,0,0
38,1,0,0,0,0,0,0,0,0,0,0,0,4,10,0,0,0,0,2,0,6
38,2,0,0,0,0,0,0,0,0,0,0,0,0,16,0,0,0,0,6,0,23
38,3,0,0,0,0,0,0,0,0,0,0,0,0,29,0,0,0,0,1,0,0
38,4,0,0,0,0,0,0,0,0,0,0,0,0,6,0,0,0,0,0,0,0
38,5,0,0,0,0,0,0,0,0,0,0,0,0,2,0,0,0,0,0,0,0
38,6,0,0,0,0,0,0,0,0,0,0,0,0,9,0,0,0,0,0,0,0
38,7,0,0,0,0,0,0,0,0,0,0,0,0,0,0,0,0,0,0,0,0
39,1,0,0,0,0,0,0,0,0,0,0,0,0,4,0,0,0,0,0,0,0
39,2,0,0,0,0,0,0,0,0,0,0,0,0,0,0,0,0,0,0,0,0
39,3,0,0,0,0,0,0,0,0,0,0,0,0,0,0,0,0,0,0,0,0
39,4,0,0,0,0,0,0,0,0,0,0,0,0,0,0,0,0,0,0,0,0
39,5,0,0,0,0,0,0,0,0,0,0,0,0,0,0,0,0,0,0,0,0
39,6,0,0,0,0,0,0,0,0,0,0,0,0,0,0,0,0,0,0,0,0
39,7,0,0,0,0,0,0,0,0,0,0,0,0,0,0,0,0,0,0,0,0
40,1,0,0,0,0,0,0,0,0,0,0,0,0,0,0,0,0,0,0,0,0
40,2,0,0,0,0,0,0,0,0,0,0,0,0,0,0,0,0,0,0,0,0
40,3,0,0,0,0,0,0,0,0,0,0,0,0,0,0,0,0,0,0,0,0
40,4,0,0,0,0,0,0,0,0,0,0,0,0,0,0,0,0,0,0,0,0
40,5,0,0,0,0,0,0,0,0,0,0,0,0,0,0,0,0,0,0,0,0
40,6,0,0,0,0,0,0,0,0,0,0,0,0,0,0,0,0,0,0,0,0
40,7,0,0,0,0,0,0,0,0,0,0,0,0,0,0,0,0,0,0,0,0
41,1,0,0,0,0,0,0,0,0,0,0,0,0,0,0,0,0,0,0,0,0
41,2,0,0,0,0,0,0,0,0,0,0,0,0,0,0,0,0,0,0,0,0
41,3,0,0,0,0,0,0,0,0,0,0,0,0,0,0,0,0,0,0,0,0
41,4,0,0,0,0,0,0,0,0,0,0,0,0,0,0,0,0,0,0,0,0
41,5,0,0,0,0,0,0,0,0,0,0,0,0,0,0,0,0,0,0,0,0
41,6,0,0,0,0,0,0,0,0,0,0,0,0,0,0,0,0,0,0,0,0
41,7,0,0,0,0,0,0,0,0,0,0,0,0,0,0,0,0,0,0,0,0
