Year,StatWeek,CanadianCatch,TagsRecovered,FishCheckedMark2,NumMark2
2018,26,252,3,200,1
2018,27,619,12,140,2
2018,28,2170,79,200,4
2018,29,2724,127,200,4
2018,30,6274,128,200,9
2018,31,2422,44,200,5
2018,32,741,16,205,8
2018,33,591,10,200,2
2018,34,1201,18,200,3
2018,35,552,6,200,4
2018,36,317,4,202,0
2018,37,82,0,64,0
2018,38,29,1,16,0
2017,26,522,22,200,7
2017,27,436,19,200,8
2017,28,1138,32,200,7
2017,29,807,31,200,10
2017,30,5390,155,200,5
2017,31,5410,213,200,4
2017,32,3341,80,200,6
2017,33,3287,183,200,8
2017,34,2583,171,200,13
2017,35,4711,172,200,8
2017,36,1320,73,200,17
2017,37,1264,92,200,11
2016,26,450,9,199,1
2016,27,2014,76,200,7
2016,28,2727,99,200,4
2016,29,3462,63,200,5
2016,30,1469,47,200,7
2016,31,3689,118,200,5
2016,32,5671,206,200,12
2016,33,6384,152,200,5
2016,34,5212,117,199,9
2016,35,3538,149,198,5
2016,36,2179,58,200,11
2016,37,497,11,200,3
2016,38,9,1,21,2
2016,39,0,0,41,3
2016,40,0,0,8,1
2015,25,6,0,0,0
2015,26,653,39,200,9
2015,27,751,15,200,1
2015,28,586,10,200,1
2015,29,1109,21,200,1
2015,30,3317,87,200,5
2015,31,4862,154,200,6
2015,32,1598,44,196,4
2015,33,1686,68,199,6
2015,34,1622,59,200,7
2015,35,2286,112,196,7
2015,36,1161,70,200,5
2015,37,116,1,90,1
2014,25,1215,27,200,5
2014,26,1495,38,200,3
2014,27,1094,89,200,15
2014,28,2311,169,200,9
2014,29,1854,81,197,11
2014,30,3163,89,201,11
2014,31,2445,130,199,9
2014,32,2799,134,200,16
2014,33,178,11,152,6
2014,34,600,28,200,7
2014,35,330,19,198,6
2014,36,148,10,137,5
2014,37,13,2,8,1
2013,25,651,6,193,7
2013,26,611,69,177,23
2013,27,897,71,188,12
2013,28,766,29,191,9
2013,29,7688,176,195,5
2013,30,5366,149,195,5
2013,31,5340,174,197,3
2013,32,1721,70,186,14
2013,33,870,43,195,5
2013,34,535,31,193,7
2013,35,517,36,189,11
2013,36,108,4,92,7
2013,37,55,4,28,0
2012,25,373,10,200,7
2012,26,608,9,200,3
2012,27,1672,39,200,5
2012,28,2079,43,200,2
2012,29,2571,70,200,7
2012,30,7012,160,200,4
2012,31,4633,91,200,6
2012,32,5427,176,200,8
2012,33,3419,126,200,5
2012,34,1526,100,200,15
2012,35,547,31,200,6
2012,36,187,16,110,5
2012,37,2,2,0,0
2011,26,869,15,506,11
2011,27,837,18,635,10
2011,28,2117,50,700,17
2011,29,1391,23,700,12
2011,30,4668,114,700,8
2011,31,4355,104,700,24
2011,32,4900,192,700,15
2011,33,2415,76,702,20
2011,34,1001,17,700,10
2011,35,502,18,200,9
2011,36,828,38,200,10
2011,37,56,4,41,1
2010,26,2054,57,799,23
2010,27,1453,48,351,12
2010,28,1475,39,200,4
2010,29,2622,55,200,8
2010,30,5786,103,200,2
2010,31,2197,48,200,1
2010,32,1724,39,933,39
2010,33,1513,70,684,34
2010,34,642,17,368,7
2010,35,443,18,200,12
2010,36,171,6,18,1
2009,26,1512,5,200,2
2009,27,1776,38,200,9
2009,28,1031,34,200,10
2009,29,2094,102,200,12
2009,30,1161,108,200,10
2009,31,697,25,200,5
2009,32,1548,41,200,9
2009,33,489,14,200,6
2009,34,435,20,144,0
2009,35,183,3,38,1
2009,36,157,4,63,1
2009,37,66,0,18,0
2008,24,10,0,0,0
2008,25,1438,27,200,2
2008,26,3164,99,200,2
2008,27,1051,39,200,6
2008,28,426,8,199,3
2008,29,813,28,199,8
2008,30,2418,66,200,1
2008,31,4694,117,201,2
2008,32,2829,110,199,4
2008,33,1645,116,200,11
2008,34,806,39,200,6
2007,25,309,0,200,0
2007,26,976,74,200,6
2007,27,825,53,200,12
2007,28,885,36,200,11
2007,29,266,17,189,10
2007,30,1096,61,200,7
2007,31,4294,202,200,6
2007,32,3418,420,200,19
2007,33,2786,284,200,30
2007,34,987,99,150,9
2007,35,287,51,100,14
2007,36,578,23,50,2
2007,37,7,0,0,0
2006,24,25,0,0,0
2006,25,127,2,0,0
2006,26,811,2,189,1
2006,27,930,36,200,6
2006,28,1109,32,200,6
2006,29,1757,42,200,3
2006,30,1919,45,200,1
2006,31,6058,72,200,3
2006,32,2223,174,200,0
2006,33,2825,99,200,1
2006,34,2569,103,200,3
2006,35,746,81,200,1
2006,36,122,10,0,0
2006,37,120,7,100,9
2006,38,20,9,47,0
2005,25,222,4,74,0
2005,26,1012,24,200,0
2005,27,1886,33,200,0
2005,28,1019,63,200,3
2005,29,1641,25,200,2
2005,30,1809,64,200,7
2005,31,3193,82,200,2
2005,32,4355,120,200,0
2005,33,2668,66,200,7
2005,34,2100,57,199,1
2005,35,1279,40,200,2
2005,36,526,23,200,0
2005,37,121,10,41,2
2005,38,64,6,47,1
2004,26,2020,101,200,10
2004,27,1845,77,200,7
2004,28,1605,61,200,4
2004,29,3169,101,199,7
2004,30,3763,175,201,8
2004,31,2881,108,200,6
2004,32,1739,138,200,12
2004,33,1676,67,200,3
2004,34,780,31,200,7
2004,35,589,33,81,3
2004,36,81,10,5,0
2003,24,25,0,26,0
2003,25,1423,19,200,2
2003,26,3232,50,198,1
2003,27,4748,115,200,2
2003,28,3393,154,200,9
2003,29,5911,245,200,2
2003,30,6942,201,200,5
2003,31,3430,71,200,2
2003,32,2404,52,199,2
2003,33,1090,14,200,1
2002,25,1869,62,200,14
2002,26,5394,216,200,4
2002,27,5131,203,200,0
2002,28,5668,205,200,0
2002,29,6733,302,200,7
2002,30,1780,68,164,2
2002,31,1828,88,200,6
2002,32,2493,78,136,3
2002,33,157,9,148,3
2002,34,23,1,0,0
2001,25,2118,39,220,5
2001,26,4230,88,200,3
2001,27,3928,195,200,8
2001,28,3111,109,198,3
2001,29,9641,157,200,0
2001,30,7401,178,218,1
2001,31,8347,283,199,2
2001,32,5386,141,196,4
2001,33,2805,132,199,8
2001,34,535,29,101,5
