Year,Weir,WeirCount_Wild,WeirCount_Enhanced,WeirCount_Total,Broodstock_Wild,Broodstock_Enhanced,Broodstock_Total,NatSpn_Wild,NatSpn_Enhanced,NatSpn_Total
1995,Tatsamenie,4536.47,1243.53,5780,1093,300,1393,3443,944,4387
1996,Tatsamenie,9936.26,444.74,10381,2254,101,2355,7682,344,8026
1997,Tatsamenie,8131.49,231.51,8363,2316,66,2382,5815,166,5981
1998,Tatsamenie,5861.39,135.61,5997,1233,29,1262,4628,107,4735
1999,Tatsamenie,2066.87,37.13,2104,212,4,216,1855,33,1888
2000,Tatsamenie,6575.25,999.75,7575,1740,265,2005,4835,735,5570
2001,Tatsamenie,18821.84,3753.16,22575,2498,498,2996,16324,3255,19579
2002,Tatsamenie,4836.16,658.84,5495,982,134,1116,3854,525,4379
2003,Tatsamenie,3175.38,1339.62,4515,1090,460,1550,2085,880,2965
2004,Tatsamenie,1236.95,714.05,1951,377,217,594,860,497,1357
2005,Tatsamenie,2702.81,669.19,3372,743,184,927,1960,485,2445
2006,Tatsamenie,19983.8,2491.2,22475,2361,294,2655,17623,2197,19820
2007,Tatsamenie,7998.99,3188.01,11187,2004,799,2803,5995,2389,8384
2008,Tatsamenie,4808.57,4167.43,8976,1500,1300,2800,3309,2867,6176
2009,Tatsamenie,1678.83,353.17,2032,611,129,740,1067,225,1292
2010,Tatsamenie,2806.87,706.13,3513,1119,281,1400,1688,425,2113
2011,Tatsamenie,5806.32,2073.68,7880,958,342,1300,4848,1732,6580
2012,Tatsamenie,9363,6242,15605,780,520,1300,8583,5722,14305
2013,Tatsamenie,5547.7,4698.3,10246,704,596,1300,4844,4102,8946
2014,Tatsamenie,1212.91,893.09,2106,437,321,758,776,572,1348
2015,Tatsamenie,867.74,669.26,1537,338,260,598,530,409,939
2016,Tatsamenie,26890.44,6043.56,32934,1225,275,1500,25666,5768,31434
2017,Tatsamenie,22022.86,5214.14,27237,1245,295,1540,20778,4919,25697
2018,Tatsamenie,3614.42,1471.58,5086,1208,492,1700,2406,980,3386
2004,KingSalmon,5005,0,5005,0,0,0,5005,0,5005
2005,KingSalmon,1046,0,1046,0,0,0,1046,0,1046
2006,KingSalmon,2177,0,2177,0,0,0,2177,0,2177
2007,KingSalmon,5,0,5,0,0,0,5,0,5
2008,KingSalmon,888,0,888,0,0,0,888,0,888
2009,KingSalmon,1100,0,1100,0,0,0,1100,0,1100
2010,KingSalmon,2977,0,2977,0,0,0,2977,0,2977
2011,KingSalmon,2899,0,2899,0,0,0,2899,0,2899
2012,KingSalmon,6763,0,6913,150,0,150,6763,0,6763
2013,KingSalmon,470,0,470,0,0,0,470,0,470
2014,KingSalmon,910,0,1061,151,0,151,910,0,910
2015,KingSalmon,1683,0,1683,0,0,0,1683,0,1683
2016,KingSalmon,3378.2,3025.8,6404,0,0,0,3378.2,3025.8,6404
2017,KingSalmon,439,0,439,0,0,0,439,0,439
2018,KingSalmon,2329,851,3180,0,0,0,2329,851,3180
1983,LittleTrapper,7402,0,7402,0,0,0,7402,0,7402
1984,LittleTrapper,13084,0,13084,0,0,0,13084,0,13084
1985,LittleTrapper,14889,0,14889,0,0,0,14889,0,14889
1986,LittleTrapper,13820,0,13820,0,0,0,13820,0,13820
1987,LittleTrapper,12007,0,12007,0,0,0,12007,0,12007
1988,LittleTrapper,10637,0,10637,0,0,0,10637,0,10637
1989,LittleTrapper,9606,0,9606,0,0,0,9606,0,9606
1990,LittleTrapper,NA,NA,9443,NA,NA,1666,7777,NA,7777
1991,LittleTrapper,NA,NA,22942,NA,NA,1941,21001,NA,21001
1992,LittleTrapper,NA,NA,14372,NA,NA,1640,12732,NA,12732
1993,LittleTrapper,NA,NA,17432,NA,NA,747,16685,NA,16685
1994,LittleTrapper,NA,NA,13438,NA,NA,747,12691,NA,12691
1995,LittleTrapper,NA,NA,11524,0,0,0,11067.31134,456.6886591,11524
1996,LittleTrapper,NA,NA,5483,0,0,0,5291.775944,191.2240557,5483
1997,LittleTrapper,NA,NA,5924,0,0,0,5543.049487,380.9505134,5924
1998,LittleTrapper,NA,NA,8717,0,0,0,7697.895774,1019.104226,8717
1999,LittleTrapper,NA,NA,11805,0,0,0,11759.78319,45.21680672,11805
2000,LittleTrapper,NA,NA,11551,0,0,0,11551,0,11551
2001,LittleTrapper,NA,NA,16860,0,0,0,16860,0,16860
2002,LittleTrapper,NA,NA,7973,0,0,0,7973,0,7973
2003,LittleTrapper,NA,NA,31227,0,0,0,31227,0,31227
2004,LittleTrapper,NA,NA,9613,0,0,0,9613,0,9613
2005,LittleTrapper,NA,NA,16009,0,0,0,16009,0,16009
2006,LittleTrapper,NA,NA,25265,NA,NA,708,24557,0,24557
2007,LittleTrapper,NA,NA,7153,NA,NA,813,6340,0,6340
2008,LittleTrapper,NA,NA,3831,NA,NA,1040,2791,0,2791
2009,LittleTrapper,NA,NA,5552,NA,NA,109,5443,0,5443
2010,LittleTrapper,NA,NA,3347,0,0,0,3084.157307,302.842693,3387
2011,LittleTrapper,NA,NA,3809,0,0,0,3521,288,3809
2012,LittleTrapper,NA,NA,10015,0,0,0,9522.205813,492.794187,10015
2013,LittleTrapper,NA,NA,4840,0,0,0,4808.650263,31.34973723,4840
2014,LittleTrapper,NA,NA,6607,0,0,0,6707,0,6707
2015,LittleTrapper,NA,NA,13253,0,0,0,13253,0,13253
2016,LittleTrapper,NA,NA,7771,0,0,0,7594,0,7594
2017,LittleTrapper,NA,NA,6552,0,0,0,6376,0,6376
2018,LittleTrapper,NA,NA,8249,0,0,0,8249,0,8249
1980,Kuthai,NA,NA,NA,NA,NA,NA,NA,NA,1658.00
1981,Kuthai,NA,NA,NA,NA,NA,NA,NA,NA,2299.00
1982,Kuthai,NA,NA,NA,NA,NA,NA,NA,NA,NA
1983,Kuthai,NA,NA,NA,NA,NA,NA,NA,NA,NA
1984,Kuthai,NA,NA,NA,NA,NA,NA,NA,NA,NA
1985,Kuthai,NA,NA,NA,NA,NA,NA,NA,NA,NA
1986,Kuthai,NA,NA,NA,NA,NA,NA,NA,NA,NA
1987,Kuthai,NA,NA,NA,NA,NA,NA,NA,NA,NA
1988,Kuthai,NA,NA,NA,NA,NA,NA,NA,NA,NA
1989,Kuthai,NA,NA,NA,NA,NA,NA,NA,NA,NA
1990,Kuthai,NA,NA,NA,NA,NA,NA,NA,NA,NA
1991,Kuthai,NA,NA,NA,NA,NA,NA,NA,NA,NA
1992,Kuthai,NA,NA,NA,NA,NA,NA,NA,NA,1457.00
1993,Kuthai,NA,NA,NA,NA,NA,NA,NA,NA,6312.00
1994,Kuthai,NA,NA,NA,NA,NA,NA,NA,NA,5427.00
1995,Kuthai,NA,NA,NA,NA,NA,NA,NA,NA,3310.00
1996,Kuthai,NA,NA,NA,NA,NA,NA,NA,NA,4243.00
1997,Kuthai,NA,NA,NA,NA,NA,NA,NA,NA,5746.00
1998,Kuthai,NA,NA,NA,NA,NA,NA,NA,NA,1934.00
1999,Kuthai,NA,NA,NA,NA,NA,NA,NA,NA,10042.00
2000,Kuthai,NA,NA,NA,NA,NA,NA,NA,NA,4096.00
2001,Kuthai,NA,NA,NA,NA,NA,NA,NA,NA,1663.00
2002,Kuthai,NA,NA,NA,NA,NA,NA,NA,NA,7697.00
2003,Kuthai,NA,NA,NA,NA,NA,NA,NA,NA,7769.00
2004,Kuthai,NA,NA,NA,NA,NA,NA,NA,NA,1578.00
2005,Kuthai,NA,NA,NA,NA,NA,NA,NA,NA,6004.00
2006,Kuthai,NA,NA,NA,NA,NA,NA,NA,NA,1015.00
2007,Kuthai,NA,NA,NA,NA,NA,NA,NA,NA,204.00
2008,Kuthai,NA,NA,NA,NA,NA,NA,NA,NA,1547.00
2009,Kuthai,NA,NA,NA,NA,NA,NA,NA,NA,1442.00
2010,Kuthai,NA,NA,NA,NA,NA,NA,NA,NA,1626.00
2011,Kuthai,NA,NA,NA,NA,NA,NA,NA,NA,811.00
2012,Kuthai,NA,NA,NA,NA,NA,NA,NA,NA,182.00
2013,Kuthai,NA,NA,NA,NA,NA,NA,NA,NA,1195.00
2014,Kuthai,NA,NA,NA,NA,NA,NA,NA,NA,208.00
2015,Kuthai,NA,NA,NA,NA,NA,NA,NA,NA,341.00
2016,Kuthai,NA,NA,NA,NA,NA,NA,NA,NA,1476.00
2017,Kuthai,NA,NA,NA,NA,NA,NA,NA,NA,299.00
2018,Kuthai,NA,NA,NA,NA,NA,NA,NA,NA,13.00
