"","rel.index","n1","23","24","25","26","27","28","29","30","31","32","33","34","35","36","37","38","39","40"
"23",1,6,0,0,0,0,0,0,0,0,0,0,0,0,0,0,0,0,0,0
"24",2,45,0,0,0,0,0,0,0,0,0,0,0,0,0,0,0,0,0,0
"25",3,144,0,0,0,0,3,1,0,0,0,0,0,0,0,0,0,0,0,0
"26",4,147,0,0,0,0,5,2,0,0,0,0,0,0,0,0,0,0,0,0
"27",5,302,0,0,0,0,6,29,5,0,0,0,0,0,0,0,0,0,0,0
"28",6,372,0,0,0,0,0,9,28,0,0,0,0,0,0,0,0,0,0,0
"29",7,287,0,0,0,0,0,0,23,20,1,0,0,0,0,0,0,0,0,0
"30",8,644,0,0,0,0,0,0,0,48,61,5,2,0,0,0,0,0,0,0
"31",9,563,0,0,0,0,0,0,0,0,125,27,5,0,0,0,0,0,0,0
"32",10,281,0,0,0,0,0,0,0,0,0,10,30,1,0,1,0,0,0,0
"33",11,183,0,0,0,0,0,0,0,0,0,0,31,18,1,0,0,0,0,0
"34",12,105,0,0,0,0,0,0,0,0,0,0,0,17,5,0,1,0,0,0
"35",13,79,0,0,0,0,0,0,0,0,0,0,0,0,5,3,0,0,0,0
"36",14,33,0,0,0,0,0,0,0,0,0,0,0,0,0,3,1,0,0,0
"37",15,20,0,0,0,0,0,0,0,0,0,0,0,0,0,0,1,2,0,0
"38",16,2,0,0,0,0,0,0,0,0,0,0,0,0,0,0,0,0,0,0
"untagged",NA,NA,0,0,0,0,571,1394,2441,4355,5609,2180,2577,1121,450,118,42,2,0,0
"total.captures",NA,NA,0,0,0,0,585,1435,2497,4423,5796,2222,2645,1157,461,125,45,4,0,0
