Time Stratified Petersen with Non-Diagonal recaptures, error in smoothed U, non-parametric modelling of travel times, and incorporating mark availability-  Mon Nov 23 08:55:20 2020
Version:  2020-12-01

 Postseason_fallback--2019  TSPND NP Results 

*** Raw data *** (padded to match length of u2) 
    time  n1 m2.1 m2.2 m2.3 m2.4 m2.5   u2 sampfrac logitP.cov jump
X1     1   6    0    0    0    0    0    0        1          1     
X2     2  45    0    0    0    0    0    0        1          1     
X3     3 144    0    0    3    1    0    0        1          1     
X4     4 147    0    5    2    0    0    0        1          1     
X5     5 302    6   29    5    0    0  571        1          1     
X6     6 372    9   28    0    0    0 1394        1          1     
X7     7 287   23   20    1    0    0 2441        1          1     
X8     8 644   48   61    5    2    0 4355        1          1     
X9     9 563  125   27    5    0    0 5609        1          1     
X10   10 281   10   30    1    0    1 2180        1          1     
X11   11 183   31   18    1    0    0 2577        1          1     
X12   12 105   17    5    0    1    0 1121        1          1     
X13   13  79    5    3    0    0    0  450        1          1     
X14   14  33    3    1    0    0    0  118        1          1     
X15   15  20    1    2    0    0    0   42        1          1     
X16   16   2    0    0    0    0    0    2        1          1     
X     17  NA   NA   NA   NA   NA   NA    0        1          1     
X.1   18  NA   NA   NA   NA   NA   NA    0        1          1     


*** Marked Availability prior information *** 
    Set marked available n= 534  with x= 448 


Jump point are after strata: none - A single spline is fit
Maximum travel time (Delta.max):  4
Fixed logitP indices are: 1 2 3 4 17 18
Fixed logitP values  are: -10 -10 -10 -10 -10 -10

*** Pooled Petersen Estimate prior to fixing bad n1, m2, or u2 values  CHECK - CHECK - CHECK - CHECK ***

    *** NOT ADJUSTED FOR MARK AVAILABILITY/Dropout/Fallback ***
Total n1= 3213 ;  m2= 535 ;  u2= 20860 

Est U(total) not adjusted for fallback  125,087   (SE  4,990 )
Est N(total) not adjusted for fallback  128,295   (SE  4,990 )




Adjusting for fallback/dropout  
Estimated dropout is 0.1610487 with se of  0.01590656 
Est U(total) adjusting for dropout is  104,942   (SE  4,636 )
Est N(total) adjusting for dropout is  107,633   (SE  4,658 )


*** Test if pooled Petersen is allowable. [Check if fraction captured equal] ***

(Large Sample) Chi-square test statistic  133.1741  has p-value 5.074109e-21 

   time n1-m2* m2* E[n1-m2] E[m2] X2[n1-m2] X2[m2]
1     1      6   0      5.0   1.0       0.2    1.0
2     2     45   0     37.5   7.5       1.5    7.5
3     3    140   4    120.0  24.0       3.3   16.6
4     4    140   7    122.5  24.5       2.5   12.5
5     5    262  40    251.7  50.3       0.4    2.1
6     6    335  37    310.1  61.9       2.0   10.0
7     7    243  44    239.2  47.8       0.1    0.3
8     8    528 116    536.8 107.2       0.1    0.7
9     9    406 157    469.3  93.7       8.5   42.7
10   10    239  42    234.2  46.8       0.1    0.5
11   11    133  50    152.5  30.5       2.5   12.5
12   12     82  23     87.5  17.5       0.3    1.7
13   13     71   8     65.8  13.2       0.4    2.0
14   14     29   4     27.5   5.5       0.1    0.4
15   15     17   3     16.7   3.3       0.0    0.0
16   16      2   0      1.7   0.3       0.1    0.3

 Be cautious of using this test in cases of small expected values. 



*** Revised data *** 
    time  n1 m2.1 m2.2 m2.3 m2.4 m2.5   u2 sampfrac logitP.cov jump.after
X1     1   6    0    0    0    0    0    0        1          1           
X2     2  45    0    0    0    0    0    0        1          1           
X3     3 144    0    0    3    1    0    0        1          1           
X4     4 147    0    5    2    0    0    0        1          1           
X5     5 302    6   29    5    0    0  571        1          1           
X6     6 372    9   28    0    0    0 1394        1          1           
X7     7 287   23   20    1    0    0 2441        1          1           
X8     8 644   48   61    5    2    0 4355        1          1           
X9     9 563  125   27    5    0    0 5609        1          1           
X10   10 281   10   30    1    0    1 2180        1          1           
X11   11 183   31   18    1    0    0 2577        1          1           
X12   12 105   17    5    0    1    0 1121        1          1           
X13   13  79    5    3    0    0    0  450        1          1           
X14   14  33    3    1    0    0    0  118        1          1           
X15   15  20    1    2    0    0    0   42        1          1           
X16   16   2    0    0    0    0    0    2        1          1           
X     17  NA   NA   NA   NA   NA   NA    0        1          1           
X.1   18  NA   NA   NA   NA   NA   NA    0        1          1           


*** Marked Availability prior information *** 
    Set marked available n= 534  with x= 448 


*** Expanded m2 array with column sum and u2 ***

                        [,1] [,2] [,3] [,4] [,5] [,6] [,7] [,8] [,9] [,10] [,11] [,12] [,13] [,14] [,15] [,16] [,17] [,18] [,19]
1                          0    0    0    0    0    0    0    0    0     0     0     0     0     0     0     0     0     0     6
2                          0    0    0    0    0    0    0    0    0     0     0     0     0     0     0     0     0     0    45
3                          0    0    0    0    3    1    0    0    0     0     0     0     0     0     0     0     0     0   140
4                          0    0    0    0    5    2    0    0    0     0     0     0     0     0     0     0     0     0   140
5                          0    0    0    0    6   29    5    0    0     0     0     0     0     0     0     0     0     0   262
6                          0    0    0    0    0    9   28    0    0     0     0     0     0     0     0     0     0     0   335
7                          0    0    0    0    0    0   23   20    1     0     0     0     0     0     0     0     0     0   243
8                          0    0    0    0    0    0    0   48   61     5     2     0     0     0     0     0     0     0   528
9                          0    0    0    0    0    0    0    0  125    27     5     0     0     0     0     0     0     0   406
10                         0    0    0    0    0    0    0    0    0    10    30     1     0     1     0     0     0     0   239
11                         0    0    0    0    0    0    0    0    0     0    31    18     1     0     0     0     0     0   133
12                         0    0    0    0    0    0    0    0    0     0     0    17     5     0     1     0     0     0    82
13                         0    0    0    0    0    0    0    0    0     0     0     0     5     3     0     0     0     0    71
14                         0    0    0    0    0    0    0    0    0     0     0     0     0     3     1     0     0     0    29
15                         0    0    0    0    0    0    0    0    0     0     0     0     0     0     1     2     0     0    17
16                         0    0    0    0    0    0    0    0    0     0     0     0     0     0     0     0     0     0     2
Column totals              0    0    0    0   14   41   56   68  187    42    68    36    11     7     3     2     0     0  2678
Untagged (u2)              0    0    0    0  571 1394 2441 4355 5609  2180  2577  1121   450   118    42     2     0     0    NA
Untagged - after fixups    0    0    0    0  571 1394 2441 4355 5609  2180  2577  1121   450   118    42     2     0     0    NA
Logit P fixed            -10  -10  -10  -10   NA   NA   NA   NA   NA    NA    NA    NA    NA    NA    NA    NA   -10   -10    NA


*** Information on priors *** 
   P(marked fish available for subsequent recapture) has beta( 448 86 ) which corresponds 
    to a mean of  0.84  and sd of  0.016 
   Parameters for prior on tauU (variance in spline coefficients):  1 0.05  which corresponds to a mean/std dev of 1/var of: 20 20 
   Parameters for prior on taueU (variance of log(U) about spline):  1 0.05  which corresponds to a mean/std dev of 1/var of: 20 20 
   Parameters for prior on beta.logitP[1] (intercept) (mean, sd): 
 -1.611 2 
   Parameters for prior on tauP (residual variance of logit(P) after adjusting for covariates):  0.001 0.001  which corresponds to a mean/std dev of 1/var of: 1 31.62 
   Parameters for prior on tauTT (variance of continuation rations for travel times):  0.1 0.1  which corresponds to a mean/std dev of 1/var of: 1 3.16 


Initial seed for this run is:  2019 


*** Summary of MCMC results *** 

Inference for Bugs model at "C:/Taku_sockeye/Taku_sockeye_public/Postseason_fallback--2019/model.txt", fit using jags,
 3 chains, each with 30000 iterations (first 1000 discarded), n.thin = 58
 n.sims = 1500 iterations saved
                     mean       sd      2.5%        25%        50%        75%      97.5%  Rhat n.eff
Ntot           108266.039 6869.675 96529.618 103828.250 107775.500 112086.000 122264.589 1.025    98
Theta[1,1]          0.496    0.187     0.144      0.361      0.504      0.634      0.852 1.000  1500
Theta[2,1]          0.503    0.184     0.145      0.372      0.505      0.633      0.850 1.012   200
Theta[3,1]          0.396    0.155     0.110      0.283      0.389      0.504      0.706 1.001  1500
Theta[4,1]          0.534    0.137     0.242      0.442      0.549      0.628      0.781 1.008   390
Theta[5,1]          0.231    0.074     0.101      0.180      0.227      0.277      0.394 1.001  1500
Theta[6,1]          0.298    0.085     0.151      0.237      0.291      0.352      0.474 1.000  1500
Theta[7,1]          0.551    0.076     0.405      0.499      0.551      0.602      0.698 1.002  1000
Theta[8,1]          0.577    0.057     0.460      0.538      0.581      0.617      0.687 1.008   290
Theta[9,1]          0.667    0.056     0.551      0.631      0.670      0.705      0.768 1.020   110
Theta[10,1]         0.407    0.091     0.222      0.346      0.407      0.468      0.584 1.004   910
Theta[11,1]         0.589    0.072     0.445      0.538      0.591      0.638      0.729 1.001  1500
Theta[12,1]         0.632    0.096     0.445      0.566      0.634      0.703      0.805 1.004   560
Theta[13,1]         0.537    0.134     0.266      0.447      0.542      0.634      0.786 1.000  1500
Theta[14,1]         0.601    0.150     0.299      0.502      0.606      0.708      0.883 1.001  1500
Theta[15,1]         0.414    0.153     0.145      0.302      0.404      0.520      0.717 1.001  1400
Theta[16,1]         0.480    0.185     0.127      0.348      0.476      0.615      0.840 1.001  1500
Theta[1,2]          0.434    0.170     0.119      0.309      0.425      0.556      0.773 1.005  1500
Theta[2,2]          0.432    0.169     0.123      0.309      0.426      0.556      0.768 1.006   340
Theta[3,2]          0.461    0.147     0.160      0.357      0.462      0.564      0.746 1.001  1500
Theta[4,2]          0.387    0.126     0.165      0.297      0.375      0.469      0.660 1.003   660
Theta[5,2]          0.665    0.076     0.511      0.615      0.668      0.717      0.808 1.001  1500
Theta[6,2]          0.668    0.087     0.496      0.608      0.673      0.728      0.825 1.000  1500
Theta[7,2]          0.420    0.074     0.280      0.371      0.420      0.469      0.567 1.002  1200
Theta[8,2]          0.347    0.052     0.249      0.312      0.344      0.380      0.456 1.010   210
Theta[9,2]          0.296    0.054     0.198      0.258      0.292      0.330      0.407 1.018   120
Theta[10,2]         0.538    0.088     0.369      0.475      0.538      0.596      0.711 1.003  1500
Theta[11,2]         0.370    0.068     0.242      0.325      0.368      0.417      0.503 1.002  1500
Theta[12,2]         0.316    0.089     0.153      0.251      0.314      0.377      0.493 1.003   770
Theta[13,2]         0.409    0.124     0.185      0.318      0.403      0.491      0.673 1.000  1500
Theta[14,2]         0.342    0.135     0.095      0.245      0.337      0.430      0.616 1.003   660
Theta[15,2]         0.509    0.144     0.230      0.409      0.510      0.607      0.788 1.002  1300
Theta[16,2]         0.446    0.170     0.127      0.323      0.444      0.560      0.779 1.003   750
Theta[1,3]          0.054    0.049     0.006      0.023      0.040      0.070      0.191 1.001  1500
Theta[2,3]          0.051    0.046     0.005      0.021      0.038      0.066      0.174 1.002  1200
Theta[3,3]          0.114    0.063     0.034      0.070      0.099      0.142      0.266 1.001  1500
Theta[4,3]          0.065    0.039     0.015      0.037      0.056      0.085      0.168 1.001  1500
Theta[5,3]          0.091    0.039     0.034      0.062      0.083      0.111      0.188 1.000  1500
Theta[6,3]          0.027    0.017     0.004      0.014      0.024      0.036      0.068 1.003  1500
Theta[7,3]          0.023    0.013     0.005      0.013      0.020      0.029      0.053 1.001  1500
Theta[8,3]          0.061    0.025     0.023      0.043      0.056      0.075      0.119 1.001  1500
Theta[9,3]          0.032    0.013     0.012      0.022      0.030      0.039      0.064 1.001  1500
Theta[10,3]         0.039    0.021     0.010      0.024      0.035      0.050      0.092 1.002  1500
Theta[11,3]         0.032    0.020     0.007      0.018      0.027      0.041      0.082 1.000  1500
Theta[12,3]         0.038    0.027     0.006      0.019      0.031      0.049      0.107 1.002   970
Theta[13,3]         0.041    0.031     0.004      0.018      0.033      0.054      0.125 1.003  1500
Theta[14,3]         0.044    0.040     0.003      0.017      0.033      0.055      0.157 1.001  1400
Theta[15,3]         0.060    0.051     0.007      0.027      0.046      0.077      0.192 1.001  1500
Theta[16,3]         0.058    0.055     0.005      0.023      0.042      0.074      0.206 1.002   930
Theta[1,4]          0.011    0.015     0.000      0.002      0.006      0.012      0.052 1.000  1500
Theta[2,4]          0.009    0.012     0.000      0.002      0.005      0.011      0.043 1.002  1500
Theta[3,4]          0.021    0.019     0.003      0.009      0.015      0.027      0.068 1.000  1500
Theta[4,4]          0.010    0.010     0.001      0.003      0.006      0.012      0.040 1.001  1500
Theta[5,4]          0.009    0.008     0.001      0.004      0.007      0.013      0.031 1.002  1100
Theta[6,4]          0.004    0.004     0.000      0.001      0.003      0.006      0.015 1.003   730
Theta[7,4]          0.004    0.004     0.000      0.001      0.003      0.005      0.015 1.002  1200
Theta[8,4]          0.011    0.007     0.002      0.006      0.009      0.014      0.028 1.001  1500
Theta[9,4]          0.004    0.003     0.000      0.001      0.003      0.005      0.012 1.002  1300
Theta[10,4]         0.009    0.009     0.001      0.003      0.006      0.012      0.034 1.002  1200
Theta[11,4]         0.005    0.006     0.000      0.002      0.003      0.007      0.022 1.000  1500
Theta[12,4]         0.010    0.010     0.001      0.004      0.007      0.013      0.040 1.000  1500
Theta[13,4]         0.008    0.010     0.000      0.002      0.005      0.010      0.038 1.002  1300
Theta[14,4]         0.009    0.014     0.000      0.002      0.005      0.010      0.040 1.001  1400
Theta[15,4]         0.012    0.015     0.000      0.003      0.007      0.014      0.052 1.001  1500
Theta[16,4]         0.011    0.016     0.000      0.003      0.006      0.013      0.053 1.003   810
Theta[1,5]          0.006    0.010     0.000      0.001      0.002      0.006      0.035 1.001  1500
Theta[2,5]          0.005    0.007     0.000      0.001      0.002      0.006      0.021 1.001  1500
Theta[3,5]          0.009    0.010     0.001      0.003      0.006      0.012      0.035 1.002  1200
Theta[4,5]          0.005    0.006     0.000      0.001      0.003      0.006      0.023 1.001  1500
Theta[5,5]          0.004    0.005     0.000      0.001      0.003      0.005      0.017 1.003   660
Theta[6,5]          0.002    0.003     0.000      0.001      0.001      0.003      0.011 1.003  1500
Theta[7,5]          0.002    0.003     0.000      0.001      0.001      0.003      0.009 1.003   630
Theta[8,5]          0.004    0.004     0.000      0.001      0.003      0.005      0.014 1.001  1500
Theta[9,5]          0.002    0.002     0.000      0.001      0.001      0.003      0.008 1.005   440
Theta[10,5]         0.007    0.008     0.000      0.002      0.004      0.009      0.026 1.000  1500
Theta[11,5]         0.003    0.003     0.000      0.001      0.002      0.003      0.011 1.001  1500
Theta[12,5]         0.004    0.006     0.000      0.001      0.003      0.005      0.019 1.001  1500
Theta[13,5]         0.005    0.007     0.000      0.001      0.002      0.005      0.023 1.002  1100
Theta[14,5]         0.004    0.007     0.000      0.001      0.002      0.005      0.021 1.000  1500
Theta[15,5]         0.006    0.010     0.000      0.001      0.003      0.007      0.029 1.001  1500
Theta[16,5]         0.006    0.009     0.000      0.001      0.003      0.006      0.030 1.002  1000
U[1]              256.502 1420.255     0.000      1.000      8.000     58.250   2020.100 1.056   910
U[2]              320.011  857.022     2.000     17.000     72.000    246.250   2354.525 1.028   580
U[3]              735.663  994.679    44.000    182.749    405.000    889.500   3465.525 1.015   140
U[4]             1988.167 1454.668   473.423   1044.000   1593.499   2531.499   5544.777 1.010   200
U[5]             4540.815 1201.143  2707.848   3667.749   4370.500   5211.000   7301.000 1.006   370
U[6]             9257.013 1419.114  6700.000   8258.500   9148.000  10137.500  12352.150 1.001  1500
U[7]            15813.262 2098.693 12282.950  14359.250  15600.000  17125.500  20561.105 1.007   300
U[8]            25206.760 3106.905 19857.749  23074.000  24900.500  27064.000  32273.448 1.007   290
U[9]            15998.537 1682.901 12739.984  14881.000  15991.000  17122.500  19306.525 1.029    85
U[10]           14058.311 2364.379 10081.425  12369.500  13931.000  15438.499  19368.374 1.030    86
U[11]            9534.329 1232.739  7340.425   8668.750   9439.000  10304.500  12283.838 1.000  1500
U[12]            4458.592  702.677  3188.220   3965.750   4390.500   4886.250   5955.624 1.000  1500
U[13]            2423.051  483.050  1643.373   2081.750   2375.500   2679.250   3526.099 1.004   490
U[14]             744.073  170.866   469.475    629.000    722.500    836.250   1140.000 1.000  1500
U[15]             202.283   58.270   114.474    163.000    192.000    231.000    340.572 1.001  1500
U[16]              26.752   15.705     8.000     17.000     23.000     33.000     65.523 1.004   640
U[17]               3.975    5.819     0.000      1.000      2.000      5.000     20.000 1.026   690
U[18]               0.523    3.023     0.000      0.000      0.000      0.000      4.000 1.097   890
Utot           105568.619 6856.632 93869.063 101115.500 105097.000 109377.750 119527.725 1.025    98
bU[1]              -0.735    4.695   -10.215     -4.063     -0.518      2.507      7.742 1.022   110
bU[2]               4.226    1.861     0.356      3.007      4.313      5.520      7.574 1.012   160
bU[3]               9.133    0.495     8.194      8.810      9.120      9.451     10.124 1.013   200
bU[4]              10.373    0.304     9.796     10.173     10.363     10.567     10.976 1.005   480
bU[5]               8.210    0.376     7.486      7.963      8.206      8.440      8.960 1.001  1500
bU[6]               3.667    0.628     2.447      3.268      3.665      4.062      4.985 1.003   790
bU[7]              -3.673    2.720    -9.672     -5.291     -3.427     -1.933      1.103 1.017   200
bU[8]             -11.001    6.669   -26.411    -14.765    -10.414     -6.592      0.863 1.008   420
beta.logitP[1]     -1.454    0.172    -1.839     -1.553     -1.446     -1.342     -1.139 1.000  1500
beta.logitP[2]      0.027   10.280   -19.808     -7.324     -0.005      6.899     20.326 1.002   880
deviance          297.921   10.256   278.762    290.827    297.667    304.616    317.820 1.005   390
eU[1]               0.003    0.246    -0.530     -0.132      0.011      0.144      0.474 1.001  1500
eU[2]              -0.004    0.246    -0.481     -0.148     -0.005      0.131      0.496 1.005  1500
eU[3]              -0.002    0.238    -0.473     -0.145      0.002      0.149      0.478 1.000  1500
eU[4]               0.001    0.237    -0.470     -0.146      0.001      0.144      0.478 1.001  1500
eU[5]              -0.041    0.220    -0.500     -0.175     -0.038      0.101      0.375 1.008   260
eU[6]              -0.047    0.184    -0.424     -0.154     -0.047      0.072      0.291 1.002  1500
eU[7]               0.028    0.174    -0.300     -0.085      0.023      0.133      0.396 1.007   290
eU[8]               0.286    0.171    -0.014      0.169      0.275      0.389      0.650 1.005   400
eU[9]              -0.147    0.170    -0.502     -0.255     -0.134     -0.037      0.155 1.011   220
eU[10]             -0.054    0.186    -0.430     -0.161     -0.063      0.056      0.321 1.011   210
eU[11]              0.000    0.171    -0.329     -0.106     -0.001      0.105      0.330 1.002  1000
eU[12]             -0.120    0.182    -0.487     -0.229     -0.113      0.001      0.205 1.002  1500
eU[13]              0.112    0.197    -0.236     -0.017      0.101      0.229      0.565 1.002  1000
eU[14]              0.003    0.201    -0.381     -0.125      0.001      0.123      0.418 1.001  1500
eU[15]              0.112    0.213    -0.271     -0.029      0.099      0.233      0.582 1.001  1300
eU[16]             -0.107    0.249    -0.657     -0.242     -0.085      0.047      0.342 1.000  1500
eU[17]              0.005    0.237    -0.470     -0.142      0.003      0.133      0.514 1.001  1500
eU[18]              0.000    0.243    -0.452     -0.145     -0.005      0.140      0.516 1.003  1500
etaU[1]             1.984    3.020    -3.775     -0.219      2.121      4.067      7.611 1.021   110
etaU[2]             4.204    1.886     0.478      2.851      4.277      5.507      7.764 1.019   120
etaU[3]             5.992    1.134     3.790      5.207      6.004      6.791      8.151 1.018   130
etaU[4]             7.386    0.644     6.161      6.951      7.374      7.837      8.621 1.010   200
etaU[5]             8.387    0.258     7.904      8.207      8.383      8.559      8.896 1.005   370
etaU[6]             9.121    0.153     8.810      9.019      9.121      9.224      9.422 1.001  1500
etaU[7]             9.660    0.131     9.416      9.572      9.655      9.748      9.931 1.007   300
etaU[8]            10.127    0.122     9.896     10.046     10.123     10.206     10.382 1.007   290
etaU[9]             9.675    0.107     9.452      9.608      9.680      9.748      9.868 1.029    84
etaU[10]            9.537    0.165     9.218      9.423      9.542      9.645      9.871 1.029    86
etaU[11]            9.154    0.129     8.901      9.067      9.153      9.240      9.416 1.000  1500
etaU[12]            8.390    0.157     8.067      8.285      8.387      8.494      8.692 1.000  1500
etaU[13]            7.774    0.193     7.405      7.641      7.773      7.893      8.168 1.004   490
etaU[14]            6.587    0.223     6.152      6.444      6.583      6.729      7.038 1.000  1500
etaU[15]            5.271    0.274     4.740      5.093      5.259      5.444      5.832 1.001  1500
etaU[16]            3.141    0.541     2.064      2.808      3.152      3.494      4.187 1.006   550
etaU[17]            0.712    1.215    -1.784     -0.020      0.756      1.535      2.972 1.013   230
etaU[18]           -3.124    2.574    -8.783     -4.622     -2.931     -1.442      1.351 1.014   230
logUne[1]           1.981    3.009    -3.831     -0.152      2.139      4.071      7.408 1.022   110
logUne[2]           4.208    1.873     0.444      2.846      4.309      5.483      7.681 1.019   120
logUne[3]           5.994    1.113     3.789      5.241      6.020      6.745      8.111 1.017   140
logUne[4]           7.385    0.603     6.197      6.971      7.381      7.793      8.563 1.009   210
logUne[5]           8.429    0.295     7.899      8.225      8.419      8.626      9.027 1.003   650
logUne[6]           9.169    0.177     8.815      9.057      9.172      9.281      9.519 1.001  1500
logUne[7]           9.632    0.151     9.345      9.541      9.628      9.727      9.917 1.003   910
logUne[8]           9.842    0.144     9.574      9.755      9.840      9.931     10.125 1.002  1500
logUne[9]           9.822    0.145     9.549      9.730      9.816      9.919     10.100 1.003  1500
logUne[10]          9.591    0.139     9.329      9.503      9.586      9.680      9.856 1.004   610
logUne[11]          9.154    0.143     8.882      9.060      9.146      9.246      9.426 1.003   790
logUne[12]          8.511    0.163     8.209      8.404      8.507      8.617      8.825 1.001  1500
logUne[13]          7.662    0.175     7.319      7.553      7.658      7.772      8.009 1.000  1500
logUne[14]          6.584    0.199     6.180      6.455      6.591      6.712      6.986 1.002  1300
logUne[15]          5.159    0.285     4.594      4.969      5.164      5.346      5.712 1.000  1500
logUne[16]          3.248    0.545     2.126      2.911      3.261      3.597      4.319 1.009   420
logUne[17]          0.708    1.181    -1.830     -0.009      0.767      1.462      2.782 1.013   240
logUne[18]         -3.124    2.553    -8.653     -4.614     -2.916     -1.495      1.371 1.015   230
logitP[1]         -10.000    0.000   -10.000    -10.000    -10.000    -10.000    -10.000 1.000     1
logitP[2]         -10.000    0.000   -10.000    -10.000    -10.000    -10.000    -10.000 1.000     1
logitP[3]         -10.000    0.000   -10.000    -10.000    -10.000    -10.000    -10.000 1.000     1
logitP[4]         -10.000    0.000   -10.000    -10.000    -10.000    -10.000    -10.000 1.000     1
logitP[5]          -1.894    0.296    -2.475     -2.095     -1.885     -1.688     -1.312 1.006   330
logitP[6]          -1.714    0.181    -2.059     -1.838     -1.719     -1.595     -1.343 1.001  1500
logitP[7]          -1.689    0.154    -1.990     -1.794     -1.685     -1.584     -1.385 1.007   290
logitP[8]          -1.557    0.148    -1.857     -1.655     -1.555     -1.463     -1.273 1.007   280
logitP[9]          -0.602    0.168    -0.891     -0.718     -0.614     -0.502     -0.236 1.032    82
logitP[10]         -1.676    0.195    -2.053     -1.803     -1.682     -1.548     -1.291 1.027    93
logitP[11]         -0.977    0.176    -1.323     -1.094     -0.982     -0.858     -0.627 1.000  1500
logitP[12]         -1.066    0.209    -1.463     -1.210     -1.069     -0.934     -0.625 1.000  1500
logitP[13]         -1.456    0.238    -1.928     -1.607     -1.459     -1.294     -1.005 1.004   550
logitP[14]         -1.641    0.266    -2.160     -1.812     -1.646     -1.460     -1.127 1.001  1500
logitP[15]         -1.342    0.337    -2.015     -1.561     -1.333     -1.127     -0.661 1.000  1500
logitP[16]         -1.768    0.457    -2.805     -2.023     -1.732     -1.489     -0.927 1.003  1300
logitP[17]        -10.000    0.000   -10.000    -10.000    -10.000    -10.000    -10.000 1.000     1
logitP[18]        -10.000    0.000   -10.000    -10.000    -10.000    -10.000    -10.000 1.000     1
logitP[19]        -10.000    0.000   -10.000    -10.000    -10.000    -10.000    -10.000 1.000     1
logitP[20]        -10.000    0.000   -10.000    -10.000    -10.000    -10.000    -10.000 1.000     1
logitP[21]        -10.000    0.000   -10.000    -10.000    -10.000    -10.000    -10.000 1.000     1
ma.p                0.839    0.016     0.806      0.829      0.840      0.850      0.868 1.002  1200
movep[1]            0.490    0.066     0.360      0.446      0.493      0.532      0.620 1.002  1000
movep[2]            0.451    0.061     0.335      0.412      0.448      0.490      0.575 1.002   930
movep[3]            0.048    0.016     0.022      0.037      0.046      0.057      0.087 1.002  1200
movep[4]            0.008    0.005     0.002      0.005      0.007      0.010      0.020 1.001  1500
movep[5]            0.004    0.003     0.001      0.002      0.003      0.005      0.012 1.001  1500
muTT[1]            -0.041    0.269    -0.576     -0.216     -0.029      0.130      0.492 1.002  1100
muTT[2]             2.068    0.338     1.418      1.838      2.067      2.277      2.745 1.003   760
muTT[3]             1.479    0.519     0.500      1.146      1.458      1.800      2.561 1.001  1500
muTT[4]             0.822    0.822    -0.794      0.265      0.813      1.341      2.520 1.000  1500
sdTT                0.803    0.214     0.457      0.653      0.780      0.926      1.263 1.000  1500
sigmaP              0.481    0.146     0.271      0.378      0.461      0.553      0.822 1.013   160
sigmaU              3.433    1.599     1.592      2.322      3.034      4.094      7.355 1.001  1500
sigmaeU             0.227    0.081     0.117      0.168      0.211      0.269      0.421 1.004   510
tauP                5.537    3.310     1.480      3.266      4.697      6.999     13.590 1.013   160
tauU                0.137    0.108     0.018      0.060      0.109      0.185      0.394 1.001  1500
taueU              26.931   17.953     5.640     13.797     22.396     35.583     73.112 1.004   510

For each parameter, n.eff is a crude measure of effective sample size,
and Rhat is the potential scale reduction factor (at convergence, Rhat=1).

DIC info (using the rule, pD = var(deviance)/2)
pD = 52.4 and DIC = 350.3
DIC is an estimate of expected predictive error (lower deviance is better).


*** Alternate DIC computation based on p_D = var(deviance)/2 
    D-bar:  297.9207 ;  var(dev):  105.1936 ; p.D:  52.59682 ; DIC:  350.5175



*** Summary of Unmarked Population Size ***
   mean      sd    2.5%     25%     50%     75%   97.5%    Rhat   n.eff 
105,568   6,856  93,869 101,115 105,096 109,377 119,527    1.02      98 


*** Summary of Total Population Size *** 
   mean      sd    2.5%     25%     50%     75%   97.5%    Rhat   n.eff 
108,266   6,869  96,529 103,828 107,775 112,085 122,264    1.02      98 




*** Summary of Quantiles of Run Timing *** 
    This is based on the sample weeks provided and the U[i] values 
       0%  10%  20%  30%  40%  50%  60%  70%   80%   90% 100%
Mean 1.21 6.27 7.23 7.91 8.37 8.79 9.33 9.99 10.74 11.71   19
Sd   0.41 0.58 0.38 0.25 0.15 0.13 0.17 0.16  0.12  0.11    0


