logitP <-
c(NA, NA, NA, NA, -1.85477243705679, -2.17654437209868, -1.68639895357023, 
-1.50692234890851, -0.943758126574766, -1.71526343623795, -0.958523495497428, 
-1.22866541691631, -2.0654552997051, -1.75785791755237, -1.44691898293633, 
-0.693147180559946, NA, NA, NA, NA, NA)
beta.logitP <-
c(-1.50285233063453, 0)
tauP <-
4.62011575601636
bU <-
c(SplineDesign1 = 7.90288248749487, SplineDesign2 = -5.45245513343064, 
SplineDesign3 = 9.46580042292329, SplineDesign4 = 10.7492093656223, 
SplineDesign5 = 8.66162798573468, SplineDesign6 = 2.92839873732317, 
SplineDesign7 = -0.865519759954148, SplineDesign8 = 14.1163209384457
)
tauU <-
0.00405706872635659
taueU <-
1.72914682259459
etaU <-
c(1.79269361221985, 1.79269361221985, 1.79269361221985, 1.79269361221985, 
8.14183260359965, 9.03334330647532, 9.5932662668905, 10.1720030962727, 
10.4249996107366, 9.48023237842148, 9.64746279571898, 8.81556169830249, 
7.90416095172253, 6.57181710533138, 5.55389372791341, 2.89130590088796, 
1.79269361221985, 1.79269361221985)
muTT <-
c(-0.904702369437297, 1.06517717818768, -0.0172643643700657, 
0.272861150166505)
tauTT <-
0.445893269828338
r <-
structure(c(-1.38629436111989, -1.38629436111989, -4.62497281328427, 
-4.62497281328427, -1.75785791755237, -1.17385718042131, 0.0499212383753692, 
-0.365221649907199, 1.26897365454335, -1.17619042331348, 0.438254930931155, 
0.967584026261705, 0.433864582629862, 0.985283603361107, -0.73716406597672, 
-1.38629436111989, -1.09861228866811, -1.09861228866811, -4.61512051684126, 
0.848632083400341, 1.6094379124341, 3.22784449485097, 2.36446049671213, 
2.01162969519729, 1.19904668598988, 2.51742984149356, 2.19722457733622, 
1.23100147671385, 2.52572864430825, 2.12026353620009, 3.10109278921181, 
-1.09861228866811, -0.693147180559946, -0.693147180559946, 1.05939157551483, 
2.65926003693278, 1.83258146374831, -0.693147180559945, 0.12783337150988, 
0.458865884835276, 0.465215112513941, -0.35065687161317, -4.32986979603812e-15, 
-1.67669013944327, -0.693147180559945, -0.693147180559945, -0.693147180559945, 
-0.693147180559946, -1.11022302462516e-16, -1.11022302462516e-16, 
3.2188758248682, 8.88178419700125e-16, -4.32986979603812e-15, 
1.19904086659516e-14, -4.32986979603812e-15, 0.544727175441664, 
7.10542735760098e-15, -0.867500567704723, -4.32986979603812e-15, 
1.46967597005893, 8.88178419700125e-16, 8.88178419700125e-16, 
8.88178419700125e-16, -1.11022302462516e-16), .Dim = c(16L, 4L
))
ma.p <-
0.838951310861423
.RNG.seed <-
769902
.RNG.name <-
"base::Wichmann-Hill"
