logitP <-
c(NA, NA, NA, NA, -2.82665594351006, -2.972384909557, -2.27212588550934, 
-2.44544781304745, -1.96398293011501, -1.44280657138323, -1.98100146886658, 
-2.00976162104185, -1.55059741241117, -2.80336038090653, -1.38629436111989, 
0, 0, NA, NA, NA, NA, NA, NA)
beta.logitP <-
c(-1.81957071518985, 0)
tauP <-
1.08948677161905
bU <-
c(SplineDesign1 = 8.36204229152187, SplineDesign2 = -4.66971837526147, 
SplineDesign3 = 10.1592396378144, SplineDesign4 = 10.595739346067, 
SplineDesign5 = 8.17442554570781, SplineDesign6 = 5.26790585745778, 
SplineDesign7 = 0.150794784976406, SplineDesign8 = 10.2204692316981
)
tauU <-
0.00439234482328556
taueU <-
1.66230433322715
etaU <-
c(2.42871890786785, 2.42871890786785, 2.42871890786785, 2.42871890786785, 
8.75665569159704, 9.72580991302827, 9.85348066969106, 9.50958680455863, 
10.00276391324, 10.245941693376, 9.42905336814308, 8.70348092910979, 
7.85806453682229, 7.03388909385594, 6.27886650957791, 5.06777623748311, 
3.12186608842779, 2.42871890786785)
muTT <-
c(-0.569746520083803, 0.51656569584847, -0.82643234188354, -0.830783323781264, 
0.0519052458940267)
tauTT <-
0.718225182392682
r <-
structure(c(-1.6094379124341, -1.6094379124341, -1.6094379124341, 
-4.63472898822964, 0.0559826347509365, -0.386622020306684, 1.20833010969489, 
-0.148420005118273, 0.195640632424583, 0.291422392067504, 0.888119854907458, 
0.266946173972603, -0.751416088683921, 2.98568193770049, -1.6094379124341, 
-1.6094379124341, -1.6094379124341, -1.38629436111989, -1.38629436111989, 
-1.38629436111989, 3.2088254890147, 1.53380049822848, 0.750776293396582, 
0.983499481567606, 2.56209628847913, 1.35616461966786, 2.31441955064105, 
1.88387475813586, 1.07880966137193, 2.81341071676003, -1.38629436111989, 
-1.38629436111989, -1.38629436111989, -1.38629436111989, -1.09861228866811, 
-1.09861228866811, -1.09861228866811, -1.09861228866811, 0.673344553263762, 
1.71479842809193, -1.69529920304049, -1.09861228866811, 0.776528789498997, 
-1.09861228866811, -1.09861228866811, -2.33537491581704, -1.09861228866811, 
-1.09861228866811, -1.09861228866811, -1.09861228866811, -1.09861228866811, 
-0.693147180559945, -0.693147180559945, -0.693147180559945, -0.693147180559946, 
-0.69314718055995, -0.693147180559945, -1.4925165743752, -0.693147180559952, 
-0.693147180559945, -0.693147180559946, -0.693147180559952, -2.23359222150709, 
-0.693147180559952, -0.693147180559946, -0.693147180559945, -0.693147180559945, 
-0.693147180559945, 8.88178419700125e-16, 8.88178419700125e-16, 
8.88178419700125e-16, -4.44089209850064e-15, -1.06581410364016e-14, 
8.88178419700125e-16, -1.23787435600161, -4.44089209850064e-15, 
8.88178419700125e-16, -4.44089209850064e-15, -4.44089209850064e-15, 
2.1202635362001, -4.44089209850064e-15, -4.44089209850064e-15, 
8.88178419700125e-16, 8.88178419700125e-16, 8.88178419700125e-16
), .Dim = c(17L, 5L))
ma.p <-
0.8275
.RNG.seed <-
394226
.RNG.name <-
"base::Wichmann-Hill"
