"X","Mean","SD","X2.5.","X25.","Median","X75.","X97.5.","Rhat","n.eff","Estimate"
1,94657,5555,85867,90889,94234,97774,106563,1.0015502625698,1500,"Postseason_Large_-2019"
2,79565,5462,71139,76009,78943,82415,92244,1.01080314125032,850,"Postseason_Large_fallback--2019"
1,27214,3401,22050,25088,26841,28884,34143,1.00871412639207,420,"Postseason_Small_-2019"
2,22742,2791,18275,20853,22423,24278,28761,1.0009607382787,1500,"Postseason_Small_fallback--2019"
1,127933,7000,115682,123137,127292,132244,143493,1.00917634650789,400,"Postseason_-2019"
2,108266,6870,96530,103828,107775,112086,122265,1.024717610865,98,"Postseason_fallback--2019"
