"","Ntot.pp.est","Ntot.pp.se","Ntot.pp.fallback.est","Ntot.pp.fallback.se","file"
"1","27407","2805",NA,NA,"Postseason_Small_-2019"
"2","27407","2805","22993","2393","Postseason_Small_fallback--2019"
