logitP <-
c(NA, NA, NA, NA, -3.38196601973427, -3.6163087612791, -2.68273239311792, 
-3.42994679494814, -3.03582673075587, -2.79902197930794, -2.75153531304195, 
-2.81341071676004, -2.89037175789616, -1.79175946922805, 10, 
10, NA, NA, NA, NA, NA, NA, NA)
beta.logitP <-
c(-0.766073328005787, 0)
tauP <-
0.039210626424487
bU <-
c(SplineDesign1 = 8.10880664981859, SplineDesign2 = -2.39108166542452, 
SplineDesign3 = 9.46966950998171, SplineDesign4 = 10.3228000913894, 
SplineDesign5 = 7.84355067826298, SplineDesign6 = 4.87599236490686, 
SplineDesign7 = 1.07035464494837, SplineDesign8 = 12.9602271462889
)
tauU <-
0.00628132577083732
taueU <-
2.48041301334299
etaU <-
c(3.32130347244139, 3.32130347244139, 3.32130347244139, 3.32130347244139, 
8.42116990026559, 9.385088681129, 9.49924758649199, 9.17350595221586, 
9.66518390656772, 9.91434800658383, 9.10204698823372, 8.35174139383382, 
7.55540997703865, 6.72250085410355, 5.96036080205665, 4.93074138487549, 
3.32130347244139, 3.32130347244139)
muTT <-
c(-0.209541471633195, 0.0675918018735212, -0.82827069873019, 
-0.782729497006686, -0.126474665659061)
tauTT <-
0.766199465455953
r <-
structure(c(-1.6094379124341, -1.6094379124341, -1.6094379124341, 
-1.6094379124341, -0.0582689081239758, -0.0769610411361284, 1.24653241874473, 
-0.355340720925596, 0.333144446528538, -0.0769610411361284, -0.470003629245736, 
2.98568193770049, -1.6094379124341, 2.98568193770049, NA, NA, 
-1.6094379124341, -1.38629436111989, -1.38629436111989, -1.38629436111989, 
-1.38629436111989, 0.527632742082372, 2.52572864430825, 0.321583624127462, 
2.65926003693278, 0.836248024200618, 2.52572864430825, 2.70805020110221, 
-1.38629436111989, -1.38629436111989, -1.38629436111989, NA, 
NA, -1.38629436111989, -1.09861228866811, -1.09861228866811, 
-1.09861228866811, -1.09861228866811, 1.71479842809192, -1.09861228866811, 
-2.15948424935337, -1.09861228866811, 1.20397280432593, -1.09861228866811, 
-1.09861228866811, -1.09861228866811, -1.09861228866811, -1.09861228866811, 
NA, NA, -1.09861228866811, -0.693147180559945, -0.693147180559945, 
-0.693147180559945, -0.693147180559945, -0.693147180559945, -0.693147180559952, 
-2.03688192726104, -0.693147180559952, -0.69314718055995, -0.693147180559952, 
-0.693147180559946, -0.693147180559946, -0.693147180559945, -0.693147180559946, 
NA, NA, -0.693147180559945, 8.88178419700125e-16, 8.88178419700125e-16, 
8.88178419700125e-16, 8.88178419700125e-16, 8.88178419700125e-16, 
-4.44089209850064e-15, -1.89711998488588, -4.44089209850064e-15, 
-1.06581410364016e-14, -4.44089209850064e-15, -4.44089209850064e-15, 
-4.44089209850064e-15, 8.88178419700125e-16, -4.44089209850064e-15, 
NA, NA, 8.88178419700125e-16), .Dim = c(17L, 5L))
ma.p <-
0.8275
.RNG.seed <-
618502
.RNG.name <-
"base::Wichmann-Hill"
