"","0%","2.5%","5%","50%","95%","97.5%","100%"
"alpha",2.06799194505495,3.5580172983341,3.9505445578591,7.54200742485544,14.6041885165071,16.4860152201508,32.6800795405836
"lnalpha",0.726578061597473,1.26920342337292,1.3738533190789,2.02048835584189,2.68130837219715,2.80251245906583,3.48676570391123
"lnalpha.c",0.933892934474214,1.35527950931038,1.46761198019789,2.09689335986439,2.75529303677518,2.89206365810462,3.56485938441974
"beta",1.17331870950829e-06,4.41858171654104e-06,6.06423999181183e-06,1.66385475696585e-05,2.78992614828311e-05,3.00897982928313e-05,3.9056875627835e-05
"phi",-0.546560400994394,-0.263061625293463,-0.197367550933295,0.235150112023169,0.634023349479406,0.702496386026909,0.967852328064394
"sigma.R",0.202860731446574,0.269340808920534,0.281133437024392,0.355975666011681,0.45788377731859,0.48022927079997,0.620855151433166
"S.eq.c",83841.9012159832,94635.7810526744,97417.9905021894,125229.755089702,252654.585933842,328541.834466083,1133752.98093925
"S.max",25603.6865193416,33233.855406764,35843.2430560635,60101.4018699883,164901.212582955,226317.089735311,852283.349695389
"D.sum",18.346776252328,28.2475701491943,30.3885878021769,45.8993123041212,69.8175422881422,75.3057187305271,119.056218587954
"pi",0.344480280022243,0.363684252781137,0.369244470740172,0.393362092122126,0.418521037909728,0.42310687929166,0.450210034876939
"pi",0.500175279336144,0.523282511139156,0.528134631725884,0.554132628357376,0.57846939802714,0.583074266136228,0.600697836613466
"pi",0.0335036769616288,0.0403297113639313,0.0424150263243755,0.0525335009853875,0.0643929364011196,0.0668856700535106,0.0800028438821967
