"","variable","Mean","SD","time_series_se","2.5%","50%","97.5%","mc_error","converge"
"1","S.msy.c",51496.8997113069,30721.7363652901,560.996543739464,28932.8586247354,44122.7373802419,120801.082884281,0.0182605741117317,"true"
"2","alpha",8.21664006001321,3.34608142499632,0.0611109938989864,3.57209238883082,7.56624244236271,16.0492740928162,0.0182634509257508,"true"
"3","alpha.c",8.92734146647255,4.04908303818029,0.0740409517622976,3.90766115901242,8.16631840018959,17.5156359066785,0.0182858565912673,"true"
"4","beta",1.69262557498058e-05,6.47798716852143e-06,1.12476174927986e-07,4.65838029847259e-06,1.67778223725147e-05,2.95006540844283e-05,0.0173628276811883,"true"
"5","lnalpha",2.02928593180031,0.391909553434818,0.00715763000839833,1.27315148391061,2.02369656563063,2.77566355390115,0.0182634741757801,"true"
"6","lnalpha.c",2.10915186520607,0.393244405596573,0.0071819228668946,1.36293902596795,2.10001817531942,2.86309396128142,0.0182632550258388,"true"
