[1] ""
[1] ""
[1] "-------------------------------------------------------"
[1] "Years with at least 1 record in 1 of the input files"
[1] "-------------------------------------------------------"
 [1] 1983 1984 1985 1986 1987 1988 1989 1990 1991 1992 1993 1994 1995 1996 1997 1998 1999 2000 2001 2002 2003
[22] 2004 2005 2006 2007 2008 2009 2010 2011 2012 2013 2014 2015 2016 2017 2018
[1] ""
[1] ""
[1] "-------------------------------------------------------"
[1] "Total Number of Unique Tag IDs (across all input files"
[1] "-------------------------------------------------------"
[1] ""
[1] ""
[1] "-------------------------------------------------------"
[1] "Duplicates in Releases V2 Part 2 (with Tag_Begin and Tag_End)"
[1] "-------------------------------------------------------"
$`2016-08-26`
[1] 27705 27706 27707

$`2016-09-18`
[1] 28407

[1] ""
[1] ""
[1] "-------------------------------------------------------"
[1] "Summary of Cleaned Records"
[1] "-------------------------------------------------------"
   Year NumRecords_Rec NumRecords_Rel PropRecovered
1  1992             10              0           Inf
2  1993            950              0           Inf
3  1994           1822              0           Inf
4  1995           1913              0           Inf
5  1996           2221              0           Inf
6  1997            479              0           Inf
7  1998           1329           3819     0.3479969
8  1999           1333           4288     0.3108675
9  2000           2004           5401     0.3710424
10 2001           2375              0           Inf
11 2002           1776           5377     0.3302957
12 2003           1718           5461     0.3145944
13 2004           1431           5659     0.2528715
14 2005            995           3619     0.2749378
15 2006           1721           4931     0.3490164
16 2007           2138           7066     0.3025757
17 2008           1038           3444     0.3013937
18 2009            724           3143     0.2303532
19 2010            807           2941     0.2743965
20 2011           1031           3408     0.3025235
21 2012           1377           4126     0.3337373
22 2013           1349           4100     0.3290244
23 2014           1128           4895     0.2304392
24 2015            950           4623     0.2054943
25 2016           2179           6232     0.3496470
26 2017           2292           5720     0.4006993
27 2018            792           3322     0.2384106
