muTT <-
c(-0.679694696188341, 0.924824817881708, -0.491339295514839, 
-0.143911568312129)
tauTT <-
0.637484335166438
r <-
structure(c(-1.6094379124341, -1.6094379124341, -1.6094379124341, 
-4.63472898822964, -0.63569460581186, -1.00063188030791, -0.270720859058432, 
-0.72270598280149, -0.607589292198299, -0.522035287339339, -0.183709482068803, 
-0.712949807856125, -1.12817109090965, -1.6094379124341, -1.6094379124341, 
-1.6094379124341, -1.38629436111989, -1.38629436111989, -1.38629436111989, 
-0.0298529631496812, -0.063913325743653, -0.542324290825362, 
-0.131028262406404, -0.0582689081239758, -0.177548278041297, 
-0.0743120329645515, -0.19062035960865, -0.262364264467491, -0.0440168854167744, 
-1.38629436111989, -1.38629436111989, -1.38629436111989, -1.09861228866811, 
-1.09861228866811, -1.09861228866811, -1.09861228866811, -1.09861228866811, 
-0.0769610411361286, -1.09861228866811, -1.09861228866811, -0.307484699747961, 
-1.09861228866811, -1.09861228866811, -2.484906649788, -1.09861228866811, 
-1.09861228866811, -1.09861228866811, -1.09861228866811, -0.693147180559945, 
-0.693147180559945, -0.693147180559945, -0.693147180559945, -0.693147180559951, 
-0.693147180559947, -0.693147180559945, -0.693147180559945, -0.693147180559947, 
-0.693147180559945, -0.693147180559945, -2.39789527279837, -0.693147180559945, 
-0.693147180559945, -0.693147180559945, -0.693147180559945), .Dim = c(16L, 
4L))
beta.logitP <-
c(-3.44264964696843, 0)
tauP <-
6.98020753982222
bU <-
c(`SplineDesign[tmp1, ]1` = 8.16745234849426, `SplineDesign[tmp1, ]2` = 11.7016688558404, 
`SplineDesign[tmp1, ]3` = 10.0212219404285, `SplineDesign[tmp1, ]4` = 11.0544527176906, 
`SplineDesign[tmp1, ]5` = 8.64785770201634, `SplineDesign[tmp1, ]6` = 6.03899890971671, 
`SplineDesign[tmp1, ]7` = 1.540513965273, `SplineDesign[tmp1, ]8` = 8.16745234849426
)
tauU <-
0.0290390991477571
taueU <-
20.4113290029933
etaU <-
c(9.87704090252114, 10.664012968426, 10.5855737857366, 10.4873498605461, 
10.4421131511598, 10.8516451007487, 10.5898870183887, 10.1551408122961, 
10.4635889368363, 10.5091414218129, 9.77149782807318, 9.34460899278122, 
8.40670845824097, 7.48099216286952, 7.13648320859025, 5.78382518232974, 
4.17438726989564, 2.77258872223978)
epsilon <-
c(NA, NA, NA, NA, 0.0116599836989906, 0.0204995545232123, 0.0305684754464313, 
0.0333000508674672, 0.0401784528981963, 0.0490595472593345, 0.0451913622810274, 
0.0337471401148068, 0.0364313130318639, 0.0410035454789917, 0.0274687048037556, 
0.0318782321220219, 0.0466267107536922, NA, NA, NA, NA)
.RNG.seed <-
646903
.RNG.name <-
"base::Wichmann-Hill"
