"","variable","Mean","SD","time_series_se","perc_2.5","perc_50","perc_97.5","mc_error","converge","mu_val","sigma_val","model"
"1","Smsy_lambert","   53060.81","  214696.30",NA,"   28446.04","   43691.87","  132162.79",NA,NA,0,1e-06,"mu_0_sigma_1e-06"
"2","Umsy_lambert","0.7327026","0.0846950",NA,"0.5314417","0.7420976","0.8674181",NA,NA,0,1e-06,"mu_0_sigma_1e-06"
"3","Smsy_lambert80","   42448.64","  171757.04",NA,"   22756.83","   34953.49","  105730.23",NA,NA,0,1e-06,"mu_0_sigma_1e-06"
